(['C:\\Users\\tamli\\Desktop\\Magshimim\\magshimim third '
  'year\\GalilMaaravi-801-SandCastle\\stream '
  'screen\\sound_over_python\\dothestream.py'],
 ['C:\\Users\\tamli\\Desktop\\Magshimim\\magshimim third '
  'year\\GalilMaaravi-801-SandCastle\\stream screen\\sound_over_python',
  'C:\\Users\\tamli\\Desktop\\Magshimim\\magshimim third '
  'year\\GalilMaaravi-801-SandCastle\\stream screen\\sound_over_python'],
 ['codecs'],
 [],
 [],
 [],
 False,
 False,
 '3.6.1 (v3.6.1:69c0db5, Mar 21 2017, 18:41:36) [MSC v.1900 64 bit (AMD64)]',
 [('pyi_rth_multiprocessing',
   'c:\\python36\\lib\\site-packages\\PyInstaller\\loader\\rthooks\\pyi_rth_multiprocessing.py',
   'PYSOURCE'),
  ('pyi_rth_pkgres',
   'c:\\python36\\lib\\site-packages\\PyInstaller\\loader\\rthooks\\pyi_rth_pkgres.py',
   'PYSOURCE'),
  ('pyi_rth_win32comgenpy',
   'c:\\python36\\lib\\site-packages\\PyInstaller\\loader\\rthooks\\pyi_rth_win32comgenpy.py',
   'PYSOURCE'),
  ('dothestream',
   'C:\\Users\\tamli\\Desktop\\Magshimim\\magshimim third '
   'year\\GalilMaaravi-801-SandCastle\\stream '
   'screen\\sound_over_python\\dothestream.py',
   'PYSOURCE')],
 [('win32com',
   'c:\\python36\\lib\\site-packages\\win32com\\__init__.py',
   'PYMODULE'),
  ('win32com.server.util',
   'c:\\python36\\lib\\site-packages\\win32com\\server\\util.py',
   'PYMODULE'),
  ('win32com.server.dispatcher',
   'c:\\python36\\lib\\site-packages\\win32com\\server\\dispatcher.py',
   'PYMODULE'),
  ('win32traceutil',
   'c:\\python36\\lib\\site-packages\\win32\\lib\\win32traceutil.py',
   'PYMODULE'),
  ('win32com.util',
   'c:\\python36\\lib\\site-packages\\win32com\\util.py',
   'PYMODULE'),
  ('win32con',
   'c:\\python36\\lib\\site-packages\\win32\\lib\\win32con.py',
   'PYMODULE'),
  ('win32com.server.exception',
   'c:\\python36\\lib\\site-packages\\win32com\\server\\exception.py',
   'PYMODULE'),
  ('winerror',
   'c:\\python36\\lib\\site-packages\\win32\\lib\\winerror.py',
   'PYMODULE'),
  ('win32com.server.policy',
   'c:\\python36\\lib\\site-packages\\win32com\\server\\policy.py',
   'PYMODULE'),
  ('win32com.client',
   'c:\\python36\\lib\\site-packages\\win32com\\client\\__init__.py',
   'PYMODULE'),
  ('win32com.client.makepy',
   'c:\\python36\\lib\\site-packages\\win32com\\client\\makepy.py',
   'PYMODULE'),
  ('pywin.dialogs.status',
   'c:\\python36\\lib\\site-packages\\Pythonwin\\pywin\\dialogs\\status.py',
   'PYMODULE'),
  ('pywin.mfc.thread',
   'c:\\python36\\lib\\site-packages\\Pythonwin\\pywin\\mfc\\thread.py',
   'PYMODULE'),
  ('pywin.mfc.object',
   'c:\\python36\\lib\\site-packages\\Pythonwin\\pywin\\mfc\\object.py',
   'PYMODULE'),
  ('pywin.mfc.dialog',
   'c:\\python36\\lib\\site-packages\\Pythonwin\\pywin\\mfc\\dialog.py',
   'PYMODULE'),
  ('pywin.mfc.window',
   'c:\\python36\\lib\\site-packages\\Pythonwin\\pywin\\mfc\\window.py',
   'PYMODULE'),
  ('pywin.mfc',
   'c:\\python36\\lib\\site-packages\\Pythonwin\\pywin\\mfc\\__init__.py',
   'PYMODULE'),
  ('pywin.dialogs',
   'c:\\python36\\lib\\site-packages\\Pythonwin\\pywin\\dialogs\\__init__.py',
   'PYMODULE'),
  ('pywin',
   'c:\\python36\\lib\\site-packages\\Pythonwin\\pywin\\__init__.py',
   'PYMODULE'),
  ('win32com.client.gencache',
   'c:\\python36\\lib\\site-packages\\win32com\\client\\gencache.py',
   'PYMODULE'),
  ('win32com.client.selecttlb',
   'c:\\python36\\lib\\site-packages\\win32com\\client\\selecttlb.py',
   'PYMODULE'),
  ('pywin.dialogs.list',
   'c:\\python36\\lib\\site-packages\\Pythonwin\\pywin\\dialogs\\list.py',
   'PYMODULE'),
  ('commctrl',
   'c:\\python36\\lib\\site-packages\\win32\\lib\\commctrl.py',
   'PYMODULE'),
  ('win32com.client.genpy',
   'c:\\python36\\lib\\site-packages\\win32com\\client\\genpy.py',
   'PYMODULE'),
  ('win32com.client.CLSIDToClass',
   'c:\\python36\\lib\\site-packages\\win32com\\client\\CLSIDToClass.py',
   'PYMODULE'),
  ('win32com.client.dynamic',
   'c:\\python36\\lib\\site-packages\\win32com\\client\\dynamic.py',
   'PYMODULE'),
  ('win32com.client.build',
   'c:\\python36\\lib\\site-packages\\win32com\\client\\build.py',
   'PYMODULE'),
  ('pywintypes',
   'c:\\python36\\lib\\site-packages\\win32\\lib\\pywintypes.py',
   'PYMODULE'),
  ('distutils.sysconfig',
   'c:\\python36\\lib\\distutils\\sysconfig.py',
   'PYMODULE'),
  ('distutils', 'c:\\python36\\lib\\distutils\\__init__.py', 'PYMODULE'),
  ('distutils.archive_util',
   'c:\\python36\\lib\\distutils\\archive_util.py',
   'PYMODULE'),
  ('distutils.dir_util',
   'c:\\python36\\lib\\distutils\\dir_util.py',
   'PYMODULE'),
  ('distutils.file_util',
   'c:\\python36\\lib\\distutils\\file_util.py',
   'PYMODULE'),
  ('distutils.dep_util',
   'c:\\python36\\lib\\distutils\\dep_util.py',
   'PYMODULE'),
  ('distutils.spawn', 'c:\\python36\\lib\\distutils\\spawn.py', 'PYMODULE'),
  ('distutils.debug', 'c:\\python36\\lib\\distutils\\debug.py', 'PYMODULE'),
  ('distutils.log', 'c:\\python36\\lib\\distutils\\log.py', 'PYMODULE'),
  ('distutils.text_file',
   'c:\\python36\\lib\\distutils\\text_file.py',
   'PYMODULE'),
  ('_osx_support', 'c:\\python36\\lib\\_osx_support.py', 'PYMODULE'),
  ('distutils.errors', 'c:\\python36\\lib\\distutils\\errors.py', 'PYMODULE'),
  ('win32com.server',
   'c:\\python36\\lib\\site-packages\\win32com\\server\\__init__.py',
   'PYMODULE'),
  ('win32com.universal',
   'c:\\python36\\lib\\site-packages\\win32com\\universal.py',
   'PYMODULE'),
  ('win32com.client.util',
   'c:\\python36\\lib\\site-packages\\win32com\\client\\util.py',
   'PYMODULE'),
  ('imp', 'c:\\python36\\lib\\imp.py', 'PYMODULE'),
  ('pythoncom', 'c:\\python36\\lib\\site-packages\\pythoncom.py', 'PYMODULE'),
  ('pkg_resources',
   'c:\\python36\\lib\\site-packages\\pkg_resources\\__init__.py',
   'PYMODULE'),
  ('pkg_resources._vendor.packaging.utils',
   'c:\\python36\\lib\\site-packages\\pkg_resources\\_vendor\\packaging\\utils.py',
   'PYMODULE'),
  ('pkg_resources._vendor.packaging._structures',
   'c:\\python36\\lib\\site-packages\\pkg_resources\\_vendor\\packaging\\_structures.py',
   'PYMODULE'),
  ('pkg_resources._vendor.pyparsing',
   'c:\\python36\\lib\\site-packages\\pkg_resources\\_vendor\\pyparsing.py',
   'PYMODULE'),
  ('uuid', 'c:\\python36\\lib\\uuid.py', 'PYMODULE'),
  ('ctypes.util', 'c:\\python36\\lib\\ctypes\\util.py', 'PYMODULE'),
  ('ctypes.macholib.dyld',
   'c:\\python36\\lib\\ctypes\\macholib\\dyld.py',
   'PYMODULE'),
  ('ctypes.macholib',
   'c:\\python36\\lib\\ctypes\\macholib\\__init__.py',
   'PYMODULE'),
  ('ctypes.macholib.dylib',
   'c:\\python36\\lib\\ctypes\\macholib\\dylib.py',
   'PYMODULE'),
  ('ctypes.macholib.framework',
   'c:\\python36\\lib\\ctypes\\macholib\\framework.py',
   'PYMODULE'),
  ('netbios',
   'c:\\python36\\lib\\site-packages\\win32\\lib\\netbios.py',
   'PYMODULE'),
  ('ctypes', 'c:\\python36\\lib\\ctypes\\__init__.py', 'PYMODULE'),
  ('ctypes._endian', 'c:\\python36\\lib\\ctypes\\_endian.py', 'PYMODULE'),
  ('pkg_resources._vendor.appdirs',
   'c:\\python36\\lib\\site-packages\\pkg_resources\\_vendor\\appdirs.py',
   'PYMODULE'),
  ('win32com.shell.shellcon',
   'c:\\python36\\lib\\site-packages\\win32comext\\shell\\shellcon.py',
   'PYMODULE'),
  ('win32com.shell',
   'c:\\python36\\lib\\site-packages\\win32comext\\shell\\__init__.py',
   'PYMODULE'),
  ('pkg_resources._vendor.packaging.version',
   'c:\\python36\\lib\\site-packages\\pkg_resources\\_vendor\\packaging\\version.py',
   'PYMODULE'),
  ('pkg_resources._vendor.packaging.markers',
   'c:\\python36\\lib\\site-packages\\pkg_resources\\_vendor\\packaging\\markers.py',
   'PYMODULE'),
  ('pkg_resources._vendor.six',
   'c:\\python36\\lib\\site-packages\\pkg_resources\\_vendor\\six.py',
   'PYMODULE'),
  ('pkg_resources._vendor.packaging.requirements',
   'c:\\python36\\lib\\site-packages\\pkg_resources\\_vendor\\packaging\\requirements.py',
   'PYMODULE'),
  ('pkg_resources._vendor.packaging.__about__',
   'c:\\python36\\lib\\site-packages\\pkg_resources\\_vendor\\packaging\\__about__.py',
   'PYMODULE'),
  ('pkg_resources._vendor.packaging.specifiers',
   'c:\\python36\\lib\\site-packages\\pkg_resources\\_vendor\\packaging\\specifiers.py',
   'PYMODULE'),
  ('pkg_resources._vendor.packaging._compat',
   'c:\\python36\\lib\\site-packages\\pkg_resources\\_vendor\\packaging\\_compat.py',
   'PYMODULE'),
  ('pkg_resources._vendor.packaging',
   'c:\\python36\\lib\\site-packages\\pkg_resources\\_vendor\\packaging\\__init__.py',
   'PYMODULE'),
  ('pkg_resources._vendor',
   'c:\\python36\\lib\\site-packages\\pkg_resources\\_vendor\\__init__.py',
   'PYMODULE'),
  ('__main__',
   'c:\\python36\\Scripts\\pyinstaller.exe\\__main__.py',
   'PYMODULE'),
  ('PyInstaller.__main__',
   'c:\\python36\\lib\\site-packages\\PyInstaller\\__main__.py',
   'PYMODULE'),
  ('PyInstaller.building.build_main',
   'c:\\python36\\lib\\site-packages\\PyInstaller\\building\\build_main.py',
   'PYMODULE'),
  ('PyInstaller.building',
   'c:\\python36\\lib\\site-packages\\PyInstaller\\building\\__init__.py',
   'PYMODULE'),
  ('PyInstaller.config',
   'c:\\python36\\lib\\site-packages\\PyInstaller\\config.py',
   'PYMODULE'),
  ('PyInstaller.utils.win32.winmanifest',
   'c:\\python36\\lib\\site-packages\\PyInstaller\\utils\\win32\\winmanifest.py',
   'PYMODULE'),
  ('PyInstaller.utils.win32.winresource',
   'c:\\python36\\lib\\site-packages\\PyInstaller\\utils\\win32\\winresource.py',
   'PYMODULE'),
  ('xml.dom.minidom', 'c:\\python36\\lib\\xml\\dom\\minidom.py', 'PYMODULE'),
  ('xml.dom.pulldom', 'c:\\python36\\lib\\xml\\dom\\pulldom.py', 'PYMODULE'),
  ('xml.sax.handler', 'c:\\python36\\lib\\xml\\sax\\handler.py', 'PYMODULE'),
  ('xml.sax', 'c:\\python36\\lib\\xml\\sax\\__init__.py', 'PYMODULE'),
  ('xml.sax.expatreader',
   'c:\\python36\\lib\\xml\\sax\\expatreader.py',
   'PYMODULE'),
  ('xml.sax._exceptions',
   'c:\\python36\\lib\\xml\\sax\\_exceptions.py',
   'PYMODULE'),
  ('xml.sax.saxutils', 'c:\\python36\\lib\\xml\\sax\\saxutils.py', 'PYMODULE'),
  ('urllib.request', 'c:\\python36\\lib\\urllib\\request.py', 'PYMODULE'),
  ('getpass', 'c:\\python36\\lib\\getpass.py', 'PYMODULE'),
  ('nturl2path', 'c:\\python36\\lib\\nturl2path.py', 'PYMODULE'),
  ('ftplib', 'c:\\python36\\lib\\ftplib.py', 'PYMODULE'),
  ('netrc', 'c:\\python36\\lib\\netrc.py', 'PYMODULE'),
  ('http.cookiejar', 'c:\\python36\\lib\\http\\cookiejar.py', 'PYMODULE'),
  ('urllib.response', 'c:\\python36\\lib\\urllib\\response.py', 'PYMODULE'),
  ('urllib.error', 'c:\\python36\\lib\\urllib\\error.py', 'PYMODULE'),
  ('xml.sax.xmlreader',
   'c:\\python36\\lib\\xml\\sax\\xmlreader.py',
   'PYMODULE'),
  ('xml.dom.expatbuilder',
   'c:\\python36\\lib\\xml\\dom\\expatbuilder.py',
   'PYMODULE'),
  ('xml.dom.NodeFilter',
   'c:\\python36\\lib\\xml\\dom\\NodeFilter.py',
   'PYMODULE'),
  ('xml.dom.xmlbuilder',
   'c:\\python36\\lib\\xml\\dom\\xmlbuilder.py',
   'PYMODULE'),
  ('xml.dom.minicompat',
   'c:\\python36\\lib\\xml\\dom\\minicompat.py',
   'PYMODULE'),
  ('xml.dom.domreg', 'c:\\python36\\lib\\xml\\dom\\domreg.py', 'PYMODULE'),
  ('xml.dom', 'c:\\python36\\lib\\xml\\dom\\__init__.py', 'PYMODULE'),
  ('PyInstaller.utils.win32',
   'c:\\python36\\lib\\site-packages\\PyInstaller\\utils\\win32\\__init__.py',
   'PYMODULE'),
  ('PyInstaller.utils.win32.versioninfo',
   'c:\\python36\\lib\\site-packages\\PyInstaller\\utils\\win32\\versioninfo.py',
   'PYMODULE'),
  ('pefile', 'c:\\python36\\lib\\site-packages\\pefile.py', 'PYMODULE'),
  ('ordlookup',
   'c:\\python36\\lib\\site-packages\\ordlookup\\__init__.py',
   'PYMODULE'),
  ('ordlookup.oleaut32',
   'c:\\python36\\lib\\site-packages\\ordlookup\\oleaut32.py',
   'PYMODULE'),
  ('ordlookup.ws2_32',
   'c:\\python36\\lib\\site-packages\\ordlookup\\ws2_32.py',
   'PYMODULE'),
  ('PyInstaller.utils.win32.icon',
   'c:\\python36\\lib\\site-packages\\PyInstaller\\utils\\win32\\icon.py',
   'PYMODULE'),
  ('PyInstaller.utils.win32.winutils',
   'c:\\python36\\lib\\site-packages\\PyInstaller\\utils\\win32\\winutils.py',
   'PYMODULE'),
  ('site',
   'c:\\python36\\lib\\site-packages\\PyInstaller\\fake-modules\\site.py',
   'PYMODULE'),
  ('PyInstaller.utils',
   'c:\\python36\\lib\\site-packages\\PyInstaller\\utils\\__init__.py',
   'PYMODULE'),
  ('PyInstaller.configure',
   'c:\\python36\\lib\\site-packages\\PyInstaller\\configure.py',
   'PYMODULE'),
  ('PyInstaller.archive.pyz_crypto',
   'c:\\python36\\lib\\site-packages\\PyInstaller\\archive\\pyz_crypto.py',
   'PYMODULE'),
  ('PyInstaller.archive',
   'c:\\python36\\lib\\site-packages\\PyInstaller\\archive\\__init__.py',
   'PYMODULE'),
  ('PyInstaller.depend.utils',
   'c:\\python36\\lib\\site-packages\\PyInstaller\\depend\\utils.py',
   'PYMODULE'),
  ('PyInstaller.depend.dylib',
   'c:\\python36\\lib\\site-packages\\PyInstaller\\depend\\dylib.py',
   'PYMODULE'),
  ('macholib.MachO',
   'c:\\python36\\lib\\site-packages\\macholib\\MachO.py',
   'PYMODULE'),
  ('macholib.ptypes',
   'c:\\python36\\lib\\site-packages\\macholib\\ptypes.py',
   'PYMODULE'),
  ('macholib.mach_o',
   'c:\\python36\\lib\\site-packages\\macholib\\mach_o.py',
   'PYMODULE'),
  ('macholib.util',
   'c:\\python36\\lib\\site-packages\\macholib\\util.py',
   'PYMODULE'),
  ('macholib',
   'c:\\python36\\lib\\site-packages\\macholib\\__init__.py',
   'PYMODULE'),
  ('PyInstaller.lib.modulegraph.modulegraph',
   'c:\\python36\\lib\\site-packages\\PyInstaller\\lib\\modulegraph\\modulegraph.py',
   'PYMODULE'),
  ('PyInstaller.lib.modulegraph._compat',
   'c:\\python36\\lib\\site-packages\\PyInstaller\\lib\\modulegraph\\_compat.py',
   'PYMODULE'),
  ('PyInstaller.lib.modulegraph.zipio',
   'c:\\python36\\lib\\site-packages\\PyInstaller\\lib\\modulegraph\\zipio.py',
   'PYMODULE'),
  ('PyInstaller.lib.altgraph',
   'c:\\python36\\lib\\site-packages\\PyInstaller\\lib\\altgraph\\__init__.py',
   'PYMODULE'),
  ('PyInstaller.lib',
   'c:\\python36\\lib\\site-packages\\PyInstaller\\lib\\__init__.py',
   'PYMODULE'),
  ('PyInstaller.lib.altgraph.ObjectGraph',
   'c:\\python36\\lib\\site-packages\\PyInstaller\\lib\\altgraph\\ObjectGraph.py',
   'PYMODULE'),
  ('PyInstaller.lib.altgraph.GraphUtil',
   'c:\\python36\\lib\\site-packages\\PyInstaller\\lib\\altgraph\\GraphUtil.py',
   'PYMODULE'),
  ('PyInstaller.lib.altgraph.Graph',
   'c:\\python36\\lib\\site-packages\\PyInstaller\\lib\\altgraph\\Graph.py',
   'PYMODULE'),
  ('PyInstaller.lib.modulegraph.util',
   'c:\\python36\\lib\\site-packages\\PyInstaller\\lib\\modulegraph\\util.py',
   'PYMODULE'),
  ('PyInstaller.lib.modulegraph',
   'c:\\python36\\lib\\site-packages\\PyInstaller\\lib\\modulegraph\\__init__.py',
   'PYMODULE'),
  ('PyInstaller.building.utils',
   'c:\\python36\\lib\\site-packages\\PyInstaller\\building\\utils.py',
   'PYMODULE'),
  ('PyInstaller.building.toc_conversion',
   'c:\\python36\\lib\\site-packages\\PyInstaller\\building\\toc_conversion.py',
   'PYMODULE'),
  ('PyInstaller.utils.hooks',
   'c:\\python36\\lib\\site-packages\\PyInstaller\\utils\\hooks\\__init__.py',
   'PYMODULE'),
  ('PyInstaller.utils.hooks.win32',
   'c:\\python36\\lib\\site-packages\\PyInstaller\\utils\\hooks\\win32.py',
   'PYMODULE'),
  ('PyInstaller.utils.hooks.qt',
   'c:\\python36\\lib\\site-packages\\PyInstaller\\utils\\hooks\\qt.py',
   'PYMODULE'),
  ('PyInstaller.utils.hooks.gi',
   'c:\\python36\\lib\\site-packages\\PyInstaller\\utils\\hooks\\gi.py',
   'PYMODULE'),
  ('PyInstaller.utils.hooks.django',
   'c:\\python36\\lib\\site-packages\\PyInstaller\\utils\\hooks\\django.py',
   'PYMODULE'),
  ('PyInstaller.building.osx',
   'c:\\python36\\lib\\site-packages\\PyInstaller\\building\\osx.py',
   'PYMODULE'),
  ('PyInstaller.building.imphook',
   'c:\\python36\\lib\\site-packages\\PyInstaller\\building\\imphook.py',
   'PYMODULE'),
  ('PyInstaller.building.imphookapi',
   'c:\\python36\\lib\\site-packages\\PyInstaller\\building\\imphookapi.py',
   'PYMODULE'),
  ('PyInstaller.building.datastruct',
   'c:\\python36\\lib\\site-packages\\PyInstaller\\building\\datastruct.py',
   'PYMODULE'),
  ('PyInstaller.building.api',
   'c:\\python36\\lib\\site-packages\\PyInstaller\\building\\api.py',
   'PYMODULE'),
  ('PyInstaller.utils.osx',
   'c:\\python36\\lib\\site-packages\\PyInstaller\\utils\\osx.py',
   'PYMODULE'),
  ('PyInstaller.archive.writers',
   'c:\\python36\\lib\\site-packages\\PyInstaller\\archive\\writers.py',
   'PYMODULE'),
  ('PyInstaller.archive.readers',
   'c:\\python36\\lib\\site-packages\\PyInstaller\\archive\\readers.py',
   'PYMODULE'),
  ('PyInstaller.loader.pyimod02_archive',
   'c:\\python36\\lib\\site-packages\\PyInstaller\\loader\\pyimod02_archive.py',
   'PYMODULE'),
  ('PyInstaller.loader',
   'c:\\python36\\lib\\site-packages\\PyInstaller\\loader\\__init__.py',
   'PYMODULE'),
  ('PyInstaller.depend.analysis',
   'c:\\python36\\lib\\site-packages\\PyInstaller\\depend\\analysis.py',
   'PYMODULE'),
  ('PyInstaller.lib.modulegraph.find_modules',
   'c:\\python36\\lib\\site-packages\\PyInstaller\\lib\\modulegraph\\find_modules.py',
   'PYMODULE'),
  ('xml.etree', 'c:\\python36\\lib\\xml\\etree\\__init__.py', 'PYMODULE'),
  ('xml.etree.ElementPath',
   'c:\\python36\\lib\\xml\\etree\\ElementPath.py',
   'PYMODULE'),
  ('PyInstaller.depend.bindepend',
   'c:\\python36\\lib\\site-packages\\PyInstaller\\depend\\bindepend.py',
   'PYMODULE'),
  ('macholib.dyld',
   'c:\\python36\\lib\\site-packages\\macholib\\dyld.py',
   'PYMODULE'),
  ('macholib.dylib',
   'c:\\python36\\lib\\site-packages\\macholib\\dylib.py',
   'PYMODULE'),
  ('macholib.framework',
   'c:\\python36\\lib\\site-packages\\macholib\\framework.py',
   'PYMODULE'),
  ('PyInstaller.depend',
   'c:\\python36\\lib\\site-packages\\PyInstaller\\depend\\__init__.py',
   'PYMODULE'),
  ('PyInstaller.utils.misc',
   'c:\\python36\\lib\\site-packages\\PyInstaller\\utils\\misc.py',
   'PYMODULE'),
  ('PyInstaller.building.makespec',
   'c:\\python36\\lib\\site-packages\\PyInstaller\\building\\makespec.py',
   'PYMODULE'),
  ('Crypto', '-', 'PYMODULE'),
  ('PyInstaller.building.templates',
   'c:\\python36\\lib\\site-packages\\PyInstaller\\building\\templates.py',
   'PYMODULE'),
  ('distutils.version', 'c:\\python36\\lib\\distutils\\version.py', 'PYMODULE'),
  ('PyInstaller.compat',
   'c:\\python36\\lib\\site-packages\\PyInstaller\\compat.py',
   'PYMODULE'),
  ('PyInstaller.log',
   'c:\\python36\\lib\\site-packages\\PyInstaller\\log.py',
   'PYMODULE'),
  ('PyInstaller',
   'c:\\python36\\lib\\site-packages\\PyInstaller\\__init__.py',
   'PYMODULE'),
  ('PyInstaller.utils.git',
   'c:\\python36\\lib\\site-packages\\PyInstaller\\utils\\git.py',
   'PYMODULE'),
  ('PyInstaller.utils._gitrevision',
   'c:\\python36\\lib\\site-packages\\PyInstaller\\utils\\_gitrevision.py',
   'PYMODULE'),
  ('sysconfig', 'c:\\python36\\lib\\sysconfig.py', 'PYMODULE'),
  ('pkg_resources.py31compat',
   'c:\\python36\\lib\\site-packages\\pkg_resources\\py31compat.py',
   'PYMODULE'),
  ('pkg_resources.extern',
   'c:\\python36\\lib\\site-packages\\pkg_resources\\extern\\__init__.py',
   'PYMODULE'),
  ('multiprocessing.popen_fork',
   'c:\\python36\\lib\\multiprocessing\\popen_fork.py',
   'PYMODULE'),
  ('multiprocessing.connection',
   'c:\\python36\\lib\\multiprocessing\\connection.py',
   'PYMODULE'),
  ('multiprocessing.resource_sharer',
   'c:\\python36\\lib\\multiprocessing\\resource_sharer.py',
   'PYMODULE'),
  ('multiprocessing.process',
   'c:\\python36\\lib\\multiprocessing\\process.py',
   'PYMODULE'),
  ('xmlrpc.client', 'c:\\python36\\lib\\xmlrpc\\client.py', 'PYMODULE'),
  ('xmlrpc', 'c:\\python36\\lib\\xmlrpc\\__init__.py', 'PYMODULE'),
  ('decimal', 'c:\\python36\\lib\\decimal.py', 'PYMODULE'),
  ('_pydecimal', 'c:\\python36\\lib\\_pydecimal.py', 'PYMODULE'),
  ('numbers', 'c:\\python36\\lib\\numbers.py', 'PYMODULE'),
  ('hmac', 'c:\\python36\\lib\\hmac.py', 'PYMODULE'),
  ('multiprocessing.context',
   'c:\\python36\\lib\\multiprocessing\\context.py',
   'PYMODULE'),
  ('multiprocessing.popen_forkserver',
   'c:\\python36\\lib\\multiprocessing\\popen_forkserver.py',
   'PYMODULE'),
  ('multiprocessing.popen_spawn_posix',
   'c:\\python36\\lib\\multiprocessing\\popen_spawn_posix.py',
   'PYMODULE'),
  ('multiprocessing.semaphore_tracker',
   'c:\\python36\\lib\\multiprocessing\\semaphore_tracker.py',
   'PYMODULE'),
  ('multiprocessing.forkserver',
   'c:\\python36\\lib\\multiprocessing\\forkserver.py',
   'PYMODULE'),
  ('multiprocessing.sharedctypes',
   'c:\\python36\\lib\\multiprocessing\\sharedctypes.py',
   'PYMODULE'),
  ('multiprocessing.heap',
   'c:\\python36\\lib\\multiprocessing\\heap.py',
   'PYMODULE'),
  ('multiprocessing.pool',
   'c:\\python36\\lib\\multiprocessing\\pool.py',
   'PYMODULE'),
  ('multiprocessing.dummy',
   'c:\\python36\\lib\\multiprocessing\\dummy\\__init__.py',
   'PYMODULE'),
  ('multiprocessing.dummy.connection',
   'c:\\python36\\lib\\multiprocessing\\dummy\\connection.py',
   'PYMODULE'),
  ('queue', 'c:\\python36\\lib\\queue.py', 'PYMODULE'),
  ('multiprocessing.queues',
   'c:\\python36\\lib\\multiprocessing\\queues.py',
   'PYMODULE'),
  ('multiprocessing.synchronize',
   'c:\\python36\\lib\\multiprocessing\\synchronize.py',
   'PYMODULE'),
  ('multiprocessing.managers',
   'c:\\python36\\lib\\multiprocessing\\managers.py',
   'PYMODULE'),
  ('multiprocessing.reduction',
   'c:\\python36\\lib\\multiprocessing\\reduction.py',
   'PYMODULE'),
  ('multiprocessing.util',
   'c:\\python36\\lib\\multiprocessing\\util.py',
   'PYMODULE'),
  ('multiprocessing.popen_spawn_win32',
   'c:\\python36\\lib\\multiprocessing\\popen_spawn_win32.py',
   'PYMODULE'),
  ('multiprocessing.spawn',
   'c:\\python36\\lib\\multiprocessing\\spawn.py',
   'PYMODULE'),
  ('runpy', 'c:\\python36\\lib\\runpy.py', 'PYMODULE'),
  ('multiprocessing',
   'c:\\python36\\lib\\multiprocessing\\__init__.py',
   'PYMODULE'),
  ('ntpath', 'c:\\python36\\lib\\ntpath.py', 'PYMODULE'),
  ('_strptime', 'c:\\python36\\lib\\_strptime.py', 'PYMODULE'),
  ('datetime', 'c:\\python36\\lib\\datetime.py', 'PYMODULE'),
  ('stringprep', 'c:\\python36\\lib\\stringprep.py', 'PYMODULE'),
  ('stat', 'c:\\python36\\lib\\stat.py', 'PYMODULE'),
  ('genericpath', 'c:\\python36\\lib\\genericpath.py', 'PYMODULE'),
  ('posixpath', 'c:\\python36\\lib\\posixpath.py', 'PYMODULE'),
  ('fnmatch', 'c:\\python36\\lib\\fnmatch.py', 'PYMODULE'),
  ('struct', 'c:\\python36\\lib\\struct.py', 'PYMODULE'),
  ('_compat_pickle', 'c:\\python36\\lib\\_compat_pickle.py', 'PYMODULE'),
  ('__future__', 'c:\\python36\\lib\\__future__.py', 'PYMODULE'),
  ('difflib', 'c:\\python36\\lib\\difflib.py', 'PYMODULE'),
  ('ast', 'c:\\python36\\lib\\ast.py', 'PYMODULE'),
  ('inspect', 'c:\\python36\\lib\\inspect.py', 'PYMODULE'),
  ('cmd', 'c:\\python36\\lib\\cmd.py', 'PYMODULE'),
  ('bdb', 'c:\\python36\\lib\\bdb.py', 'PYMODULE'),
  ('opcode', 'c:\\python36\\lib\\opcode.py', 'PYMODULE'),
  ('dis', 'c:\\python36\\lib\\dis.py', 'PYMODULE'),
  ('codeop', 'c:\\python36\\lib\\codeop.py', 'PYMODULE'),
  ('code', 'c:\\python36\\lib\\code.py', 'PYMODULE'),
  ('glob', 'c:\\python36\\lib\\glob.py', 'PYMODULE'),
  ('shlex', 'c:\\python36\\lib\\shlex.py', 'PYMODULE'),
  ('importlib._bootstrap',
   'c:\\python36\\lib\\importlib\\_bootstrap.py',
   'PYMODULE'),
  ('importlib._bootstrap_external',
   'c:\\python36\\lib\\importlib\\_bootstrap_external.py',
   'PYMODULE'),
  ('importlib.machinery',
   'c:\\python36\\lib\\importlib\\machinery.py',
   'PYMODULE'),
  ('importlib.util', 'c:\\python36\\lib\\importlib\\util.py', 'PYMODULE'),
  ('importlib.abc', 'c:\\python36\\lib\\importlib\\abc.py', 'PYMODULE'),
  ('importlib', 'c:\\python36\\lib\\importlib\\__init__.py', 'PYMODULE'),
  ('pkgutil', 'c:\\python36\\lib\\pkgutil.py', 'PYMODULE'),
  ('xml', 'c:\\python36\\lib\\xml\\__init__.py', 'PYMODULE'),
  ('xml.parsers', 'c:\\python36\\lib\\xml\\parsers\\__init__.py', 'PYMODULE'),
  ('xml.parsers.expat',
   'c:\\python36\\lib\\xml\\parsers\\expat.py',
   'PYMODULE'),
  ('plistlib', 'c:\\python36\\lib\\plistlib.py', 'PYMODULE'),
  ('platform', 'c:\\python36\\lib\\platform.py', 'PYMODULE'),
  ('token', 'c:\\python36\\lib\\token.py', 'PYMODULE'),
  ('tokenize', 'c:\\python36\\lib\\tokenize.py', 'PYMODULE'),
  ('urllib.parse', 'c:\\python36\\lib\\urllib\\parse.py', 'PYMODULE'),
  ('tempfile', 'c:\\python36\\lib\\tempfile.py', 'PYMODULE'),
  ('tty', 'c:\\python36\\lib\\tty.py', 'PYMODULE'),
  ('pydoc_data', 'c:\\python36\\lib\\pydoc_data\\__init__.py', 'PYMODULE'),
  ('pydoc_data.topics', 'c:\\python36\\lib\\pydoc_data\\topics.py', 'PYMODULE'),
  ('html.entities', 'c:\\python36\\lib\\html\\entities.py', 'PYMODULE'),
  ('html', 'c:\\python36\\lib\\html\\__init__.py', 'PYMODULE'),
  ('ipaddress', 'c:\\python36\\lib\\ipaddress.py', 'PYMODULE'),
  ('ssl', 'c:\\python36\\lib\\ssl.py', 'PYMODULE'),
  ('http.client', 'c:\\python36\\lib\\http\\client.py', 'PYMODULE'),
  ('mimetypes', 'c:\\python36\\lib\\mimetypes.py', 'PYMODULE'),
  ('socketserver', 'c:\\python36\\lib\\socketserver.py', 'PYMODULE'),
  ('http', 'c:\\python36\\lib\\http\\__init__.py', 'PYMODULE'),
  ('http.server', 'c:\\python36\\lib\\http\\server.py', 'PYMODULE'),
  ('optparse', 'c:\\python36\\lib\\optparse.py', 'PYMODULE'),
  ('uu', 'c:\\python36\\lib\\uu.py', 'PYMODULE'),
  ('quopri', 'c:\\python36\\lib\\quopri.py', 'PYMODULE'),
  ('email.feedparser', 'c:\\python36\\lib\\email\\feedparser.py', 'PYMODULE'),
  ('email.parser', 'c:\\python36\\lib\\email\\parser.py', 'PYMODULE'),
  ('email', 'c:\\python36\\lib\\email\\__init__.py', 'PYMODULE'),
  ('calendar', 'c:\\python36\\lib\\calendar.py', 'PYMODULE'),
  ('email._parseaddr', 'c:\\python36\\lib\\email\\_parseaddr.py', 'PYMODULE'),
  ('email.utils', 'c:\\python36\\lib\\email\\utils.py', 'PYMODULE'),
  ('email.errors', 'c:\\python36\\lib\\email\\errors.py', 'PYMODULE'),
  ('email.header', 'c:\\python36\\lib\\email\\header.py', 'PYMODULE'),
  ('email._policybase', 'c:\\python36\\lib\\email\\_policybase.py', 'PYMODULE'),
  ('email.base64mime', 'c:\\python36\\lib\\email\\base64mime.py', 'PYMODULE'),
  ('email.encoders', 'c:\\python36\\lib\\email\\encoders.py', 'PYMODULE'),
  ('email.charset', 'c:\\python36\\lib\\email\\charset.py', 'PYMODULE'),
  ('base64', 'c:\\python36\\lib\\base64.py', 'PYMODULE'),
  ('email._encoded_words',
   'c:\\python36\\lib\\email\\_encoded_words.py',
   'PYMODULE'),
  ('hashlib', 'c:\\python36\\lib\\hashlib.py', 'PYMODULE'),
  ('bisect', 'c:\\python36\\lib\\bisect.py', 'PYMODULE'),
  ('random', 'c:\\python36\\lib\\random.py', 'PYMODULE'),
  ('email.generator', 'c:\\python36\\lib\\email\\generator.py', 'PYMODULE'),
  ('email.iterators', 'c:\\python36\\lib\\email\\iterators.py', 'PYMODULE'),
  ('urllib', 'c:\\python36\\lib\\urllib\\__init__.py', 'PYMODULE'),
  ('email._header_value_parser',
   'c:\\python36\\lib\\email\\_header_value_parser.py',
   'PYMODULE'),
  ('email.headerregistry',
   'c:\\python36\\lib\\email\\headerregistry.py',
   'PYMODULE'),
  ('email.quoprimime', 'c:\\python36\\lib\\email\\quoprimime.py', 'PYMODULE'),
  ('email.contentmanager',
   'c:\\python36\\lib\\email\\contentmanager.py',
   'PYMODULE'),
  ('email.policy', 'c:\\python36\\lib\\email\\policy.py', 'PYMODULE'),
  ('email.message', 'c:\\python36\\lib\\email\\message.py', 'PYMODULE'),
  ('bz2', 'c:\\python36\\lib\\bz2.py', 'PYMODULE'),
  ('lzma', 'c:\\python36\\lib\\lzma.py', 'PYMODULE'),
  ('_compression', 'c:\\python36\\lib\\_compression.py', 'PYMODULE'),
  ('gzip', 'c:\\python36\\lib\\gzip.py', 'PYMODULE'),
  ('tarfile', 'c:\\python36\\lib\\tarfile.py', 'PYMODULE'),
  ('py_compile', 'c:\\python36\\lib\\py_compile.py', 'PYMODULE'),
  ('zipfile', 'c:\\python36\\lib\\zipfile.py', 'PYMODULE'),
  ('shutil', 'c:\\python36\\lib\\shutil.py', 'PYMODULE'),
  ('socket', 'c:\\python36\\lib\\socket.py', 'PYMODULE'),
  ('webbrowser', 'c:\\python36\\lib\\webbrowser.py', 'PYMODULE'),
  ('pydoc', 'c:\\python36\\lib\\pydoc.py', 'PYMODULE'),
  ('getopt', 'c:\\python36\\lib\\getopt.py', 'PYMODULE'),
  ('pdb', 'c:\\python36\\lib\\pdb.py', 'PYMODULE'),
  ('unittest.util', 'c:\\python36\\lib\\unittest\\util.py', 'PYMODULE'),
  ('unittest.result', 'c:\\python36\\lib\\unittest\\result.py', 'PYMODULE'),
  ('string', 'c:\\python36\\lib\\string.py', 'PYMODULE'),
  ('logging', 'c:\\python36\\lib\\logging\\__init__.py', 'PYMODULE'),
  ('unittest.case', 'c:\\python36\\lib\\unittest\\case.py', 'PYMODULE'),
  ('unittest.suite', 'c:\\python36\\lib\\unittest\\suite.py', 'PYMODULE'),
  ('unittest.loader', 'c:\\python36\\lib\\unittest\\loader.py', 'PYMODULE'),
  ('unittest.runner', 'c:\\python36\\lib\\unittest\\runner.py', 'PYMODULE'),
  ('unittest.main', 'c:\\python36\\lib\\unittest\\main.py', 'PYMODULE'),
  ('unittest.signals', 'c:\\python36\\lib\\unittest\\signals.py', 'PYMODULE'),
  ('unittest', 'c:\\python36\\lib\\unittest\\__init__.py', 'PYMODULE'),
  ('doctest', 'c:\\python36\\lib\\doctest.py', 'PYMODULE'),
  ('copy', 'c:\\python36\\lib\\copy.py', 'PYMODULE'),
  ('textwrap', 'c:\\python36\\lib\\textwrap.py', 'PYMODULE'),
  ('gettext', 'c:\\python36\\lib\\gettext.py', 'PYMODULE'),
  ('argparse', 'c:\\python36\\lib\\argparse.py', 'PYMODULE'),
  ('pprint', 'c:\\python36\\lib\\pprint.py', 'PYMODULE'),
  ('pickle', 'c:\\python36\\lib\\pickle.py', 'PYMODULE'),
  ('tracemalloc', 'c:\\python36\\lib\\tracemalloc.py', 'PYMODULE'),
  ('warnings', 'c:\\python36\\lib\\warnings.py', 'PYMODULE'),
  ('enum', 'c:\\python36\\lib\\enum.py', 'PYMODULE'),
  ('signal', 'c:\\python36\\lib\\signal.py', 'PYMODULE'),
  ('contextlib', 'c:\\python36\\lib\\contextlib.py', 'PYMODULE'),
  ('_threading_local', 'c:\\python36\\lib\\_threading_local.py', 'PYMODULE'),
  ('selectors', 'c:\\python36\\lib\\selectors.py', 'PYMODULE'),
  ('_dummy_thread', 'c:\\python36\\lib\\_dummy_thread.py', 'PYMODULE'),
  ('dummy_threading', 'c:\\python36\\lib\\dummy_threading.py', 'PYMODULE'),
  ('subprocess', 'c:\\python36\\lib\\subprocess.py', 'PYMODULE'),
  ('os', 'c:\\python36\\lib\\os.py', 'PYMODULE'),
  ('numpy', 'c:\\python36\\lib\\site-packages\\numpy\\__init__.py', 'PYMODULE'),
  ('numpy.matrixlib',
   'c:\\python36\\lib\\site-packages\\numpy\\matrixlib\\__init__.py',
   'PYMODULE'),
  ('numpy.matrixlib.defmatrix',
   'c:\\python36\\lib\\site-packages\\numpy\\matrixlib\\defmatrix.py',
   'PYMODULE'),
  ('numpy.dual',
   'c:\\python36\\lib\\site-packages\\numpy\\dual.py',
   'PYMODULE'),
  ('numpy.core.numerictypes',
   'c:\\python36\\lib\\site-packages\\numpy\\core\\numerictypes.py',
   'PYMODULE'),
  ('numpy.core.numeric',
   'c:\\python36\\lib\\site-packages\\numpy\\core\\numeric.py',
   'PYMODULE'),
  ('numpy.core.arrayprint',
   'c:\\python36\\lib\\site-packages\\numpy\\core\\arrayprint.py',
   'PYMODULE'),
  ('numpy.core.fromnumeric',
   'c:\\python36\\lib\\site-packages\\numpy\\core\\fromnumeric.py',
   'PYMODULE'),
  ('numpy.core._methods',
   'c:\\python36\\lib\\site-packages\\numpy\\core\\_methods.py',
   'PYMODULE'),
  ('numpy.core._internal',
   'c:\\python36\\lib\\site-packages\\numpy\\core\\_internal.py',
   'PYMODULE'),
  ('numpy.ma',
   'c:\\python36\\lib\\site-packages\\numpy\\ma\\__init__.py',
   'PYMODULE'),
  ('numpy.ma.extras',
   'c:\\python36\\lib\\site-packages\\numpy\\ma\\extras.py',
   'PYMODULE'),
  ('numpy.lib.index_tricks',
   'c:\\python36\\lib\\site-packages\\numpy\\lib\\index_tricks.py',
   'PYMODULE'),
  ('numpy.lib.stride_tricks',
   'c:\\python36\\lib\\site-packages\\numpy\\lib\\stride_tricks.py',
   'PYMODULE'),
  ('numpy.lib.function_base',
   'c:\\python36\\lib\\site-packages\\numpy\\lib\\function_base.py',
   'PYMODULE'),
  ('numpy.compat.py3k',
   'c:\\python36\\lib\\site-packages\\numpy\\compat\\py3k.py',
   'PYMODULE'),
  ('pathlib', 'c:\\python36\\lib\\pathlib.py', 'PYMODULE'),
  ('numpy.lib.utils',
   'c:\\python36\\lib\\site-packages\\numpy\\lib\\utils.py',
   'PYMODULE'),
  ('numpy.lib.twodim_base',
   'c:\\python36\\lib\\site-packages\\numpy\\lib\\twodim_base.py',
   'PYMODULE'),
  ('numpy.ma.core',
   'c:\\python36\\lib\\site-packages\\numpy\\ma\\core.py',
   'PYMODULE'),
  ('numpy.ctypeslib',
   'c:\\python36\\lib\\site-packages\\numpy\\ctypeslib.py',
   'PYMODULE'),
  ('numpy.distutils.misc_util',
   'c:\\python36\\lib\\site-packages\\numpy\\distutils\\misc_util.py',
   'PYMODULE'),
  ('numpy.distutils.npy_pkg_config',
   'c:\\python36\\lib\\site-packages\\numpy\\distutils\\npy_pkg_config.py',
   'PYMODULE'),
  ('configparser', 'c:\\python36\\lib\\configparser.py', 'PYMODULE'),
  ('distutils.core', 'c:\\python36\\lib\\distutils\\core.py', 'PYMODULE'),
  ('distutils.extension',
   'c:\\python36\\lib\\distutils\\extension.py',
   'PYMODULE'),
  ('distutils.util', 'c:\\python36\\lib\\distutils\\util.py', 'PYMODULE'),
  ('distutils.filelist',
   'c:\\python36\\lib\\distutils\\filelist.py',
   'PYMODULE'),
  ('lib2to3.refactor', 'c:\\python36\\lib\\lib2to3\\refactor.py', 'PYMODULE'),
  ('lib2to3.btm_matcher',
   'c:\\python36\\lib\\lib2to3\\btm_matcher.py',
   'PYMODULE'),
  ('lib2to3.btm_utils', 'c:\\python36\\lib\\lib2to3\\btm_utils.py', 'PYMODULE'),
  ('lib2to3.pgen2.grammar',
   'c:\\python36\\lib\\lib2to3\\pgen2\\grammar.py',
   'PYMODULE'),
  ('lib2to3.pygram', 'c:\\python36\\lib\\lib2to3\\pygram.py', 'PYMODULE'),
  ('lib2to3.pytree', 'c:\\python36\\lib\\lib2to3\\pytree.py', 'PYMODULE'),
  ('lib2to3', 'c:\\python36\\lib\\lib2to3\\__init__.py', 'PYMODULE'),
  ('lib2to3.patcomp', 'c:\\python36\\lib\\lib2to3\\patcomp.py', 'PYMODULE'),
  ('lib2to3.pgen2.parse',
   'c:\\python36\\lib\\lib2to3\\pgen2\\parse.py',
   'PYMODULE'),
  ('lib2to3.pgen2.literals',
   'c:\\python36\\lib\\lib2to3\\pgen2\\literals.py',
   'PYMODULE'),
  ('lib2to3.fixer_util',
   'c:\\python36\\lib\\lib2to3\\fixer_util.py',
   'PYMODULE'),
  ('lib2to3.pgen2.token',
   'c:\\python36\\lib\\lib2to3\\pgen2\\token.py',
   'PYMODULE'),
  ('lib2to3.pgen2.tokenize',
   'c:\\python36\\lib\\lib2to3\\pgen2\\tokenize.py',
   'PYMODULE'),
  ('lib2to3.pgen2.driver',
   'c:\\python36\\lib\\lib2to3\\pgen2\\driver.py',
   'PYMODULE'),
  ('lib2to3.pgen2.pgen',
   'c:\\python36\\lib\\lib2to3\\pgen2\\pgen.py',
   'PYMODULE'),
  ('lib2to3.pgen2',
   'c:\\python36\\lib\\lib2to3\\pgen2\\__init__.py',
   'PYMODULE'),
  ('distutils.config', 'c:\\python36\\lib\\distutils\\config.py', 'PYMODULE'),
  ('cgi', 'c:\\python36\\lib\\cgi.py', 'PYMODULE'),
  ('distutils.cmd', 'c:\\python36\\lib\\distutils\\cmd.py', 'PYMODULE'),
  ('distutils.fancy_getopt',
   'c:\\python36\\lib\\distutils\\fancy_getopt.py',
   'PYMODULE'),
  ('distutils.dist', 'c:\\python36\\lib\\distutils\\dist.py', 'PYMODULE'),
  ('distutils.versionpredicate',
   'c:\\python36\\lib\\distutils\\versionpredicate.py',
   'PYMODULE'),
  ('distutils.command',
   'c:\\python36\\lib\\distutils\\command\\__init__.py',
   'PYMODULE'),
  ('numpy.distutils.system_info',
   'c:\\python36\\lib\\site-packages\\numpy\\distutils\\system_info.py',
   'PYMODULE'),
  ('numpy.f2py',
   'c:\\python36\\lib\\site-packages\\numpy\\f2py\\__init__.py',
   'PYMODULE'),
  ('numpy.f2py.diagnose',
   'c:\\python36\\lib\\site-packages\\numpy\\f2py\\diagnose.py',
   'PYMODULE'),
  ('numpy.f2py.f2py_testing',
   'c:\\python36\\lib\\site-packages\\numpy\\f2py\\f2py_testing.py',
   'PYMODULE'),
  ('numpy.f2py.f2py2e',
   'c:\\python36\\lib\\site-packages\\numpy\\f2py\\f2py2e.py',
   'PYMODULE'),
  ('numpy.distutils.command.build_src',
   'c:\\python36\\lib\\site-packages\\numpy\\distutils\\command\\build_src.py',
   'PYMODULE'),
  ('numpy.distutils.command',
   'c:\\python36\\lib\\site-packages\\numpy\\distutils\\command\\__init__.py',
   'PYMODULE'),
  ('numpy.distutils.command.egg_info',
   'c:\\python36\\lib\\site-packages\\numpy\\distutils\\command\\egg_info.py',
   'PYMODULE'),
  ('setuptools.command.egg_info',
   'c:\\python36\\lib\\site-packages\\setuptools\\command\\egg_info.py',
   'PYMODULE'),
  ('setuptools.glob',
   'c:\\python36\\lib\\site-packages\\setuptools\\glob.py',
   'PYMODULE'),
  ('setuptools.unicode_utils',
   'c:\\python36\\lib\\site-packages\\setuptools\\unicode_utils.py',
   'PYMODULE'),
  ('setuptools.command.bdist_egg',
   'c:\\python36\\lib\\site-packages\\setuptools\\command\\bdist_egg.py',
   'PYMODULE'),
  ('setuptools.extension',
   'c:\\python36\\lib\\site-packages\\setuptools\\extension.py',
   'PYMODULE'),
  ('setuptools.monkey',
   'c:\\python36\\lib\\site-packages\\setuptools\\monkey.py',
   'PYMODULE'),
  ('setuptools.command',
   'c:\\python36\\lib\\site-packages\\setuptools\\command\\__init__.py',
   'PYMODULE'),
  ('setuptools.command.install_scripts',
   'c:\\python36\\lib\\site-packages\\setuptools\\command\\install_scripts.py',
   'PYMODULE'),
  ('setuptools.command.easy_install',
   'c:\\python36\\lib\\site-packages\\setuptools\\command\\easy_install.py',
   'PYMODULE'),
  ('setuptools.dist',
   'c:\\python36\\lib\\site-packages\\setuptools\\dist.py',
   'PYMODULE'),
  ('setuptools.py36compat',
   'c:\\python36\\lib\\site-packages\\setuptools\\py36compat.py',
   'PYMODULE'),
  ('setuptools.config',
   'c:\\python36\\lib\\site-packages\\setuptools\\config.py',
   'PYMODULE'),
  ('setuptools.windows_support',
   'c:\\python36\\lib\\site-packages\\setuptools\\windows_support.py',
   'PYMODULE'),
  ('setuptools.depends',
   'c:\\python36\\lib\\site-packages\\setuptools\\depends.py',
   'PYMODULE'),
  ('setuptools.py33compat',
   'c:\\python36\\lib\\site-packages\\setuptools\\py33compat.py',
   'PYMODULE'),
  ('setuptools.wheel',
   'c:\\python36\\lib\\site-packages\\setuptools\\wheel.py',
   'PYMODULE'),
  ('setuptools.pep425tags',
   'c:\\python36\\lib\\site-packages\\setuptools\\pep425tags.py',
   'PYMODULE'),
  ('setuptools.glibc',
   'c:\\python36\\lib\\site-packages\\setuptools\\glibc.py',
   'PYMODULE'),
  ('setuptools.package_index',
   'c:\\python36\\lib\\site-packages\\setuptools\\package_index.py',
   'PYMODULE'),
  ('setuptools.ssl_support',
   'c:\\python36\\lib\\site-packages\\setuptools\\ssl_support.py',
   'PYMODULE'),
  ('setuptools.archive_util',
   'c:\\python36\\lib\\site-packages\\setuptools\\archive_util.py',
   'PYMODULE'),
  ('setuptools.py27compat',
   'c:\\python36\\lib\\site-packages\\setuptools\\py27compat.py',
   'PYMODULE'),
  ('setuptools.sandbox',
   'c:\\python36\\lib\\site-packages\\setuptools\\sandbox.py',
   'PYMODULE'),
  ('distutils.command.build_scripts',
   'c:\\python36\\lib\\distutils\\command\\build_scripts.py',
   'PYMODULE'),
  ('distutils.command.install',
   'c:\\python36\\lib\\distutils\\command\\install.py',
   'PYMODULE'),
  ('distutils.command.install_scripts',
   'c:\\python36\\lib\\distutils\\command\\install_scripts.py',
   'PYMODULE'),
  ('distutils.command.bdist',
   'c:\\python36\\lib\\distutils\\command\\bdist.py',
   'PYMODULE'),
  ('setuptools.command.setopt',
   'c:\\python36\\lib\\site-packages\\setuptools\\command\\setopt.py',
   'PYMODULE'),
  ('setuptools.command.sdist',
   'c:\\python36\\lib\\site-packages\\setuptools\\command\\sdist.py',
   'PYMODULE'),
  ('setuptools.command.py36compat',
   'c:\\python36\\lib\\site-packages\\setuptools\\command\\py36compat.py',
   'PYMODULE'),
  ('distutils.command.sdist',
   'c:\\python36\\lib\\distutils\\command\\sdist.py',
   'PYMODULE'),
  ('setuptools',
   'c:\\python36\\lib\\site-packages\\setuptools\\__init__.py',
   'PYMODULE'),
  ('setuptools.msvc',
   'c:\\python36\\lib\\site-packages\\setuptools\\msvc.py',
   'PYMODULE'),
  ('distutils.msvc9compiler',
   'c:\\python36\\lib\\distutils\\msvc9compiler.py',
   'PYMODULE'),
  ('setuptools.namespaces',
   'c:\\python36\\lib\\site-packages\\setuptools\\namespaces.py',
   'PYMODULE'),
  ('setuptools.version',
   'c:\\python36\\lib\\site-packages\\setuptools\\version.py',
   'PYMODULE'),
  ('setuptools.extern',
   'c:\\python36\\lib\\site-packages\\setuptools\\extern\\__init__.py',
   'PYMODULE'),
  ('numpy.distutils.command.develop',
   'c:\\python36\\lib\\site-packages\\numpy\\distutils\\command\\develop.py',
   'PYMODULE'),
  ('setuptools.command.develop',
   'c:\\python36\\lib\\site-packages\\setuptools\\command\\develop.py',
   'PYMODULE'),
  ('numpy.distutils.command.install_clib',
   'c:\\python36\\lib\\site-packages\\numpy\\distutils\\command\\install_clib.py',
   'PYMODULE'),
  ('numpy.distutils.command.bdist_rpm',
   'c:\\python36\\lib\\site-packages\\numpy\\distutils\\command\\bdist_rpm.py',
   'PYMODULE'),
  ('distutils.command.bdist_rpm',
   'c:\\python36\\lib\\distutils\\command\\bdist_rpm.py',
   'PYMODULE'),
  ('setuptools.command.bdist_rpm',
   'c:\\python36\\lib\\site-packages\\setuptools\\command\\bdist_rpm.py',
   'PYMODULE'),
  ('numpy.distutils.command.install',
   'c:\\python36\\lib\\site-packages\\numpy\\distutils\\command\\install.py',
   'PYMODULE'),
  ('setuptools.command.install',
   'c:\\python36\\lib\\site-packages\\setuptools\\command\\install.py',
   'PYMODULE'),
  ('numpy.distutils.command.install_headers',
   'c:\\python36\\lib\\site-packages\\numpy\\distutils\\command\\install_headers.py',
   'PYMODULE'),
  ('distutils.command.install_headers',
   'c:\\python36\\lib\\distutils\\command\\install_headers.py',
   'PYMODULE'),
  ('numpy.distutils.command.install_data',
   'c:\\python36\\lib\\site-packages\\numpy\\distutils\\command\\install_data.py',
   'PYMODULE'),
  ('distutils.command.install_data',
   'c:\\python36\\lib\\distutils\\command\\install_data.py',
   'PYMODULE'),
  ('numpy.distutils.command.sdist',
   'c:\\python36\\lib\\site-packages\\numpy\\distutils\\command\\sdist.py',
   'PYMODULE'),
  ('numpy.distutils.command.build_scripts',
   'c:\\python36\\lib\\site-packages\\numpy\\distutils\\command\\build_scripts.py',
   'PYMODULE'),
  ('numpy.distutils.command.build_clib',
   'c:\\python36\\lib\\site-packages\\numpy\\distutils\\command\\build_clib.py',
   'PYMODULE'),
  ('distutils.command.build_clib',
   'c:\\python36\\lib\\distutils\\command\\build_clib.py',
   'PYMODULE'),
  ('numpy.distutils.command.build_ext',
   'c:\\python36\\lib\\site-packages\\numpy\\distutils\\command\\build_ext.py',
   'PYMODULE'),
  ('numpy.distutils.command.config_compiler',
   'c:\\python36\\lib\\site-packages\\numpy\\distutils\\command\\config_compiler.py',
   'PYMODULE'),
  ('numpy.distutils.command.build_py',
   'c:\\python36\\lib\\site-packages\\numpy\\distutils\\command\\build_py.py',
   'PYMODULE'),
  ('distutils.command.build_py',
   'c:\\python36\\lib\\distutils\\command\\build_py.py',
   'PYMODULE'),
  ('numpy.distutils.command.build',
   'c:\\python36\\lib\\site-packages\\numpy\\distutils\\command\\build.py',
   'PYMODULE'),
  ('distutils.command.build',
   'c:\\python36\\lib\\distutils\\command\\build.py',
   'PYMODULE'),
  ('numpy.distutils.conv_template',
   'c:\\python36\\lib\\site-packages\\numpy\\distutils\\conv_template.py',
   'PYMODULE'),
  ('numpy.distutils.from_template',
   'c:\\python36\\lib\\site-packages\\numpy\\distutils\\from_template.py',
   'PYMODULE'),
  ('numpy.distutils.log',
   'c:\\python36\\lib\\site-packages\\numpy\\distutils\\log.py',
   'PYMODULE'),
  ('distutils.command.build_ext',
   'c:\\python36\\lib\\distutils\\command\\build_ext.py',
   'PYMODULE'),
  ('distutils._msvccompiler',
   'c:\\python36\\lib\\distutils\\_msvccompiler.py',
   'PYMODULE'),
  ('concurrent.futures',
   'c:\\python36\\lib\\concurrent\\futures\\__init__.py',
   'PYMODULE'),
  ('concurrent.futures.thread',
   'c:\\python36\\lib\\concurrent\\futures\\thread.py',
   'PYMODULE'),
  ('concurrent.futures.process',
   'c:\\python36\\lib\\concurrent\\futures\\process.py',
   'PYMODULE'),
  ('concurrent.futures._base',
   'c:\\python36\\lib\\concurrent\\futures\\_base.py',
   'PYMODULE'),
  ('concurrent', 'c:\\python36\\lib\\concurrent\\__init__.py', 'PYMODULE'),
  ('numpy.f2py.auxfuncs',
   'c:\\python36\\lib\\site-packages\\numpy\\f2py\\auxfuncs.py',
   'PYMODULE'),
  ('numpy.f2py.f90mod_rules',
   'c:\\python36\\lib\\site-packages\\numpy\\f2py\\f90mod_rules.py',
   'PYMODULE'),
  ('numpy.f2py.rules',
   'c:\\python36\\lib\\site-packages\\numpy\\f2py\\rules.py',
   'PYMODULE'),
  ('numpy.f2py.use_rules',
   'c:\\python36\\lib\\site-packages\\numpy\\f2py\\use_rules.py',
   'PYMODULE'),
  ('numpy.f2py.common_rules',
   'c:\\python36\\lib\\site-packages\\numpy\\f2py\\common_rules.py',
   'PYMODULE'),
  ('numpy.f2py.func2subr',
   'c:\\python36\\lib\\site-packages\\numpy\\f2py\\func2subr.py',
   'PYMODULE'),
  ('numpy.f2py.crackfortran',
   'c:\\python36\\lib\\site-packages\\numpy\\f2py\\crackfortran.py',
   'PYMODULE'),
  ('fileinput', 'c:\\python36\\lib\\fileinput.py', 'PYMODULE'),
  ('numpy.f2py.cb_rules',
   'c:\\python36\\lib\\site-packages\\numpy\\f2py\\cb_rules.py',
   'PYMODULE'),
  ('numpy.f2py.capi_maps',
   'c:\\python36\\lib\\site-packages\\numpy\\f2py\\capi_maps.py',
   'PYMODULE'),
  ('numpy.f2py.cfuncs',
   'c:\\python36\\lib\\site-packages\\numpy\\f2py\\cfuncs.py',
   'PYMODULE'),
  ('numpy.f2py.__version__',
   'c:\\python36\\lib\\site-packages\\numpy\\f2py\\__version__.py',
   'PYMODULE'),
  ('numpy.distutils.fcompiler',
   'c:\\python36\\lib\\site-packages\\numpy\\distutils\\fcompiler\\__init__.py',
   'PYMODULE'),
  ('numpy.distutils.environment',
   'c:\\python36\\lib\\site-packages\\numpy\\distutils\\environment.py',
   'PYMODULE'),
  ('numpy.distutils.ccompiler',
   'c:\\python36\\lib\\site-packages\\numpy\\distutils\\ccompiler.py',
   'PYMODULE'),
  ('numpy.distutils.cpuinfo',
   'c:\\python36\\lib\\site-packages\\numpy\\distutils\\cpuinfo.py',
   'PYMODULE'),
  ('distutils.ccompiler',
   'c:\\python36\\lib\\distutils\\ccompiler.py',
   'PYMODULE'),
  ('numpy.distutils.command.config',
   'c:\\python36\\lib\\site-packages\\numpy\\distutils\\command\\config.py',
   'PYMODULE'),
  ('numpy.distutils.command.autodist',
   'c:\\python36\\lib\\site-packages\\numpy\\distutils\\command\\autodist.py',
   'PYMODULE'),
  ('numpy.distutils.mingw32ccompiler',
   'c:\\python36\\lib\\site-packages\\numpy\\distutils\\mingw32ccompiler.py',
   'PYMODULE'),
  ('numpy.distutils.lib2def',
   'c:\\python36\\lib\\site-packages\\numpy\\distutils\\lib2def.py',
   'PYMODULE'),
  ('distutils.unixccompiler',
   'c:\\python36\\lib\\distutils\\unixccompiler.py',
   'PYMODULE'),
  ('distutils.cygwinccompiler',
   'c:\\python36\\lib\\distutils\\cygwinccompiler.py',
   'PYMODULE'),
  ('distutils.command.config',
   'c:\\python36\\lib\\distutils\\command\\config.py',
   'PYMODULE'),
  ('numpy.distutils.exec_command',
   'c:\\python36\\lib\\site-packages\\numpy\\distutils\\exec_command.py',
   'PYMODULE'),
  ('curses', 'c:\\python36\\lib\\curses\\__init__.py', 'PYMODULE'),
  ('curses.has_key', 'c:\\python36\\lib\\curses\\has_key.py', 'PYMODULE'),
  ('numpy.distutils.core',
   'c:\\python36\\lib\\site-packages\\numpy\\distutils\\core.py',
   'PYMODULE'),
  ('numpy.distutils.numpy_distribution',
   'c:\\python36\\lib\\site-packages\\numpy\\distutils\\numpy_distribution.py',
   'PYMODULE'),
  ('numpy.distutils.extension',
   'c:\\python36\\lib\\site-packages\\numpy\\distutils\\extension.py',
   'PYMODULE'),
  ('numpy.distutils',
   'c:\\python36\\lib\\site-packages\\numpy\\distutils\\__init__.py',
   'PYMODULE'),
  ('numpy.testing.nosetester',
   'c:\\python36\\lib\\site-packages\\numpy\\testing\\nosetester.py',
   'PYMODULE'),
  ('numpy.testing.nose_tools.nosetester',
   'c:\\python36\\lib\\site-packages\\numpy\\testing\\nose_tools\\nosetester.py',
   'PYMODULE'),
  ('numpy.testing.nose_tools',
   'c:\\python36\\lib\\site-packages\\numpy\\testing\\nose_tools\\__init__.py',
   'PYMODULE'),
  ('nose.plugins',
   'C:\\Users\\tamli\\AppData\\Roaming\\Python\\Python36\\site-packages\\nose\\plugins\\__init__.py',
   'PYMODULE'),
  ('nose.plugins.doctests',
   'C:\\Users\\tamli\\AppData\\Roaming\\Python\\Python36\\site-packages\\nose\\plugins\\doctests.py',
   'PYMODULE'),
  ('nose.ext.dtcompat',
   'C:\\Users\\tamli\\AppData\\Roaming\\Python\\Python36\\site-packages\\nose\\ext\\dtcompat.py',
   'PYMODULE'),
  ('nose.ext',
   'C:\\Users\\tamli\\AppData\\Roaming\\Python\\Python36\\site-packages\\nose\\ext\\__init__.py',
   'PYMODULE'),
  ('nose.util',
   'C:\\Users\\tamli\\AppData\\Roaming\\Python\\Python36\\site-packages\\nose\\util.py',
   'PYMODULE'),
  ('nose.tools',
   'C:\\Users\\tamli\\AppData\\Roaming\\Python\\Python36\\site-packages\\nose\\tools\\__init__.py',
   'PYMODULE'),
  ('nose.tools.trivial',
   'C:\\Users\\tamli\\AppData\\Roaming\\Python\\Python36\\site-packages\\nose\\tools\\trivial.py',
   'PYMODULE'),
  ('nose.tools.nontrivial',
   'C:\\Users\\tamli\\AppData\\Roaming\\Python\\Python36\\site-packages\\nose\\tools\\nontrivial.py',
   'PYMODULE'),
  ('nose.pyversion',
   'C:\\Users\\tamli\\AppData\\Roaming\\Python\\Python36\\site-packages\\nose\\pyversion.py',
   'PYMODULE'),
  ('nose.suite',
   'C:\\Users\\tamli\\AppData\\Roaming\\Python\\Python36\\site-packages\\nose\\suite.py',
   'PYMODULE'),
  ('nose.proxy',
   'C:\\Users\\tamli\\AppData\\Roaming\\Python\\Python36\\site-packages\\nose\\proxy.py',
   'PYMODULE'),
  ('nose.plugins.skip',
   'C:\\Users\\tamli\\AppData\\Roaming\\Python\\Python36\\site-packages\\nose\\plugins\\skip.py',
   'PYMODULE'),
  ('nose.plugins.errorclass',
   'C:\\Users\\tamli\\AppData\\Roaming\\Python\\Python36\\site-packages\\nose\\plugins\\errorclass.py',
   'PYMODULE'),
  ('nose.result',
   'C:\\Users\\tamli\\AppData\\Roaming\\Python\\Python36\\site-packages\\nose\\result.py',
   'PYMODULE'),
  ('nose.config',
   'C:\\Users\\tamli\\AppData\\Roaming\\Python\\Python36\\site-packages\\nose\\config.py',
   'PYMODULE'),
  ('nose.importer',
   'C:\\Users\\tamli\\AppData\\Roaming\\Python\\Python36\\site-packages\\nose\\importer.py',
   'PYMODULE'),
  ('logging.config', 'c:\\python36\\lib\\logging\\config.py', 'PYMODULE'),
  ('json', 'c:\\python36\\lib\\json\\__init__.py', 'PYMODULE'),
  ('json.encoder', 'c:\\python36\\lib\\json\\encoder.py', 'PYMODULE'),
  ('json.decoder', 'c:\\python36\\lib\\json\\decoder.py', 'PYMODULE'),
  ('json.scanner', 'c:\\python36\\lib\\json\\scanner.py', 'PYMODULE'),
  ('logging.handlers', 'c:\\python36\\lib\\logging\\handlers.py', 'PYMODULE'),
  ('win32evtlogutil',
   'c:\\python36\\lib\\site-packages\\win32\\lib\\win32evtlogutil.py',
   'PYMODULE'),
  ('smtplib', 'c:\\python36\\lib\\smtplib.py', 'PYMODULE'),
  ('nose.case',
   'C:\\Users\\tamli\\AppData\\Roaming\\Python\\Python36\\site-packages\\nose\\case.py',
   'PYMODULE'),
  ('nose.failure',
   'C:\\Users\\tamli\\AppData\\Roaming\\Python\\Python36\\site-packages\\nose\\failure.py',
   'PYMODULE'),
  ('nose.plugins.plugintest',
   'C:\\Users\\tamli\\AppData\\Roaming\\Python\\Python36\\site-packages\\nose\\plugins\\plugintest.py',
   'PYMODULE'),
  ('nose.core',
   'C:\\Users\\tamli\\AppData\\Roaming\\Python\\Python36\\site-packages\\nose\\core.py',
   'PYMODULE'),
  ('nose.loader',
   'C:\\Users\\tamli\\AppData\\Roaming\\Python\\Python36\\site-packages\\nose\\loader.py',
   'PYMODULE'),
  ('nose.selector',
   'C:\\Users\\tamli\\AppData\\Roaming\\Python\\Python36\\site-packages\\nose\\selector.py',
   'PYMODULE'),
  ('nose.plugins.manager',
   'C:\\Users\\tamli\\AppData\\Roaming\\Python\\Python36\\site-packages\\nose\\plugins\\manager.py',
   'PYMODULE'),
  ('nose.exc',
   'C:\\Users\\tamli\\AppData\\Roaming\\Python\\Python36\\site-packages\\nose\\exc.py',
   'PYMODULE'),
  ('nose.plugins.deprecated',
   'C:\\Users\\tamli\\AppData\\Roaming\\Python\\Python36\\site-packages\\nose\\plugins\\deprecated.py',
   'PYMODULE'),
  ('nose.plugins.base',
   'C:\\Users\\tamli\\AppData\\Roaming\\Python\\Python36\\site-packages\\nose\\plugins\\base.py',
   'PYMODULE'),
  ('nose',
   'C:\\Users\\tamli\\AppData\\Roaming\\Python\\Python36\\site-packages\\nose\\__init__.py',
   'PYMODULE'),
  ('nose.plugins.builtin',
   'C:\\Users\\tamli\\AppData\\Roaming\\Python\\Python36\\site-packages\\nose\\plugins\\builtin.py',
   'PYMODULE'),
  ('scipy',
   'C:\\Users\\tamli\\AppData\\Roaming\\Python\\Python36\\site-packages\\scipy\\__init__.py',
   'PYMODULE'),
  ('scipy._lib._testutils',
   'C:\\Users\\tamli\\AppData\\Roaming\\Python\\Python36\\site-packages\\scipy\\_lib\\_testutils.py',
   'PYMODULE'),
  ('scipy._lib',
   'C:\\Users\\tamli\\AppData\\Roaming\\Python\\Python36\\site-packages\\scipy\\_lib\\__init__.py',
   'PYMODULE'),
  ('psutil',
   'c:\\python36\\lib\\site-packages\\psutil\\__init__.py',
   'PYMODULE'),
  ('psutil._psaix',
   'c:\\python36\\lib\\site-packages\\psutil\\_psaix.py',
   'PYMODULE'),
  ('psutil._pssunos',
   'c:\\python36\\lib\\site-packages\\psutil\\_pssunos.py',
   'PYMODULE'),
  ('psutil._psbsd',
   'c:\\python36\\lib\\site-packages\\psutil\\_psbsd.py',
   'PYMODULE'),
  ('xml.etree.ElementTree',
   'c:\\python36\\lib\\xml\\etree\\ElementTree.py',
   'PYMODULE'),
  ('xml.etree.ElementInclude',
   'c:\\python36\\lib\\xml\\etree\\ElementInclude.py',
   'PYMODULE'),
  ('xml.etree.cElementTree',
   'c:\\python36\\lib\\xml\\etree\\cElementTree.py',
   'PYMODULE'),
  ('psutil._psosx',
   'c:\\python36\\lib\\site-packages\\psutil\\_psosx.py',
   'PYMODULE'),
  ('psutil._pswindows',
   'c:\\python36\\lib\\site-packages\\psutil\\_pswindows.py',
   'PYMODULE'),
  ('psutil._pslinux',
   'c:\\python36\\lib\\site-packages\\psutil\\_pslinux.py',
   'PYMODULE'),
  ('psutil._psposix',
   'c:\\python36\\lib\\site-packages\\psutil\\_psposix.py',
   'PYMODULE'),
  ('psutil._exceptions',
   'c:\\python36\\lib\\site-packages\\psutil\\_exceptions.py',
   'PYMODULE'),
  ('psutil._compat',
   'c:\\python36\\lib\\site-packages\\psutil\\_compat.py',
   'PYMODULE'),
  ('psutil._common',
   'c:\\python36\\lib\\site-packages\\psutil\\_common.py',
   'PYMODULE'),
  ('scipy._lib._ccallback',
   'C:\\Users\\tamli\\AppData\\Roaming\\Python\\Python36\\site-packages\\scipy\\_lib\\_ccallback.py',
   'PYMODULE'),
  ('cffi', 'c:\\python36\\lib\\site-packages\\cffi\\__init__.py', 'PYMODULE'),
  ('cffi.error',
   'c:\\python36\\lib\\site-packages\\cffi\\error.py',
   'PYMODULE'),
  ('cffi.api', 'c:\\python36\\lib\\site-packages\\cffi\\api.py', 'PYMODULE'),
  ('cffi.recompiler',
   'c:\\python36\\lib\\site-packages\\cffi\\recompiler.py',
   'PYMODULE'),
  ('cffi.cffi_opcode',
   'c:\\python36\\lib\\site-packages\\cffi\\cffi_opcode.py',
   'PYMODULE'),
  ('cffi.verifier',
   'c:\\python36\\lib\\site-packages\\cffi\\verifier.py',
   'PYMODULE'),
  ('cffi.lock', 'c:\\python36\\lib\\site-packages\\cffi\\lock.py', 'PYMODULE'),
  ('cffi.vengine_cpy',
   'c:\\python36\\lib\\site-packages\\cffi\\vengine_cpy.py',
   'PYMODULE'),
  ('cffi.vengine_gen',
   'c:\\python36\\lib\\site-packages\\cffi\\vengine_gen.py',
   'PYMODULE'),
  ('cffi.ffiplatform',
   'c:\\python36\\lib\\site-packages\\cffi\\ffiplatform.py',
   'PYMODULE'),
  ('cffi.cparser',
   'c:\\python36\\lib\\site-packages\\cffi\\cparser.py',
   'PYMODULE'),
  ('pycparser',
   'c:\\python36\\lib\\site-packages\\pycparser\\__init__.py',
   'PYMODULE'),
  ('pycparser.yacctab',
   'c:\\python36\\lib\\site-packages\\pycparser\\yacctab.py',
   'PYMODULE'),
  ('pycparser.lextab',
   'c:\\python36\\lib\\site-packages\\pycparser\\lextab.py',
   'PYMODULE'),
  ('pycparser.c_parser',
   'c:\\python36\\lib\\site-packages\\pycparser\\c_parser.py',
   'PYMODULE'),
  ('pycparser.ast_transforms',
   'c:\\python36\\lib\\site-packages\\pycparser\\ast_transforms.py',
   'PYMODULE'),
  ('pycparser.plyparser',
   'c:\\python36\\lib\\site-packages\\pycparser\\plyparser.py',
   'PYMODULE'),
  ('pycparser.c_lexer',
   'c:\\python36\\lib\\site-packages\\pycparser\\c_lexer.py',
   'PYMODULE'),
  ('pycparser.ply.lex',
   'c:\\python36\\lib\\site-packages\\pycparser\\ply\\lex.py',
   'PYMODULE'),
  ('pycparser.ply.yacc',
   'c:\\python36\\lib\\site-packages\\pycparser\\ply\\yacc.py',
   'PYMODULE'),
  ('pycparser.ply',
   'c:\\python36\\lib\\site-packages\\pycparser\\ply\\__init__.py',
   'PYMODULE'),
  ('pycparser.c_ast',
   'c:\\python36\\lib\\site-packages\\pycparser\\c_ast.py',
   'PYMODULE'),
  ('cffi.commontypes',
   'c:\\python36\\lib\\site-packages\\cffi\\commontypes.py',
   'PYMODULE'),
  ('cffi.model',
   'c:\\python36\\lib\\site-packages\\cffi\\model.py',
   'PYMODULE'),
  ('scipy._lib._version',
   'C:\\Users\\tamli\\AppData\\Roaming\\Python\\Python36\\site-packages\\scipy\\_lib\\_version.py',
   'PYMODULE'),
  ('scipy._lib.six',
   'C:\\Users\\tamli\\AppData\\Roaming\\Python\\Python36\\site-packages\\scipy\\_lib\\six.py',
   'PYMODULE'),
  ('scipy.version',
   'C:\\Users\\tamli\\AppData\\Roaming\\Python\\Python36\\site-packages\\scipy\\version.py',
   'PYMODULE'),
  ('scipy.__config__',
   'C:\\Users\\tamli\\AppData\\Roaming\\Python\\Python36\\site-packages\\scipy\\__config__.py',
   'PYMODULE'),
  ('scipy._distributor_init',
   'C:\\Users\\tamli\\AppData\\Roaming\\Python\\Python36\\site-packages\\scipy\\_distributor_init.py',
   'PYMODULE'),
  ('numpy.lib.scimath',
   'c:\\python36\\lib\\site-packages\\numpy\\lib\\scimath.py',
   'PYMODULE'),
  ('numpy.lib.type_check',
   'c:\\python36\\lib\\site-packages\\numpy\\lib\\type_check.py',
   'PYMODULE'),
  ('numpy.core.getlimits',
   'c:\\python36\\lib\\site-packages\\numpy\\core\\getlimits.py',
   'PYMODULE'),
  ('numpy.core.machar',
   'c:\\python36\\lib\\site-packages\\numpy\\core\\machar.py',
   'PYMODULE'),
  ('numpy.lib.ufunclike',
   'c:\\python36\\lib\\site-packages\\numpy\\lib\\ufunclike.py',
   'PYMODULE'),
  ('numpy.testing.nose_tools.noseclasses',
   'c:\\python36\\lib\\site-packages\\numpy\\testing\\nose_tools\\noseclasses.py',
   'PYMODULE'),
  ('numpy.testing.nose_tools.utils',
   'c:\\python36\\lib\\site-packages\\numpy\\testing\\nose_tools\\utils.py',
   'PYMODULE'),
  ('numpy.distutils.__config__',
   'c:\\python36\\lib\\site-packages\\numpy\\distutils\\__config__.py',
   'PYMODULE'),
  ('numpy.distutils.info',
   'c:\\python36\\lib\\site-packages\\numpy\\distutils\\info.py',
   'PYMODULE'),
  ('numpy.distutils.unixccompiler',
   'c:\\python36\\lib\\site-packages\\numpy\\distutils\\unixccompiler.py',
   'PYMODULE'),
  ('numpy.distutils.__version__',
   'c:\\python36\\lib\\site-packages\\numpy\\distutils\\__version__.py',
   'PYMODULE'),
  ('numpy.distutils.compat',
   'c:\\python36\\lib\\site-packages\\numpy\\distutils\\compat.py',
   'PYMODULE'),
  ('distutils.msvccompiler',
   'c:\\python36\\lib\\distutils\\msvccompiler.py',
   'PYMODULE'),
  ('numpy.random',
   'c:\\python36\\lib\\site-packages\\numpy\\random\\__init__.py',
   'PYMODULE'),
  ('numpy.random.info',
   'c:\\python36\\lib\\site-packages\\numpy\\random\\info.py',
   'PYMODULE'),
  ('numpy.polynomial',
   'c:\\python36\\lib\\site-packages\\numpy\\polynomial\\__init__.py',
   'PYMODULE'),
  ('numpy.polynomial.laguerre',
   'c:\\python36\\lib\\site-packages\\numpy\\polynomial\\laguerre.py',
   'PYMODULE'),
  ('numpy.polynomial._polybase',
   'c:\\python36\\lib\\site-packages\\numpy\\polynomial\\_polybase.py',
   'PYMODULE'),
  ('numpy.polynomial.hermite_e',
   'c:\\python36\\lib\\site-packages\\numpy\\polynomial\\hermite_e.py',
   'PYMODULE'),
  ('numpy.polynomial.hermite',
   'c:\\python36\\lib\\site-packages\\numpy\\polynomial\\hermite.py',
   'PYMODULE'),
  ('numpy.polynomial.legendre',
   'c:\\python36\\lib\\site-packages\\numpy\\polynomial\\legendre.py',
   'PYMODULE'),
  ('numpy.polynomial.chebyshev',
   'c:\\python36\\lib\\site-packages\\numpy\\polynomial\\chebyshev.py',
   'PYMODULE'),
  ('numpy.polynomial.polynomial',
   'c:\\python36\\lib\\site-packages\\numpy\\polynomial\\polynomial.py',
   'PYMODULE'),
  ('numpy.polynomial.polyutils',
   'c:\\python36\\lib\\site-packages\\numpy\\polynomial\\polyutils.py',
   'PYMODULE'),
  ('numpy.fft',
   'c:\\python36\\lib\\site-packages\\numpy\\fft\\__init__.py',
   'PYMODULE'),
  ('numpy.fft.helper',
   'c:\\python36\\lib\\site-packages\\numpy\\fft\\helper.py',
   'PYMODULE'),
  ('numpy.fft.fftpack',
   'c:\\python36\\lib\\site-packages\\numpy\\fft\\fftpack.py',
   'PYMODULE'),
  ('numpy.fft.info',
   'c:\\python36\\lib\\site-packages\\numpy\\fft\\info.py',
   'PYMODULE'),
  ('numpy.linalg',
   'c:\\python36\\lib\\site-packages\\numpy\\linalg\\__init__.py',
   'PYMODULE'),
  ('numpy.linalg.linalg',
   'c:\\python36\\lib\\site-packages\\numpy\\linalg\\linalg.py',
   'PYMODULE'),
  ('numpy.linalg.info',
   'c:\\python36\\lib\\site-packages\\numpy\\linalg\\info.py',
   'PYMODULE'),
  ('numpy.lib',
   'c:\\python36\\lib\\site-packages\\numpy\\lib\\__init__.py',
   'PYMODULE'),
  ('numpy.lib._version',
   'c:\\python36\\lib\\site-packages\\numpy\\lib\\_version.py',
   'PYMODULE'),
  ('numpy.lib.arraypad',
   'c:\\python36\\lib\\site-packages\\numpy\\lib\\arraypad.py',
   'PYMODULE'),
  ('numpy.lib.arrayterator',
   'c:\\python36\\lib\\site-packages\\numpy\\lib\\arrayterator.py',
   'PYMODULE'),
  ('numpy.lib.financial',
   'c:\\python36\\lib\\site-packages\\numpy\\lib\\financial.py',
   'PYMODULE'),
  ('numpy.lib.npyio',
   'c:\\python36\\lib\\site-packages\\numpy\\lib\\npyio.py',
   'PYMODULE'),
  ('numpy.ma.mrecords',
   'c:\\python36\\lib\\site-packages\\numpy\\ma\\mrecords.py',
   'PYMODULE'),
  ('numpy.core.records',
   'c:\\python36\\lib\\site-packages\\numpy\\core\\records.py',
   'PYMODULE'),
  ('numpy.lib._iotools',
   'c:\\python36\\lib\\site-packages\\numpy\\lib\\_iotools.py',
   'PYMODULE'),
  ('numpy.lib._datasource',
   'c:\\python36\\lib\\site-packages\\numpy\\lib\\_datasource.py',
   'PYMODULE'),
  ('numpy.lib.format',
   'c:\\python36\\lib\\site-packages\\numpy\\lib\\format.py',
   'PYMODULE'),
  ('numpy.lib.arraysetops',
   'c:\\python36\\lib\\site-packages\\numpy\\lib\\arraysetops.py',
   'PYMODULE'),
  ('numpy.lib.polynomial',
   'c:\\python36\\lib\\site-packages\\numpy\\lib\\polynomial.py',
   'PYMODULE'),
  ('numpy.lib.shape_base',
   'c:\\python36\\lib\\site-packages\\numpy\\lib\\shape_base.py',
   'PYMODULE'),
  ('numpy.lib.nanfunctions',
   'c:\\python36\\lib\\site-packages\\numpy\\lib\\nanfunctions.py',
   'PYMODULE'),
  ('numpy.lib.mixins',
   'c:\\python36\\lib\\site-packages\\numpy\\lib\\mixins.py',
   'PYMODULE'),
  ('numpy.lib.info',
   'c:\\python36\\lib\\site-packages\\numpy\\lib\\info.py',
   'PYMODULE'),
  ('numpy.compat',
   'c:\\python36\\lib\\site-packages\\numpy\\compat\\__init__.py',
   'PYMODULE'),
  ('numpy.compat._inspect',
   'c:\\python36\\lib\\site-packages\\numpy\\compat\\_inspect.py',
   'PYMODULE'),
  ('numpy.core',
   'c:\\python36\\lib\\site-packages\\numpy\\core\\__init__.py',
   'PYMODULE'),
  ('numpy.core.einsumfunc',
   'c:\\python36\\lib\\site-packages\\numpy\\core\\einsumfunc.py',
   'PYMODULE'),
  ('numpy.core.shape_base',
   'c:\\python36\\lib\\site-packages\\numpy\\core\\shape_base.py',
   'PYMODULE'),
  ('numpy.core.function_base',
   'c:\\python36\\lib\\site-packages\\numpy\\core\\function_base.py',
   'PYMODULE'),
  ('numpy.core.memmap',
   'c:\\python36\\lib\\site-packages\\numpy\\core\\memmap.py',
   'PYMODULE'),
  ('numpy.core.defchararray',
   'c:\\python36\\lib\\site-packages\\numpy\\core\\defchararray.py',
   'PYMODULE'),
  ('numpy.core.info',
   'c:\\python36\\lib\\site-packages\\numpy\\core\\info.py',
   'PYMODULE'),
  ('numpy._distributor_init',
   'c:\\python36\\lib\\site-packages\\numpy\\_distributor_init.py',
   'PYMODULE'),
  ('numpy.testing',
   'c:\\python36\\lib\\site-packages\\numpy\\testing\\__init__.py',
   'PYMODULE'),
  ('numpy.testing.utils',
   'c:\\python36\\lib\\site-packages\\numpy\\testing\\utils.py',
   'PYMODULE'),
  ('numpy.testing.decorators',
   'c:\\python36\\lib\\site-packages\\numpy\\testing\\decorators.py',
   'PYMODULE'),
  ('numpy.testing.nose_tools.decorators',
   'c:\\python36\\lib\\site-packages\\numpy\\testing\\nose_tools\\decorators.py',
   'PYMODULE'),
  ('numpy.testing.nose_tools.parameterized',
   'c:\\python36\\lib\\site-packages\\numpy\\testing\\nose_tools\\parameterized.py',
   'PYMODULE'),
  ('numpy.add_newdocs',
   'c:\\python36\\lib\\site-packages\\numpy\\add_newdocs.py',
   'PYMODULE'),
  ('numpy._import_tools',
   'c:\\python36\\lib\\site-packages\\numpy\\_import_tools.py',
   'PYMODULE'),
  ('numpy.version',
   'c:\\python36\\lib\\site-packages\\numpy\\version.py',
   'PYMODULE'),
  ('numpy.__config__',
   'c:\\python36\\lib\\site-packages\\numpy\\__config__.py',
   'PYMODULE'),
  ('numpy._globals',
   'c:\\python36\\lib\\site-packages\\numpy\\_globals.py',
   'PYMODULE'),
  ('PIL.ImageGrab',
   'c:\\python36\\lib\\site-packages\\PIL\\ImageGrab.py',
   'PYMODULE'),
  ('PIL.BmpImagePlugin',
   'c:\\python36\\lib\\site-packages\\PIL\\BmpImagePlugin.py',
   'PYMODULE'),
  ('PIL._binary',
   'c:\\python36\\lib\\site-packages\\PIL\\_binary.py',
   'PYMODULE'),
  ('PIL._util', 'c:\\python36\\lib\\site-packages\\PIL\\_util.py', 'PYMODULE'),
  ('PIL.ImagePalette',
   'c:\\python36\\lib\\site-packages\\PIL\\ImagePalette.py',
   'PYMODULE'),
  ('PIL.PaletteFile',
   'c:\\python36\\lib\\site-packages\\PIL\\PaletteFile.py',
   'PYMODULE'),
  ('PIL.GimpGradientFile',
   'c:\\python36\\lib\\site-packages\\PIL\\GimpGradientFile.py',
   'PYMODULE'),
  ('PIL.GimpPaletteFile',
   'c:\\python36\\lib\\site-packages\\PIL\\GimpPaletteFile.py',
   'PYMODULE'),
  ('PIL.ImageColor',
   'c:\\python36\\lib\\site-packages\\PIL\\ImageColor.py',
   'PYMODULE'),
  ('colorsys', 'c:\\python36\\lib\\colorsys.py', 'PYMODULE'),
  ('PIL.ImageFile',
   'c:\\python36\\lib\\site-packages\\PIL\\ImageFile.py',
   'PYMODULE'),
  ('PIL.Image', 'c:\\python36\\lib\\site-packages\\PIL\\Image.py', 'PYMODULE'),
  ('PIL.XpmImagePlugin',
   'c:\\python36\\lib\\site-packages\\PIL\\XpmImagePlugin.py',
   'PYMODULE'),
  ('PIL.PalmImagePlugin',
   'c:\\python36\\lib\\site-packages\\PIL\\PalmImagePlugin.py',
   'PYMODULE'),
  ('PIL.EpsImagePlugin',
   'c:\\python36\\lib\\site-packages\\PIL\\EpsImagePlugin.py',
   'PYMODULE'),
  ('PIL.GribStubImagePlugin',
   'c:\\python36\\lib\\site-packages\\PIL\\GribStubImagePlugin.py',
   'PYMODULE'),
  ('PIL.TgaImagePlugin',
   'c:\\python36\\lib\\site-packages\\PIL\\TgaImagePlugin.py',
   'PYMODULE'),
  ('PIL.SunImagePlugin',
   'c:\\python36\\lib\\site-packages\\PIL\\SunImagePlugin.py',
   'PYMODULE'),
  ('PIL.PsdImagePlugin',
   'c:\\python36\\lib\\site-packages\\PIL\\PsdImagePlugin.py',
   'PYMODULE'),
  ('PIL.IcoImagePlugin',
   'c:\\python36\\lib\\site-packages\\PIL\\IcoImagePlugin.py',
   'PYMODULE'),
  ('PIL.XVThumbImagePlugin',
   'c:\\python36\\lib\\site-packages\\PIL\\XVThumbImagePlugin.py',
   'PYMODULE'),
  ('PIL.XbmImagePlugin',
   'c:\\python36\\lib\\site-packages\\PIL\\XbmImagePlugin.py',
   'PYMODULE'),
  ('PIL.WmfImagePlugin',
   'c:\\python36\\lib\\site-packages\\PIL\\WmfImagePlugin.py',
   'PYMODULE'),
  ('PIL.SpiderImagePlugin',
   'c:\\python36\\lib\\site-packages\\PIL\\SpiderImagePlugin.py',
   'PYMODULE'),
  ('PIL.ImageTk',
   'c:\\python36\\lib\\site-packages\\PIL\\ImageTk.py',
   'PYMODULE'),
  ('PIL.McIdasImagePlugin',
   'c:\\python36\\lib\\site-packages\\PIL\\McIdasImagePlugin.py',
   'PYMODULE'),
  ('PIL.Jpeg2KImagePlugin',
   'c:\\python36\\lib\\site-packages\\PIL\\Jpeg2KImagePlugin.py',
   'PYMODULE'),
  ('PIL.TiffImagePlugin',
   'c:\\python36\\lib\\site-packages\\PIL\\TiffImagePlugin.py',
   'PYMODULE'),
  ('fractions', 'c:\\python36\\lib\\fractions.py', 'PYMODULE'),
  ('PIL.TiffTags',
   'c:\\python36\\lib\\site-packages\\PIL\\TiffTags.py',
   'PYMODULE'),
  ('PIL.PixarImagePlugin',
   'c:\\python36\\lib\\site-packages\\PIL\\PixarImagePlugin.py',
   'PYMODULE'),
  ('PIL.DcxImagePlugin',
   'c:\\python36\\lib\\site-packages\\PIL\\DcxImagePlugin.py',
   'PYMODULE'),
  ('PIL.GbrImagePlugin',
   'c:\\python36\\lib\\site-packages\\PIL\\GbrImagePlugin.py',
   'PYMODULE'),
  ('PIL.PcxImagePlugin',
   'c:\\python36\\lib\\site-packages\\PIL\\PcxImagePlugin.py',
   'PYMODULE'),
  ('PIL.ImtImagePlugin',
   'c:\\python36\\lib\\site-packages\\PIL\\ImtImagePlugin.py',
   'PYMODULE'),
  ('PIL.Hdf5StubImagePlugin',
   'c:\\python36\\lib\\site-packages\\PIL\\Hdf5StubImagePlugin.py',
   'PYMODULE'),
  ('PIL.FtexImagePlugin',
   'c:\\python36\\lib\\site-packages\\PIL\\FtexImagePlugin.py',
   'PYMODULE'),
  ('PIL.WebPImagePlugin',
   'c:\\python36\\lib\\site-packages\\PIL\\WebPImagePlugin.py',
   'PYMODULE'),
  ('PIL.MpoImagePlugin',
   'c:\\python36\\lib\\site-packages\\PIL\\MpoImagePlugin.py',
   'PYMODULE'),
  ('PIL.BlpImagePlugin',
   'c:\\python36\\lib\\site-packages\\PIL\\BlpImagePlugin.py',
   'PYMODULE'),
  ('PIL.MspImagePlugin',
   'c:\\python36\\lib\\site-packages\\PIL\\MspImagePlugin.py',
   'PYMODULE'),
  ('PIL.SgiImagePlugin',
   'c:\\python36\\lib\\site-packages\\PIL\\SgiImagePlugin.py',
   'PYMODULE'),
  ('PIL.IptcImagePlugin',
   'c:\\python36\\lib\\site-packages\\PIL\\IptcImagePlugin.py',
   'PYMODULE'),
  ('PIL.FpxImagePlugin',
   'c:\\python36\\lib\\site-packages\\PIL\\FpxImagePlugin.py',
   'PYMODULE'),
  ('PIL.FitsStubImagePlugin',
   'c:\\python36\\lib\\site-packages\\PIL\\FitsStubImagePlugin.py',
   'PYMODULE'),
  ('PIL.PcdImagePlugin',
   'c:\\python36\\lib\\site-packages\\PIL\\PcdImagePlugin.py',
   'PYMODULE'),
  ('PIL.PdfImagePlugin',
   'c:\\python36\\lib\\site-packages\\PIL\\PdfImagePlugin.py',
   'PYMODULE'),
  ('PIL.PdfParser',
   'c:\\python36\\lib\\site-packages\\PIL\\PdfParser.py',
   'PYMODULE'),
  ('PIL.ImageSequence',
   'c:\\python36\\lib\\site-packages\\PIL\\ImageSequence.py',
   'PYMODULE'),
  ('PIL.DdsImagePlugin',
   'c:\\python36\\lib\\site-packages\\PIL\\DdsImagePlugin.py',
   'PYMODULE'),
  ('PIL.FliImagePlugin',
   'c:\\python36\\lib\\site-packages\\PIL\\FliImagePlugin.py',
   'PYMODULE'),
  ('PIL.IcnsImagePlugin',
   'c:\\python36\\lib\\site-packages\\PIL\\IcnsImagePlugin.py',
   'PYMODULE'),
  ('PIL.CurImagePlugin',
   'c:\\python36\\lib\\site-packages\\PIL\\CurImagePlugin.py',
   'PYMODULE'),
  ('PIL.ImImagePlugin',
   'c:\\python36\\lib\\site-packages\\PIL\\ImImagePlugin.py',
   'PYMODULE'),
  ('PIL.MpegImagePlugin',
   'c:\\python36\\lib\\site-packages\\PIL\\MpegImagePlugin.py',
   'PYMODULE'),
  ('PIL.BufrStubImagePlugin',
   'c:\\python36\\lib\\site-packages\\PIL\\BufrStubImagePlugin.py',
   'PYMODULE'),
  ('PIL.MicImagePlugin',
   'c:\\python36\\lib\\site-packages\\PIL\\MicImagePlugin.py',
   'PYMODULE'),
  ('PIL.ImageShow',
   'c:\\python36\\lib\\site-packages\\PIL\\ImageShow.py',
   'PYMODULE'),
  ('pipes', 'c:\\python36\\lib\\pipes.py', 'PYMODULE'),
  ('PIL.ImageQt',
   'c:\\python36\\lib\\site-packages\\PIL\\ImageQt.py',
   'PYMODULE'),
  ('PIL.ImageFilter',
   'c:\\python36\\lib\\site-packages\\PIL\\ImageFilter.py',
   'PYMODULE'),
  ('PIL.PyAccess',
   'c:\\python36\\lib\\site-packages\\PIL\\PyAccess.py',
   'PYMODULE'),
  ('PIL.PngImagePlugin',
   'c:\\python36\\lib\\site-packages\\PIL\\PngImagePlugin.py',
   'PYMODULE'),
  ('PIL.PpmImagePlugin',
   'c:\\python36\\lib\\site-packages\\PIL\\PpmImagePlugin.py',
   'PYMODULE'),
  ('PIL.JpegImagePlugin',
   'c:\\python36\\lib\\site-packages\\PIL\\JpegImagePlugin.py',
   'PYMODULE'),
  ('PIL.JpegPresets',
   'c:\\python36\\lib\\site-packages\\PIL\\JpegPresets.py',
   'PYMODULE'),
  ('PIL.GifImagePlugin',
   'c:\\python36\\lib\\site-packages\\PIL\\GifImagePlugin.py',
   'PYMODULE'),
  ('PIL.ImageChops',
   'c:\\python36\\lib\\site-packages\\PIL\\ImageChops.py',
   'PYMODULE'),
  ('PIL.ImageMode',
   'c:\\python36\\lib\\site-packages\\PIL\\ImageMode.py',
   'PYMODULE'),
  ('PIL', 'c:\\python36\\lib\\site-packages\\PIL\\__init__.py', 'PYMODULE'),
  ('PIL._version',
   'c:\\python36\\lib\\site-packages\\PIL\\_version.py',
   'PYMODULE'),
  ('cv2', 'c:\\python36\\lib\\site-packages\\cv2\\__init__.py', 'PYMODULE'),
  ('cv2.data',
   'c:\\python36\\lib\\site-packages\\cv2\\data\\__init__.py',
   'PYMODULE'),
  ('threading', 'c:\\python36\\lib\\threading.py', 'PYMODULE'),
  ('flask', 'c:\\python36\\lib\\site-packages\\flask\\__init__.py', 'PYMODULE'),
  ('flask.sessions',
   'c:\\python36\\lib\\site-packages\\flask\\sessions.py',
   'PYMODULE'),
  ('flask.json.tag',
   'c:\\python36\\lib\\site-packages\\flask\\json\\tag.py',
   'PYMODULE'),
  ('flask._compat',
   'c:\\python36\\lib\\site-packages\\flask\\_compat.py',
   'PYMODULE'),
  ('werkzeug.http',
   'c:\\python36\\lib\\site-packages\\werkzeug\\http.py',
   'PYMODULE'),
  ('werkzeug.urls',
   'c:\\python36\\lib\\site-packages\\werkzeug\\urls.py',
   'PYMODULE'),
  ('werkzeug.wsgi',
   'c:\\python36\\lib\\site-packages\\werkzeug\\wsgi.py',
   'PYMODULE'),
  ('werkzeug.filesystem',
   'c:\\python36\\lib\\site-packages\\werkzeug\\filesystem.py',
   'PYMODULE'),
  ('werkzeug',
   'c:\\python36\\lib\\site-packages\\werkzeug\\__init__.py',
   'PYMODULE'),
  ('werkzeug._compat',
   'c:\\python36\\lib\\site-packages\\werkzeug\\_compat.py',
   'PYMODULE'),
  ('werkzeug._internal',
   'c:\\python36\\lib\\site-packages\\werkzeug\\_internal.py',
   'PYMODULE'),
  ('werkzeug.datastructures',
   'c:\\python36\\lib\\site-packages\\werkzeug\\datastructures.py',
   'PYMODULE'),
  ('itsdangerous',
   'c:\\python36\\lib\\site-packages\\itsdangerous\\__init__.py',
   'PYMODULE'),
  ('itsdangerous.url_safe',
   'c:\\python36\\lib\\site-packages\\itsdangerous\\url_safe.py',
   'PYMODULE'),
  ('itsdangerous.timed',
   'c:\\python36\\lib\\site-packages\\itsdangerous\\timed.py',
   'PYMODULE'),
  ('itsdangerous._compat',
   'c:\\python36\\lib\\site-packages\\itsdangerous\\_compat.py',
   'PYMODULE'),
  ('itsdangerous.signer',
   'c:\\python36\\lib\\site-packages\\itsdangerous\\signer.py',
   'PYMODULE'),
  ('itsdangerous.serializer',
   'c:\\python36\\lib\\site-packages\\itsdangerous\\serializer.py',
   'PYMODULE'),
  ('itsdangerous.jws',
   'c:\\python36\\lib\\site-packages\\itsdangerous\\jws.py',
   'PYMODULE'),
  ('itsdangerous.exc',
   'c:\\python36\\lib\\site-packages\\itsdangerous\\exc.py',
   'PYMODULE'),
  ('itsdangerous.encoding',
   'c:\\python36\\lib\\site-packages\\itsdangerous\\encoding.py',
   'PYMODULE'),
  ('itsdangerous._json',
   'c:\\python36\\lib\\site-packages\\itsdangerous\\_json.py',
   'PYMODULE'),
  ('flask.signals',
   'c:\\python36\\lib\\site-packages\\flask\\signals.py',
   'PYMODULE'),
  ('flask.templating',
   'c:\\python36\\lib\\site-packages\\flask\\templating.py',
   'PYMODULE'),
  ('flask.debughelpers',
   'c:\\python36\\lib\\site-packages\\flask\\debughelpers.py',
   'PYMODULE'),
  ('flask.blueprints',
   'c:\\python36\\lib\\site-packages\\flask\\blueprints.py',
   'PYMODULE'),
  ('flask.ctx', 'c:\\python36\\lib\\site-packages\\flask\\ctx.py', 'PYMODULE'),
  ('flask.globals',
   'c:\\python36\\lib\\site-packages\\flask\\globals.py',
   'PYMODULE'),
  ('werkzeug.local',
   'c:\\python36\\lib\\site-packages\\werkzeug\\local.py',
   'PYMODULE'),
  ('flask.helpers',
   'c:\\python36\\lib\\site-packages\\flask\\helpers.py',
   'PYMODULE'),
  ('werkzeug.routing',
   'c:\\python36\\lib\\site-packages\\werkzeug\\routing.py',
   'PYMODULE'),
  ('flask.config',
   'c:\\python36\\lib\\site-packages\\flask\\config.py',
   'PYMODULE'),
  ('flask.app', 'c:\\python36\\lib\\site-packages\\flask\\app.py', 'PYMODULE'),
  ('flask.testing',
   'c:\\python36\\lib\\site-packages\\flask\\testing.py',
   'PYMODULE'),
  ('werkzeug.test',
   'c:\\python36\\lib\\site-packages\\werkzeug\\test.py',
   'PYMODULE'),
  ('werkzeug.wrappers',
   'c:\\python36\\lib\\site-packages\\werkzeug\\wrappers.py',
   'PYMODULE'),
  ('werkzeug.useragents',
   'c:\\python36\\lib\\site-packages\\werkzeug\\useragents.py',
   'PYMODULE'),
  ('werkzeug.formparser',
   'c:\\python36\\lib\\site-packages\\werkzeug\\formparser.py',
   'PYMODULE'),
  ('click.testing',
   'c:\\python36\\lib\\site-packages\\click\\testing.py',
   'PYMODULE'),
  ('click', 'c:\\python36\\lib\\site-packages\\click\\__init__.py', 'PYMODULE'),
  ('click.parser',
   'c:\\python36\\lib\\site-packages\\click\\parser.py',
   'PYMODULE'),
  ('click.formatting',
   'c:\\python36\\lib\\site-packages\\click\\formatting.py',
   'PYMODULE'),
  ('click._textwrap',
   'c:\\python36\\lib\\site-packages\\click\\_textwrap.py',
   'PYMODULE'),
  ('click.exceptions',
   'c:\\python36\\lib\\site-packages\\click\\exceptions.py',
   'PYMODULE'),
  ('click.termui',
   'c:\\python36\\lib\\site-packages\\click\\termui.py',
   'PYMODULE'),
  ('click._termui_impl',
   'c:\\python36\\lib\\site-packages\\click\\_termui_impl.py',
   'PYMODULE'),
  ('click.utils',
   'c:\\python36\\lib\\site-packages\\click\\utils.py',
   'PYMODULE'),
  ('click._winconsole',
   'c:\\python36\\lib\\site-packages\\click\\_winconsole.py',
   'PYMODULE'),
  ('ctypes.wintypes', 'c:\\python36\\lib\\ctypes\\wintypes.py', 'PYMODULE'),
  ('click.types',
   'c:\\python36\\lib\\site-packages\\click\\types.py',
   'PYMODULE'),
  ('click.decorators',
   'c:\\python36\\lib\\site-packages\\click\\decorators.py',
   'PYMODULE'),
  ('click._unicodefun',
   'c:\\python36\\lib\\site-packages\\click\\_unicodefun.py',
   'PYMODULE'),
  ('click.globals',
   'c:\\python36\\lib\\site-packages\\click\\globals.py',
   'PYMODULE'),
  ('click.core',
   'c:\\python36\\lib\\site-packages\\click\\core.py',
   'PYMODULE'),
  ('click._bashcomplete',
   'c:\\python36\\lib\\site-packages\\click\\_bashcomplete.py',
   'PYMODULE'),
  ('click._compat',
   'c:\\python36\\lib\\site-packages\\click\\_compat.py',
   'PYMODULE'),
  ('colorama',
   'C:\\Users\\tamli\\AppData\\Roaming\\Python\\Python36\\site-packages\\colorama\\__init__.py',
   'PYMODULE'),
  ('colorama.ansitowin32',
   'C:\\Users\\tamli\\AppData\\Roaming\\Python\\Python36\\site-packages\\colorama\\ansitowin32.py',
   'PYMODULE'),
  ('colorama.winterm',
   'C:\\Users\\tamli\\AppData\\Roaming\\Python\\Python36\\site-packages\\colorama\\winterm.py',
   'PYMODULE'),
  ('colorama.ansi',
   'C:\\Users\\tamli\\AppData\\Roaming\\Python\\Python36\\site-packages\\colorama\\ansi.py',
   'PYMODULE'),
  ('colorama.initialise',
   'C:\\Users\\tamli\\AppData\\Roaming\\Python\\Python36\\site-packages\\colorama\\initialise.py',
   'PYMODULE'),
  ('colorama.win32',
   'C:\\Users\\tamli\\AppData\\Roaming\\Python\\Python36\\site-packages\\colorama\\win32.py',
   'PYMODULE'),
  ('werkzeug.serving',
   'c:\\python36\\lib\\site-packages\\werkzeug\\serving.py',
   'PYMODULE'),
  ('werkzeug._reloader',
   'c:\\python36\\lib\\site-packages\\werkzeug\\_reloader.py',
   'PYMODULE'),
  ('werkzeug.debug',
   'c:\\python36\\lib\\site-packages\\werkzeug\\debug\\__init__.py',
   'PYMODULE'),
  ('werkzeug.debug.repr',
   'c:\\python36\\lib\\site-packages\\werkzeug\\debug\\repr.py',
   'PYMODULE'),
  ('werkzeug.security',
   'c:\\python36\\lib\\site-packages\\werkzeug\\security.py',
   'PYMODULE'),
  ('werkzeug.debug.console',
   'c:\\python36\\lib\\site-packages\\werkzeug\\debug\\console.py',
   'PYMODULE'),
  ('werkzeug.debug.tbtools',
   'c:\\python36\\lib\\site-packages\\werkzeug\\debug\\tbtools.py',
   'PYMODULE'),
  ('termcolor', 'c:\\python36\\lib\\site-packages\\termcolor.py', 'PYMODULE'),
  ('flask.wrappers',
   'c:\\python36\\lib\\site-packages\\flask\\wrappers.py',
   'PYMODULE'),
  ('flask.logging',
   'c:\\python36\\lib\\site-packages\\flask\\logging.py',
   'PYMODULE'),
  ('flask.json',
   'c:\\python36\\lib\\site-packages\\flask\\json\\__init__.py',
   'PYMODULE'),
  ('flask.cli', 'c:\\python36\\lib\\site-packages\\flask\\cli.py', 'PYMODULE'),
  ('jinja2',
   'C:\\Users\\tamli\\AppData\\Roaming\\Python\\Python36\\site-packages\\jinja2\\__init__.py',
   'PYMODULE'),
  ('jinja2.ext',
   'C:\\Users\\tamli\\AppData\\Roaming\\Python\\Python36\\site-packages\\jinja2\\ext.py',
   'PYMODULE'),
  ('jinja2._compat',
   'C:\\Users\\tamli\\AppData\\Roaming\\Python\\Python36\\site-packages\\jinja2\\_compat.py',
   'PYMODULE'),
  ('jinja2.defaults',
   'C:\\Users\\tamli\\AppData\\Roaming\\Python\\Python36\\site-packages\\jinja2\\defaults.py',
   'PYMODULE'),
  ('jinja2.tests',
   'C:\\Users\\tamli\\AppData\\Roaming\\Python\\Python36\\site-packages\\jinja2\\tests.py',
   'PYMODULE'),
  ('jinja2.asyncsupport',
   'C:\\Users\\tamli\\AppData\\Roaming\\Python\\Python36\\site-packages\\jinja2\\asyncsupport.py',
   'PYMODULE'),
  ('jinja2.asyncfilters',
   'C:\\Users\\tamli\\AppData\\Roaming\\Python\\Python36\\site-packages\\jinja2\\asyncfilters.py',
   'PYMODULE'),
  ('asyncio', 'c:\\python36\\lib\\asyncio\\__init__.py', 'PYMODULE'),
  ('asyncio.unix_events',
   'c:\\python36\\lib\\asyncio\\unix_events.py',
   'PYMODULE'),
  ('asyncio.log', 'c:\\python36\\lib\\asyncio\\log.py', 'PYMODULE'),
  ('asyncio.windows_events',
   'c:\\python36\\lib\\asyncio\\windows_events.py',
   'PYMODULE'),
  ('asyncio.windows_utils',
   'c:\\python36\\lib\\asyncio\\windows_utils.py',
   'PYMODULE'),
  ('asyncio.selector_events',
   'c:\\python36\\lib\\asyncio\\selector_events.py',
   'PYMODULE'),
  ('asyncio.proactor_events',
   'c:\\python36\\lib\\asyncio\\proactor_events.py',
   'PYMODULE'),
  ('asyncio.sslproto', 'c:\\python36\\lib\\asyncio\\sslproto.py', 'PYMODULE'),
  ('asyncio.constants', 'c:\\python36\\lib\\asyncio\\constants.py', 'PYMODULE'),
  ('asyncio.base_subprocess',
   'c:\\python36\\lib\\asyncio\\base_subprocess.py',
   'PYMODULE'),
  ('asyncio.transports',
   'c:\\python36\\lib\\asyncio\\transports.py',
   'PYMODULE'),
  ('asyncio.subprocess',
   'c:\\python36\\lib\\asyncio\\subprocess.py',
   'PYMODULE'),
  ('asyncio.streams', 'c:\\python36\\lib\\asyncio\\streams.py', 'PYMODULE'),
  ('asyncio.queues', 'c:\\python36\\lib\\asyncio\\queues.py', 'PYMODULE'),
  ('asyncio.protocols', 'c:\\python36\\lib\\asyncio\\protocols.py', 'PYMODULE'),
  ('asyncio.base_events',
   'c:\\python36\\lib\\asyncio\\base_events.py',
   'PYMODULE'),
  ('asyncio.tasks', 'c:\\python36\\lib\\asyncio\\tasks.py', 'PYMODULE'),
  ('asyncio.locks', 'c:\\python36\\lib\\asyncio\\locks.py', 'PYMODULE'),
  ('asyncio.base_tasks',
   'c:\\python36\\lib\\asyncio\\base_tasks.py',
   'PYMODULE'),
  ('asyncio.futures', 'c:\\python36\\lib\\asyncio\\futures.py', 'PYMODULE'),
  ('asyncio.coroutines',
   'c:\\python36\\lib\\asyncio\\coroutines.py',
   'PYMODULE'),
  ('asyncio.base_futures',
   'c:\\python36\\lib\\asyncio\\base_futures.py',
   'PYMODULE'),
  ('asyncio.events', 'c:\\python36\\lib\\asyncio\\events.py', 'PYMODULE'),
  ('asyncio.compat', 'c:\\python36\\lib\\asyncio\\compat.py', 'PYMODULE'),
  ('jinja2.utils',
   'C:\\Users\\tamli\\AppData\\Roaming\\Python\\Python36\\site-packages\\jinja2\\utils.py',
   'PYMODULE'),
  ('markupsafe',
   'C:\\Users\\tamli\\AppData\\Roaming\\Python\\Python36\\site-packages\\markupsafe\\__init__.py',
   'PYMODULE'),
  ('markupsafe._native',
   'C:\\Users\\tamli\\AppData\\Roaming\\Python\\Python36\\site-packages\\markupsafe\\_native.py',
   'PYMODULE'),
  ('markupsafe._constants',
   'C:\\Users\\tamli\\AppData\\Roaming\\Python\\Python36\\site-packages\\markupsafe\\_constants.py',
   'PYMODULE'),
  ('markupsafe._compat',
   'C:\\Users\\tamli\\AppData\\Roaming\\Python\\Python36\\site-packages\\markupsafe\\_compat.py',
   'PYMODULE'),
  ('jinja2.constants',
   'C:\\Users\\tamli\\AppData\\Roaming\\Python\\Python36\\site-packages\\jinja2\\constants.py',
   'PYMODULE'),
  ('jinja2.lexer',
   'C:\\Users\\tamli\\AppData\\Roaming\\Python\\Python36\\site-packages\\jinja2\\lexer.py',
   'PYMODULE'),
  ('jinja2.filters',
   'C:\\Users\\tamli\\AppData\\Roaming\\Python\\Python36\\site-packages\\jinja2\\filters.py',
   'PYMODULE'),
  ('jinja2.exceptions',
   'C:\\Users\\tamli\\AppData\\Roaming\\Python\\Python36\\site-packages\\jinja2\\exceptions.py',
   'PYMODULE'),
  ('jinja2.runtime',
   'C:\\Users\\tamli\\AppData\\Roaming\\Python\\Python36\\site-packages\\jinja2\\runtime.py',
   'PYMODULE'),
  ('jinja2.bccache',
   'C:\\Users\\tamli\\AppData\\Roaming\\Python\\Python36\\site-packages\\jinja2\\bccache.py',
   'PYMODULE'),
  ('jinja2.loaders',
   'C:\\Users\\tamli\\AppData\\Roaming\\Python\\Python36\\site-packages\\jinja2\\loaders.py',
   'PYMODULE'),
  ('jinja2.environment',
   'C:\\Users\\tamli\\AppData\\Roaming\\Python\\Python36\\site-packages\\jinja2\\environment.py',
   'PYMODULE'),
  ('jinja2.debug',
   'C:\\Users\\tamli\\AppData\\Roaming\\Python\\Python36\\site-packages\\jinja2\\debug.py',
   'PYMODULE'),
  ('jinja2.compiler',
   'C:\\Users\\tamli\\AppData\\Roaming\\Python\\Python36\\site-packages\\jinja2\\compiler.py',
   'PYMODULE'),
  ('jinja2.idtracking',
   'C:\\Users\\tamli\\AppData\\Roaming\\Python\\Python36\\site-packages\\jinja2\\idtracking.py',
   'PYMODULE'),
  ('jinja2.optimizer',
   'C:\\Users\\tamli\\AppData\\Roaming\\Python\\Python36\\site-packages\\jinja2\\optimizer.py',
   'PYMODULE'),
  ('jinja2.visitor',
   'C:\\Users\\tamli\\AppData\\Roaming\\Python\\Python36\\site-packages\\jinja2\\visitor.py',
   'PYMODULE'),
  ('jinja2.parser',
   'C:\\Users\\tamli\\AppData\\Roaming\\Python\\Python36\\site-packages\\jinja2\\parser.py',
   'PYMODULE'),
  ('jinja2.nodes',
   'C:\\Users\\tamli\\AppData\\Roaming\\Python\\Python36\\site-packages\\jinja2\\nodes.py',
   'PYMODULE'),
  ('jinja2._identifier',
   'C:\\Users\\tamli\\AppData\\Roaming\\Python\\Python36\\site-packages\\jinja2\\_identifier.py',
   'PYMODULE'),
  ('werkzeug.utils',
   'c:\\python36\\lib\\site-packages\\werkzeug\\utils.py',
   'PYMODULE'),
  ('werkzeug.exceptions',
   'c:\\python36\\lib\\site-packages\\werkzeug\\exceptions.py',
   'PYMODULE')],
 [('api-ms-win-crt-stdio-l1-1-0.dll',
   'C:\\Program Files\\Java\\jdk-11.0.1\\bin\\api-ms-win-crt-stdio-l1-1-0.dll',
   'BINARY'),
  ('api-ms-win-crt-runtime-l1-1-0.dll',
   'C:\\Program '
   'Files\\Java\\jdk-11.0.1\\bin\\api-ms-win-crt-runtime-l1-1-0.dll',
   'BINARY'),
  ('api-ms-win-crt-heap-l1-1-0.dll',
   'C:\\Program Files\\Java\\jdk-11.0.1\\bin\\api-ms-win-crt-heap-l1-1-0.dll',
   'BINARY'),
  ('api-ms-win-crt-locale-l1-1-0.dll',
   'C:\\Program Files\\Java\\jdk-11.0.1\\bin\\api-ms-win-crt-locale-l1-1-0.dll',
   'BINARY'),
  ('VCRUNTIME140.dll', 'c:\\python36\\VCRUNTIME140.dll', 'BINARY'),
  ('python36.dll', 'c:\\python36\\python36.dll', 'BINARY'),
  ('api-ms-win-crt-math-l1-1-0.dll',
   'C:\\Program Files\\Java\\jdk-11.0.1\\bin\\api-ms-win-crt-math-l1-1-0.dll',
   'BINARY'),
  ('ucrtbase.dll',
   'C:\\Program Files\\Java\\jdk-11.0.1\\bin\\ucrtbase.dll',
   'BINARY'),
  ('api-ms-win-crt-convert-l1-1-0.dll',
   'C:\\Program '
   'Files\\Java\\jdk-11.0.1\\bin\\api-ms-win-crt-convert-l1-1-0.dll',
   'BINARY'),
  ('api-ms-win-crt-string-l1-1-0.dll',
   'C:\\Program Files\\Java\\jdk-11.0.1\\bin\\api-ms-win-crt-string-l1-1-0.dll',
   'BINARY'),
  ('api-ms-win-crt-environment-l1-1-0.dll',
   'C:\\Program '
   'Files\\Java\\jdk-11.0.1\\bin\\api-ms-win-crt-environment-l1-1-0.dll',
   'BINARY'),
  ('api-ms-win-crt-filesystem-l1-1-0.dll',
   'C:\\Program '
   'Files\\Java\\jdk-11.0.1\\bin\\api-ms-win-crt-filesystem-l1-1-0.dll',
   'BINARY'),
  ('api-ms-win-crt-time-l1-1-0.dll',
   'C:\\Program Files\\Java\\jdk-11.0.1\\bin\\api-ms-win-crt-time-l1-1-0.dll',
   'BINARY'),
  ('api-ms-win-crt-process-l1-1-0.dll',
   'C:\\Program '
   'Files\\Java\\jdk-11.0.1\\bin\\api-ms-win-crt-process-l1-1-0.dll',
   'BINARY'),
  ('api-ms-win-crt-conio-l1-1-0.dll',
   'C:\\Program Files\\Java\\jdk-11.0.1\\bin\\api-ms-win-crt-conio-l1-1-0.dll',
   'BINARY'),
  ('api-ms-win-core-file-l1-2-0.dll',
   'C:\\Program Files\\Java\\jdk-11.0.1\\bin\\api-ms-win-core-file-l1-2-0.dll',
   'BINARY'),
  ('api-ms-win-core-timezone-l1-1-0.dll',
   'C:\\Program '
   'Files\\Java\\jdk-11.0.1\\bin\\api-ms-win-core-timezone-l1-1-0.dll',
   'BINARY'),
  ('api-ms-win-core-file-l2-1-0.dll',
   'C:\\Program Files\\Java\\jdk-11.0.1\\bin\\api-ms-win-core-file-l2-1-0.dll',
   'BINARY'),
  ('api-ms-win-core-synch-l1-1-0.dll',
   'C:\\Program Files\\Java\\jdk-11.0.1\\bin\\api-ms-win-core-synch-l1-1-0.dll',
   'BINARY'),
  ('api-ms-win-core-processenvironment-l1-1-0.dll',
   'C:\\Program '
   'Files\\Java\\jdk-11.0.1\\bin\\api-ms-win-core-processenvironment-l1-1-0.dll',
   'BINARY'),
  ('api-ms-win-core-libraryloader-l1-1-0.dll',
   'C:\\Program '
   'Files\\Java\\jdk-11.0.1\\bin\\api-ms-win-core-libraryloader-l1-1-0.dll',
   'BINARY'),
  ('api-ms-win-core-rtlsupport-l1-1-0.dll',
   'C:\\Program '
   'Files\\Java\\jdk-11.0.1\\bin\\api-ms-win-core-rtlsupport-l1-1-0.dll',
   'BINARY'),
  ('api-ms-win-core-processthreads-l1-1-0.dll',
   'C:\\Program '
   'Files\\Java\\jdk-11.0.1\\bin\\api-ms-win-core-processthreads-l1-1-0.dll',
   'BINARY'),
  ('api-ms-win-core-datetime-l1-1-0.dll',
   'C:\\Program '
   'Files\\Java\\jdk-11.0.1\\bin\\api-ms-win-core-datetime-l1-1-0.dll',
   'BINARY'),
  ('api-ms-win-core-util-l1-1-0.dll',
   'C:\\Program Files\\Java\\jdk-11.0.1\\bin\\api-ms-win-core-util-l1-1-0.dll',
   'BINARY'),
  ('api-ms-win-core-profile-l1-1-0.dll',
   'C:\\Program '
   'Files\\Java\\jdk-11.0.1\\bin\\api-ms-win-core-profile-l1-1-0.dll',
   'BINARY'),
  ('api-ms-win-core-processthreads-l1-1-1.dll',
   'C:\\Program '
   'Files\\Java\\jdk-11.0.1\\bin\\api-ms-win-core-processthreads-l1-1-1.dll',
   'BINARY'),
  ('api-ms-win-core-file-l1-1-0.dll',
   'C:\\Program Files\\Java\\jdk-11.0.1\\bin\\api-ms-win-core-file-l1-1-0.dll',
   'BINARY'),
  ('api-ms-win-core-memory-l1-1-0.dll',
   'C:\\Program '
   'Files\\Java\\jdk-11.0.1\\bin\\api-ms-win-core-memory-l1-1-0.dll',
   'BINARY'),
  ('api-ms-win-core-handle-l1-1-0.dll',
   'C:\\Program '
   'Files\\Java\\jdk-11.0.1\\bin\\api-ms-win-core-handle-l1-1-0.dll',
   'BINARY'),
  ('api-ms-win-core-sysinfo-l1-1-0.dll',
   'C:\\Program '
   'Files\\Java\\jdk-11.0.1\\bin\\api-ms-win-core-sysinfo-l1-1-0.dll',
   'BINARY'),
  ('api-ms-win-core-errorhandling-l1-1-0.dll',
   'C:\\Program '
   'Files\\Java\\jdk-11.0.1\\bin\\api-ms-win-core-errorhandling-l1-1-0.dll',
   'BINARY'),
  ('api-ms-win-core-interlocked-l1-1-0.dll',
   'C:\\Program '
   'Files\\Java\\jdk-11.0.1\\bin\\api-ms-win-core-interlocked-l1-1-0.dll',
   'BINARY'),
  ('api-ms-win-core-synch-l1-2-0.dll',
   'C:\\Program Files\\Java\\jdk-11.0.1\\bin\\api-ms-win-core-synch-l1-2-0.dll',
   'BINARY'),
  ('api-ms-win-core-localization-l1-2-0.dll',
   'C:\\Program '
   'Files\\Java\\jdk-11.0.1\\bin\\api-ms-win-core-localization-l1-2-0.dll',
   'BINARY'),
  ('api-ms-win-core-console-l1-1-0.dll',
   'C:\\Program '
   'Files\\Java\\jdk-11.0.1\\bin\\api-ms-win-core-console-l1-1-0.dll',
   'BINARY'),
  ('api-ms-win-core-namedpipe-l1-1-0.dll',
   'C:\\Program '
   'Files\\Java\\jdk-11.0.1\\bin\\api-ms-win-core-namedpipe-l1-1-0.dll',
   'BINARY'),
  ('api-ms-win-core-heap-l1-1-0.dll',
   'C:\\Program Files\\Java\\jdk-11.0.1\\bin\\api-ms-win-core-heap-l1-1-0.dll',
   'BINARY'),
  ('api-ms-win-core-debug-l1-1-0.dll',
   'C:\\Program Files\\Java\\jdk-11.0.1\\bin\\api-ms-win-core-debug-l1-1-0.dll',
   'BINARY'),
  ('api-ms-win-core-string-l1-1-0.dll',
   'C:\\Program '
   'Files\\Java\\jdk-11.0.1\\bin\\api-ms-win-core-string-l1-1-0.dll',
   'BINARY'),
  ('pywintypes36.dll',
   'c:\\python36\\lib\\site-packages\\pywin32_system32\\pywintypes36.dll',
   'BINARY'),
  ('pythoncom36.dll',
   'c:\\python36\\lib\\site-packages\\pywin32_system32\\pythoncom36.dll',
   'BINARY'),
  ('win32trace',
   'c:\\python36\\lib\\site-packages\\win32\\win32trace.pyd',
   'EXTENSION'),
  ('win32ui',
   'c:\\python36\\lib\\site-packages\\Pythonwin\\win32ui.pyd',
   'EXTENSION'),
  ('_win32sysloader',
   'c:\\python36\\lib\\site-packages\\win32\\_win32sysloader.pyd',
   'EXTENSION'),
  ('win32api',
   'c:\\python36\\lib\\site-packages\\win32\\win32api.pyd',
   'EXTENSION'),
  ('win32wnet',
   'c:\\python36\\lib\\site-packages\\win32\\win32wnet.pyd',
   'EXTENSION'),
  ('_ctypes', 'c:\\python36\\DLLs\\_ctypes.pyd', 'EXTENSION'),
  ('win32com.shell.shell',
   'c:\\python36\\lib\\site-packages\\win32comext\\shell\\shell.pyd',
   'EXTENSION'),
  ('_decimal', 'c:\\python36\\DLLs\\_decimal.pyd', 'EXTENSION'),
  ('_multiprocessing', 'c:\\python36\\DLLs\\_multiprocessing.pyd', 'EXTENSION'),
  ('_ssl', 'c:\\python36\\DLLs\\_ssl.pyd', 'EXTENSION'),
  ('unicodedata', 'c:\\python36\\DLLs\\unicodedata.pyd', 'EXTENSION'),
  ('pyexpat', 'c:\\python36\\DLLs\\pyexpat.pyd', 'EXTENSION'),
  ('_hashlib', 'c:\\python36\\DLLs\\_hashlib.pyd', 'EXTENSION'),
  ('_bz2', 'c:\\python36\\DLLs\\_bz2.pyd', 'EXTENSION'),
  ('_lzma', 'c:\\python36\\DLLs\\_lzma.pyd', 'EXTENSION'),
  ('_socket', 'c:\\python36\\DLLs\\_socket.pyd', 'EXTENSION'),
  ('select', 'c:\\python36\\DLLs\\select.pyd', 'EXTENSION'),
  ('numpy.core.multiarray',
   'c:\\python36\\lib\\site-packages\\numpy\\core\\multiarray.cp36-win_amd64.pyd',
   'EXTENSION'),
  ('numpy.core.umath',
   'c:\\python36\\lib\\site-packages\\numpy\\core\\umath.cp36-win_amd64.pyd',
   'EXTENSION'),
  ('win32evtlog',
   'c:\\python36\\lib\\site-packages\\win32\\win32evtlog.pyd',
   'EXTENSION'),
  ('scipy._lib._ccallback_c',
   'C:\\Users\\tamli\\AppData\\Roaming\\Python\\Python36\\site-packages\\scipy\\_lib\\_ccallback_c.cp36-win_amd64.pyd',
   'EXTENSION'),
  ('_elementtree', 'c:\\python36\\DLLs\\_elementtree.pyd', 'EXTENSION'),
  ('psutil._psutil_windows',
   'c:\\python36\\lib\\site-packages\\psutil\\_psutil_windows.cp36-win_amd64.pyd',
   'EXTENSION'),
  ('_cffi_backend',
   'c:\\python36\\lib\\site-packages\\_cffi_backend.cp36-win_amd64.pyd',
   'EXTENSION'),
  ('numpy.core.multiarray_tests',
   'c:\\python36\\lib\\site-packages\\numpy\\core\\multiarray_tests.cp36-win_amd64.pyd',
   'EXTENSION'),
  ('win32pdh',
   'c:\\python36\\lib\\site-packages\\win32\\win32pdh.pyd',
   'EXTENSION'),
  ('numpy.random.mtrand',
   'c:\\python36\\lib\\site-packages\\numpy\\random\\mtrand.cp36-win_amd64.pyd',
   'EXTENSION'),
  ('numpy.fft.fftpack_lite',
   'c:\\python36\\lib\\site-packages\\numpy\\fft\\fftpack_lite.cp36-win_amd64.pyd',
   'EXTENSION'),
  ('numpy.linalg._umath_linalg',
   'c:\\python36\\lib\\site-packages\\numpy\\linalg\\_umath_linalg.cp36-win_amd64.pyd',
   'EXTENSION'),
  ('numpy.linalg.lapack_lite',
   'c:\\python36\\lib\\site-packages\\numpy\\linalg\\lapack_lite.cp36-win_amd64.pyd',
   'EXTENSION'),
  ('PIL._imagingtk',
   'c:\\python36\\lib\\site-packages\\PIL\\_imagingtk.cp36-win_amd64.pyd',
   'EXTENSION'),
  ('PIL._webp',
   'c:\\python36\\lib\\site-packages\\PIL\\_webp.cp36-win_amd64.pyd',
   'EXTENSION'),
  ('PIL._imaging',
   'c:\\python36\\lib\\site-packages\\PIL\\_imaging.cp36-win_amd64.pyd',
   'EXTENSION'),
  ('cv2.cv2',
   'c:\\python36\\lib\\site-packages\\cv2\\cv2.cp36-win_amd64.pyd',
   'EXTENSION'),
  ('_asyncio', 'c:\\python36\\DLLs\\_asyncio.pyd', 'EXTENSION'),
  ('_overlapped', 'c:\\python36\\DLLs\\_overlapped.pyd', 'EXTENSION'),
  ('markupsafe._speedups',
   'C:\\Users\\tamli\\AppData\\Roaming\\Python\\Python36\\site-packages\\markupsafe\\_speedups.cp36-win_amd64.pyd',
   'EXTENSION'),
  ('api-ms-win-crt-utility-l1-1-0.dll',
   'C:\\Program '
   'Files\\Java\\jdk-11.0.1\\bin\\api-ms-win-crt-utility-l1-1-0.dll',
   'BINARY'),
  ('mfc140u.dll',
   'c:\\python36\\lib\\site-packages\\Pythonwin\\mfc140u.dll',
   'BINARY'),
  ('libopenblas.BNVRK7633HSX7YVO2TADGR4A5KEKXJAW.gfortran-win_amd64.dll',
   'c:\\python36\\lib\\site-packages\\numpy\\.libs\\libopenblas.bnvrk7633hsx7yvo2tadgr4a5kekxjaw.gfortran-win_amd64.dll',
   'BINARY'),
  ('api-ms-win-crt-multibyte-l1-1-0.dll',
   'C:\\Program '
   'Files\\Java\\jdk-11.0.1\\bin\\api-ms-win-crt-multibyte-l1-1-0.dll',
   'BINARY')],
 [],
 [],
 [('base_library.zip',
   'C:\\Users\\tamli\\Desktop\\Magshimim\\magshimim third '
   'year\\GalilMaaravi-801-SandCastle\\stream '
   'screen\\sound_over_python\\build\\dothestream\\base_library.zip',
   'DATA'),
  ('lib2to3\\Grammar3.6.1.candidate.1.pickle',
   'c:\\python36\\lib\\lib2to3\\Grammar3.6.1.candidate.1.pickle',
   'DATA'),
  ('lib2to3\\tests\\data\\README',
   'c:\\python36\\lib\\lib2to3\\tests\\data\\README',
   'DATA'),
  ('lib2to3\\Grammar3.6.1.final.0.pickle',
   'c:\\python36\\lib\\lib2to3\\Grammar3.6.1.final.0.pickle',
   'DATA'),
  ('lib2to3\\PatternGrammar3.6.1.candidate.1.pickle',
   'c:\\python36\\lib\\lib2to3\\PatternGrammar3.6.1.candidate.1.pickle',
   'DATA'),
  ('lib2to3\\Grammar.txt', 'c:\\python36\\lib\\lib2to3\\Grammar.txt', 'DATA'),
  ('lib2to3\\PatternGrammar3.6.1.final.0.pickle',
   'c:\\python36\\lib\\lib2to3\\PatternGrammar3.6.1.final.0.pickle',
   'DATA'),
  ('Include\\pyconfig.h', 'c:\\python36\\Include\\pyconfig.h', 'DATA'),
  ('lib2to3\\PatternGrammar.txt',
   'c:\\python36\\lib\\lib2to3\\PatternGrammar.txt',
   'DATA')],
 [])
