('C:\\Users\\tamli\\Desktop\\Magshimim\\magshimim third '
 'year\\GalilMaaravi-801-SandCastle\\stream '
 'screen\\sound_over_python\\dist\\dothestream.exe',
 True,
 False,
 False,
 None,
 None,
 False,
 False,
 '<?xml version="1.0" encoding="UTF-8" standalone="yes"?><assembly manifestVersion="1.0" xmlns="urn:schemas-microsoft-com:asm.v1"><assemblyIdentity name="dothestream" processorArchitecture="amd64" type="win32" version="1.0.0.0"/><dependency><dependentAssembly><assemblyIdentity language="*" name="Microsoft.Windows.Common-Controls" processorArchitecture="*" publicKeyToken="6595b64144ccf1df" type="win32" version="6.0.0.0"/><compatibility xmlns="urn:schemas-microsoft-com:compatibility.v1"/></dependentAssembly></dependency><compatibility xmlns="urn:schemas-microsoft-com:compatibility.v1"><application><supportedOS Id="{e2011457-1546-43c5-a5fe-008deee3d3f0}"/><supportedOS Id="{35138b9a-5d96-4fbd-8e2d-a2440225f93a}"/><supportedOS Id="{4a2f28e3-53b9-4441-ba9c-d69d4a4a6e38}"/><supportedOS Id="{1f676c76-80e1-4239-95bb-83d0f6d0da78}"/><supportedOS Id="{8e0f7a12-bfb3-4fe8-b9a5-48fd50a15a9a}"/></application></compatibility></assembly>',
 True,
 'dothestream.pkg',
 [('out00-PYZ.pyz',
   'C:\\Users\\tamli\\Desktop\\Magshimim\\magshimim third '
   'year\\GalilMaaravi-801-SandCastle\\stream '
   'screen\\sound_over_python\\build\\dothestream\\out00-PYZ.pyz',
   'PYZ'),
  ('struct', 'c:\\python36\\lib\\struct.pyo', 'PYMODULE'),
  ('pyimod01_os_path',
   'c:\\python36\\lib\\site-packages\\PyInstaller\\loader\\pyimod01_os_path.pyc',
   'PYMODULE'),
  ('pyimod02_archive',
   'c:\\python36\\lib\\site-packages\\PyInstaller\\loader\\pyimod02_archive.pyc',
   'PYMODULE'),
  ('pyimod03_importers',
   'c:\\python36\\lib\\site-packages\\PyInstaller\\loader\\pyimod03_importers.pyc',
   'PYMODULE'),
  ('pyiboot01_bootstrap',
   'c:\\python36\\lib\\site-packages\\PyInstaller\\loader\\pyiboot01_bootstrap.py',
   'PYSOURCE'),
  ('pyi_rth_multiprocessing',
   'c:\\python36\\lib\\site-packages\\PyInstaller\\loader\\rthooks\\pyi_rth_multiprocessing.py',
   'PYSOURCE'),
  ('pyi_rth_pkgres',
   'c:\\python36\\lib\\site-packages\\PyInstaller\\loader\\rthooks\\pyi_rth_pkgres.py',
   'PYSOURCE'),
  ('pyi_rth_win32comgenpy',
   'c:\\python36\\lib\\site-packages\\PyInstaller\\loader\\rthooks\\pyi_rth_win32comgenpy.py',
   'PYSOURCE'),
  ('dothestream',
   'C:\\Users\\tamli\\Desktop\\Magshimim\\magshimim third '
   'year\\GalilMaaravi-801-SandCastle\\stream '
   'screen\\sound_over_python\\dothestream.py',
   'PYSOURCE'),
  ('api-ms-win-crt-stdio-l1-1-0.dll',
   'C:\\Program Files\\Java\\jdk-11.0.1\\bin\\api-ms-win-crt-stdio-l1-1-0.dll',
   'BINARY'),
  ('api-ms-win-crt-runtime-l1-1-0.dll',
   'C:\\Program '
   'Files\\Java\\jdk-11.0.1\\bin\\api-ms-win-crt-runtime-l1-1-0.dll',
   'BINARY'),
  ('api-ms-win-crt-heap-l1-1-0.dll',
   'C:\\Program Files\\Java\\jdk-11.0.1\\bin\\api-ms-win-crt-heap-l1-1-0.dll',
   'BINARY'),
  ('api-ms-win-crt-locale-l1-1-0.dll',
   'C:\\Program Files\\Java\\jdk-11.0.1\\bin\\api-ms-win-crt-locale-l1-1-0.dll',
   'BINARY'),
  ('VCRUNTIME140.dll', 'c:\\python36\\VCRUNTIME140.dll', 'BINARY'),
  ('python36.dll', 'c:\\python36\\python36.dll', 'BINARY'),
  ('api-ms-win-crt-math-l1-1-0.dll',
   'C:\\Program Files\\Java\\jdk-11.0.1\\bin\\api-ms-win-crt-math-l1-1-0.dll',
   'BINARY'),
  ('ucrtbase.dll',
   'C:\\Program Files\\Java\\jdk-11.0.1\\bin\\ucrtbase.dll',
   'BINARY'),
  ('api-ms-win-crt-convert-l1-1-0.dll',
   'C:\\Program '
   'Files\\Java\\jdk-11.0.1\\bin\\api-ms-win-crt-convert-l1-1-0.dll',
   'BINARY'),
  ('api-ms-win-crt-string-l1-1-0.dll',
   'C:\\Program Files\\Java\\jdk-11.0.1\\bin\\api-ms-win-crt-string-l1-1-0.dll',
   'BINARY'),
  ('api-ms-win-crt-environment-l1-1-0.dll',
   'C:\\Program '
   'Files\\Java\\jdk-11.0.1\\bin\\api-ms-win-crt-environment-l1-1-0.dll',
   'BINARY'),
  ('api-ms-win-crt-filesystem-l1-1-0.dll',
   'C:\\Program '
   'Files\\Java\\jdk-11.0.1\\bin\\api-ms-win-crt-filesystem-l1-1-0.dll',
   'BINARY'),
  ('api-ms-win-crt-time-l1-1-0.dll',
   'C:\\Program Files\\Java\\jdk-11.0.1\\bin\\api-ms-win-crt-time-l1-1-0.dll',
   'BINARY'),
  ('api-ms-win-crt-process-l1-1-0.dll',
   'C:\\Program '
   'Files\\Java\\jdk-11.0.1\\bin\\api-ms-win-crt-process-l1-1-0.dll',
   'BINARY'),
  ('api-ms-win-crt-conio-l1-1-0.dll',
   'C:\\Program Files\\Java\\jdk-11.0.1\\bin\\api-ms-win-crt-conio-l1-1-0.dll',
   'BINARY'),
  ('api-ms-win-core-file-l1-2-0.dll',
   'C:\\Program Files\\Java\\jdk-11.0.1\\bin\\api-ms-win-core-file-l1-2-0.dll',
   'BINARY'),
  ('api-ms-win-core-timezone-l1-1-0.dll',
   'C:\\Program '
   'Files\\Java\\jdk-11.0.1\\bin\\api-ms-win-core-timezone-l1-1-0.dll',
   'BINARY'),
  ('api-ms-win-core-file-l2-1-0.dll',
   'C:\\Program Files\\Java\\jdk-11.0.1\\bin\\api-ms-win-core-file-l2-1-0.dll',
   'BINARY'),
  ('api-ms-win-core-synch-l1-1-0.dll',
   'C:\\Program Files\\Java\\jdk-11.0.1\\bin\\api-ms-win-core-synch-l1-1-0.dll',
   'BINARY'),
  ('api-ms-win-core-processenvironment-l1-1-0.dll',
   'C:\\Program '
   'Files\\Java\\jdk-11.0.1\\bin\\api-ms-win-core-processenvironment-l1-1-0.dll',
   'BINARY'),
  ('api-ms-win-core-libraryloader-l1-1-0.dll',
   'C:\\Program '
   'Files\\Java\\jdk-11.0.1\\bin\\api-ms-win-core-libraryloader-l1-1-0.dll',
   'BINARY'),
  ('api-ms-win-core-rtlsupport-l1-1-0.dll',
   'C:\\Program '
   'Files\\Java\\jdk-11.0.1\\bin\\api-ms-win-core-rtlsupport-l1-1-0.dll',
   'BINARY'),
  ('api-ms-win-core-processthreads-l1-1-0.dll',
   'C:\\Program '
   'Files\\Java\\jdk-11.0.1\\bin\\api-ms-win-core-processthreads-l1-1-0.dll',
   'BINARY'),
  ('api-ms-win-core-datetime-l1-1-0.dll',
   'C:\\Program '
   'Files\\Java\\jdk-11.0.1\\bin\\api-ms-win-core-datetime-l1-1-0.dll',
   'BINARY'),
  ('api-ms-win-core-util-l1-1-0.dll',
   'C:\\Program Files\\Java\\jdk-11.0.1\\bin\\api-ms-win-core-util-l1-1-0.dll',
   'BINARY'),
  ('api-ms-win-core-profile-l1-1-0.dll',
   'C:\\Program '
   'Files\\Java\\jdk-11.0.1\\bin\\api-ms-win-core-profile-l1-1-0.dll',
   'BINARY'),
  ('api-ms-win-core-processthreads-l1-1-1.dll',
   'C:\\Program '
   'Files\\Java\\jdk-11.0.1\\bin\\api-ms-win-core-processthreads-l1-1-1.dll',
   'BINARY'),
  ('api-ms-win-core-file-l1-1-0.dll',
   'C:\\Program Files\\Java\\jdk-11.0.1\\bin\\api-ms-win-core-file-l1-1-0.dll',
   'BINARY'),
  ('api-ms-win-core-memory-l1-1-0.dll',
   'C:\\Program '
   'Files\\Java\\jdk-11.0.1\\bin\\api-ms-win-core-memory-l1-1-0.dll',
   'BINARY'),
  ('api-ms-win-core-handle-l1-1-0.dll',
   'C:\\Program '
   'Files\\Java\\jdk-11.0.1\\bin\\api-ms-win-core-handle-l1-1-0.dll',
   'BINARY'),
  ('api-ms-win-core-sysinfo-l1-1-0.dll',
   'C:\\Program '
   'Files\\Java\\jdk-11.0.1\\bin\\api-ms-win-core-sysinfo-l1-1-0.dll',
   'BINARY'),
  ('api-ms-win-core-errorhandling-l1-1-0.dll',
   'C:\\Program '
   'Files\\Java\\jdk-11.0.1\\bin\\api-ms-win-core-errorhandling-l1-1-0.dll',
   'BINARY'),
  ('api-ms-win-core-interlocked-l1-1-0.dll',
   'C:\\Program '
   'Files\\Java\\jdk-11.0.1\\bin\\api-ms-win-core-interlocked-l1-1-0.dll',
   'BINARY'),
  ('api-ms-win-core-synch-l1-2-0.dll',
   'C:\\Program Files\\Java\\jdk-11.0.1\\bin\\api-ms-win-core-synch-l1-2-0.dll',
   'BINARY'),
  ('api-ms-win-core-localization-l1-2-0.dll',
   'C:\\Program '
   'Files\\Java\\jdk-11.0.1\\bin\\api-ms-win-core-localization-l1-2-0.dll',
   'BINARY'),
  ('api-ms-win-core-console-l1-1-0.dll',
   'C:\\Program '
   'Files\\Java\\jdk-11.0.1\\bin\\api-ms-win-core-console-l1-1-0.dll',
   'BINARY'),
  ('api-ms-win-core-namedpipe-l1-1-0.dll',
   'C:\\Program '
   'Files\\Java\\jdk-11.0.1\\bin\\api-ms-win-core-namedpipe-l1-1-0.dll',
   'BINARY'),
  ('api-ms-win-core-heap-l1-1-0.dll',
   'C:\\Program Files\\Java\\jdk-11.0.1\\bin\\api-ms-win-core-heap-l1-1-0.dll',
   'BINARY'),
  ('api-ms-win-core-debug-l1-1-0.dll',
   'C:\\Program Files\\Java\\jdk-11.0.1\\bin\\api-ms-win-core-debug-l1-1-0.dll',
   'BINARY'),
  ('api-ms-win-core-string-l1-1-0.dll',
   'C:\\Program '
   'Files\\Java\\jdk-11.0.1\\bin\\api-ms-win-core-string-l1-1-0.dll',
   'BINARY'),
  ('pywintypes36.dll',
   'c:\\python36\\lib\\site-packages\\pywin32_system32\\pywintypes36.dll',
   'BINARY'),
  ('pythoncom36.dll',
   'c:\\python36\\lib\\site-packages\\pywin32_system32\\pythoncom36.dll',
   'BINARY'),
  ('win32trace',
   'c:\\python36\\lib\\site-packages\\win32\\win32trace.pyd',
   'EXTENSION'),
  ('win32ui',
   'c:\\python36\\lib\\site-packages\\Pythonwin\\win32ui.pyd',
   'EXTENSION'),
  ('_win32sysloader',
   'c:\\python36\\lib\\site-packages\\win32\\_win32sysloader.pyd',
   'EXTENSION'),
  ('win32api',
   'c:\\python36\\lib\\site-packages\\win32\\win32api.pyd',
   'EXTENSION'),
  ('win32wnet',
   'c:\\python36\\lib\\site-packages\\win32\\win32wnet.pyd',
   'EXTENSION'),
  ('_ctypes', 'c:\\python36\\DLLs\\_ctypes.pyd', 'EXTENSION'),
  ('win32com.shell.shell',
   'c:\\python36\\lib\\site-packages\\win32comext\\shell\\shell.pyd',
   'EXTENSION'),
  ('_decimal', 'c:\\python36\\DLLs\\_decimal.pyd', 'EXTENSION'),
  ('_multiprocessing', 'c:\\python36\\DLLs\\_multiprocessing.pyd', 'EXTENSION'),
  ('_ssl', 'c:\\python36\\DLLs\\_ssl.pyd', 'EXTENSION'),
  ('unicodedata', 'c:\\python36\\DLLs\\unicodedata.pyd', 'EXTENSION'),
  ('pyexpat', 'c:\\python36\\DLLs\\pyexpat.pyd', 'EXTENSION'),
  ('_hashlib', 'c:\\python36\\DLLs\\_hashlib.pyd', 'EXTENSION'),
  ('_bz2', 'c:\\python36\\DLLs\\_bz2.pyd', 'EXTENSION'),
  ('_lzma', 'c:\\python36\\DLLs\\_lzma.pyd', 'EXTENSION'),
  ('_socket', 'c:\\python36\\DLLs\\_socket.pyd', 'EXTENSION'),
  ('select', 'c:\\python36\\DLLs\\select.pyd', 'EXTENSION'),
  ('numpy.core.multiarray',
   'c:\\python36\\lib\\site-packages\\numpy\\core\\multiarray.cp36-win_amd64.pyd',
   'EXTENSION'),
  ('numpy.core.umath',
   'c:\\python36\\lib\\site-packages\\numpy\\core\\umath.cp36-win_amd64.pyd',
   'EXTENSION'),
  ('win32evtlog',
   'c:\\python36\\lib\\site-packages\\win32\\win32evtlog.pyd',
   'EXTENSION'),
  ('scipy._lib._ccallback_c',
   'C:\\Users\\tamli\\AppData\\Roaming\\Python\\Python36\\site-packages\\scipy\\_lib\\_ccallback_c.cp36-win_amd64.pyd',
   'EXTENSION'),
  ('_elementtree', 'c:\\python36\\DLLs\\_elementtree.pyd', 'EXTENSION'),
  ('psutil._psutil_windows',
   'c:\\python36\\lib\\site-packages\\psutil\\_psutil_windows.cp36-win_amd64.pyd',
   'EXTENSION'),
  ('_cffi_backend',
   'c:\\python36\\lib\\site-packages\\_cffi_backend.cp36-win_amd64.pyd',
   'EXTENSION'),
  ('numpy.core.multiarray_tests',
   'c:\\python36\\lib\\site-packages\\numpy\\core\\multiarray_tests.cp36-win_amd64.pyd',
   'EXTENSION'),
  ('win32pdh',
   'c:\\python36\\lib\\site-packages\\win32\\win32pdh.pyd',
   'EXTENSION'),
  ('numpy.random.mtrand',
   'c:\\python36\\lib\\site-packages\\numpy\\random\\mtrand.cp36-win_amd64.pyd',
   'EXTENSION'),
  ('numpy.fft.fftpack_lite',
   'c:\\python36\\lib\\site-packages\\numpy\\fft\\fftpack_lite.cp36-win_amd64.pyd',
   'EXTENSION'),
  ('numpy.linalg._umath_linalg',
   'c:\\python36\\lib\\site-packages\\numpy\\linalg\\_umath_linalg.cp36-win_amd64.pyd',
   'EXTENSION'),
  ('numpy.linalg.lapack_lite',
   'c:\\python36\\lib\\site-packages\\numpy\\linalg\\lapack_lite.cp36-win_amd64.pyd',
   'EXTENSION'),
  ('PIL._imagingtk',
   'c:\\python36\\lib\\site-packages\\PIL\\_imagingtk.cp36-win_amd64.pyd',
   'EXTENSION'),
  ('PIL._webp',
   'c:\\python36\\lib\\site-packages\\PIL\\_webp.cp36-win_amd64.pyd',
   'EXTENSION'),
  ('PIL._imaging',
   'c:\\python36\\lib\\site-packages\\PIL\\_imaging.cp36-win_amd64.pyd',
   'EXTENSION'),
  ('cv2.cv2',
   'c:\\python36\\lib\\site-packages\\cv2\\cv2.cp36-win_amd64.pyd',
   'EXTENSION'),
  ('_asyncio', 'c:\\python36\\DLLs\\_asyncio.pyd', 'EXTENSION'),
  ('_overlapped', 'c:\\python36\\DLLs\\_overlapped.pyd', 'EXTENSION'),
  ('markupsafe._speedups',
   'C:\\Users\\tamli\\AppData\\Roaming\\Python\\Python36\\site-packages\\markupsafe\\_speedups.cp36-win_amd64.pyd',
   'EXTENSION'),
  ('api-ms-win-crt-utility-l1-1-0.dll',
   'C:\\Program '
   'Files\\Java\\jdk-11.0.1\\bin\\api-ms-win-crt-utility-l1-1-0.dll',
   'BINARY'),
  ('mfc140u.dll',
   'c:\\python36\\lib\\site-packages\\Pythonwin\\mfc140u.dll',
   'BINARY'),
  ('libopenblas.BNVRK7633HSX7YVO2TADGR4A5KEKXJAW.gfortran-win_amd64.dll',
   'c:\\python36\\lib\\site-packages\\numpy\\.libs\\libopenblas.bnvrk7633hsx7yvo2tadgr4a5kekxjaw.gfortran-win_amd64.dll',
   'BINARY'),
  ('api-ms-win-crt-multibyte-l1-1-0.dll',
   'C:\\Program '
   'Files\\Java\\jdk-11.0.1\\bin\\api-ms-win-crt-multibyte-l1-1-0.dll',
   'BINARY'),
  ('base_library.zip',
   'C:\\Users\\tamli\\Desktop\\Magshimim\\magshimim third '
   'year\\GalilMaaravi-801-SandCastle\\stream '
   'screen\\sound_over_python\\build\\dothestream\\base_library.zip',
   'DATA'),
  ('lib2to3\\Grammar3.6.1.candidate.1.pickle',
   'c:\\python36\\lib\\lib2to3\\Grammar3.6.1.candidate.1.pickle',
   'DATA'),
  ('lib2to3\\tests\\data\\README',
   'c:\\python36\\lib\\lib2to3\\tests\\data\\README',
   'DATA'),
  ('lib2to3\\Grammar3.6.1.final.0.pickle',
   'c:\\python36\\lib\\lib2to3\\Grammar3.6.1.final.0.pickle',
   'DATA'),
  ('lib2to3\\PatternGrammar3.6.1.candidate.1.pickle',
   'c:\\python36\\lib\\lib2to3\\PatternGrammar3.6.1.candidate.1.pickle',
   'DATA'),
  ('lib2to3\\Grammar.txt', 'c:\\python36\\lib\\lib2to3\\Grammar.txt', 'DATA'),
  ('lib2to3\\PatternGrammar3.6.1.final.0.pickle',
   'c:\\python36\\lib\\lib2to3\\PatternGrammar3.6.1.final.0.pickle',
   'DATA'),
  ('Include\\pyconfig.h', 'c:\\python36\\Include\\pyconfig.h', 'DATA'),
  ('lib2to3\\PatternGrammar.txt',
   'c:\\python36\\lib\\lib2to3\\PatternGrammar.txt',
   'DATA'),
  ('dothestream.exe.manifest',
   'C:\\Users\\tamli\\Desktop\\Magshimim\\magshimim third '
   'year\\GalilMaaravi-801-SandCastle\\stream '
   'screen\\sound_over_python\\build\\dothestream\\dothestream.exe.manifest',
   'BINARY'),
  ('pyi-windows-manifest-filename dothestream.exe.manifest', '', 'OPTION')],
 [],
 False,
 False,
 1552312065,
 [('run.exe',
   'c:\\python36\\lib\\site-packages\\PyInstaller\\bootloader\\Windows-64bit\\run.exe',
   'EXECUTABLE')])
