('C:\\Users\\tamli\\Desktop\\Magshimim\\magshimim third '
 'year\\GalilMaaravi-801-SandCastle\\SandCastleGui .Net\\SandCastleGui '
 '.Net\\bin\\Debug\\build\\key_exchanger\\out00-PKG.pkg',
 {'BINARY': 1,
  'DATA': 1,
  'EXECUTABLE': 1,
  'EXTENSION': 1,
  'PYMODULE': 1,
  'PYSOURCE': 1,
  'PYZ': 0},
 [('out00-PYZ.pyz',
   'C:\\Users\\tamli\\Desktop\\Magshimim\\magshimim third '
   'year\\GalilMaaravi-801-SandCastle\\SandCastleGui .Net\\SandCastleGui '
   '.Net\\bin\\Debug\\build\\key_exchanger\\out00-PYZ.pyz',
   'PYZ'),
  ('struct', 'c:\\python36\\lib\\struct.pyo', 'PYMODULE'),
  ('pyimod01_os_path',
   'c:\\python36\\lib\\site-packages\\PyInstaller\\loader\\pyimod01_os_path.pyc',
   'PYMODULE'),
  ('pyimod02_archive',
   'c:\\python36\\lib\\site-packages\\PyInstaller\\loader\\pyimod02_archive.pyc',
   'PYMODULE'),
  ('pyimod03_importers',
   'c:\\python36\\lib\\site-packages\\PyInstaller\\loader\\pyimod03_importers.pyc',
   'PYMODULE'),
  ('pyiboot01_bootstrap',
   'c:\\python36\\lib\\site-packages\\PyInstaller\\loader\\pyiboot01_bootstrap.py',
   'PYSOURCE'),
  ('key_exchanger',
   'C:\\Users\\tamli\\Desktop\\Magshimim\\magshimim third '
   'year\\GalilMaaravi-801-SandCastle\\SandCastleGui .Net\\SandCastleGui '
   '.Net\\bin\\Debug\\key_exchanger.py',
   'PYSOURCE'),
  ('api-ms-win-crt-runtime-l1-1-0.dll',
   'C:\\Program '
   'Files\\Java\\jdk-11.0.1\\bin\\api-ms-win-crt-runtime-l1-1-0.dll',
   'BINARY'),
  ('python36.dll', 'c:\\python36\\python36.dll', 'BINARY'),
  ('api-ms-win-crt-stdio-l1-1-0.dll',
   'C:\\Program Files\\Java\\jdk-11.0.1\\bin\\api-ms-win-crt-stdio-l1-1-0.dll',
   'BINARY'),
  ('api-ms-win-crt-math-l1-1-0.dll',
   'C:\\Program Files\\Java\\jdk-11.0.1\\bin\\api-ms-win-crt-math-l1-1-0.dll',
   'BINARY'),
  ('api-ms-win-crt-locale-l1-1-0.dll',
   'C:\\Program Files\\Java\\jdk-11.0.1\\bin\\api-ms-win-crt-locale-l1-1-0.dll',
   'BINARY'),
  ('VCRUNTIME140.dll', 'c:\\python36\\VCRUNTIME140.dll', 'BINARY'),
  ('api-ms-win-crt-heap-l1-1-0.dll',
   'C:\\Program Files\\Java\\jdk-11.0.1\\bin\\api-ms-win-crt-heap-l1-1-0.dll',
   'BINARY'),
  ('ucrtbase.dll',
   'C:\\Program Files\\Java\\jdk-11.0.1\\bin\\ucrtbase.dll',
   'BINARY'),
  ('api-ms-win-crt-environment-l1-1-0.dll',
   'C:\\Program '
   'Files\\Java\\jdk-11.0.1\\bin\\api-ms-win-crt-environment-l1-1-0.dll',
   'BINARY'),
  ('api-ms-win-crt-conio-l1-1-0.dll',
   'C:\\Program Files\\Java\\jdk-11.0.1\\bin\\api-ms-win-crt-conio-l1-1-0.dll',
   'BINARY'),
  ('api-ms-win-crt-filesystem-l1-1-0.dll',
   'C:\\Program '
   'Files\\Java\\jdk-11.0.1\\bin\\api-ms-win-crt-filesystem-l1-1-0.dll',
   'BINARY'),
  ('api-ms-win-crt-time-l1-1-0.dll',
   'C:\\Program Files\\Java\\jdk-11.0.1\\bin\\api-ms-win-crt-time-l1-1-0.dll',
   'BINARY'),
  ('api-ms-win-crt-process-l1-1-0.dll',
   'C:\\Program '
   'Files\\Java\\jdk-11.0.1\\bin\\api-ms-win-crt-process-l1-1-0.dll',
   'BINARY'),
  ('api-ms-win-crt-string-l1-1-0.dll',
   'C:\\Program Files\\Java\\jdk-11.0.1\\bin\\api-ms-win-crt-string-l1-1-0.dll',
   'BINARY'),
  ('api-ms-win-crt-convert-l1-1-0.dll',
   'C:\\Program '
   'Files\\Java\\jdk-11.0.1\\bin\\api-ms-win-crt-convert-l1-1-0.dll',
   'BINARY'),
  ('api-ms-win-core-synch-l1-1-0.dll',
   'C:\\Program Files\\Java\\jdk-11.0.1\\bin\\api-ms-win-core-synch-l1-1-0.dll',
   'BINARY'),
  ('api-ms-win-core-processenvironment-l1-1-0.dll',
   'C:\\Program '
   'Files\\Java\\jdk-11.0.1\\bin\\api-ms-win-core-processenvironment-l1-1-0.dll',
   'BINARY'),
  ('api-ms-win-core-rtlsupport-l1-1-0.dll',
   'C:\\Program '
   'Files\\Java\\jdk-11.0.1\\bin\\api-ms-win-core-rtlsupport-l1-1-0.dll',
   'BINARY'),
  ('api-ms-win-core-namedpipe-l1-1-0.dll',
   'C:\\Program '
   'Files\\Java\\jdk-11.0.1\\bin\\api-ms-win-core-namedpipe-l1-1-0.dll',
   'BINARY'),
  ('api-ms-win-core-synch-l1-2-0.dll',
   'C:\\Program Files\\Java\\jdk-11.0.1\\bin\\api-ms-win-core-synch-l1-2-0.dll',
   'BINARY'),
  ('api-ms-win-core-file-l2-1-0.dll',
   'C:\\Program Files\\Java\\jdk-11.0.1\\bin\\api-ms-win-core-file-l2-1-0.dll',
   'BINARY'),
  ('api-ms-win-core-processthreads-l1-1-0.dll',
   'C:\\Program '
   'Files\\Java\\jdk-11.0.1\\bin\\api-ms-win-core-processthreads-l1-1-0.dll',
   'BINARY'),
  ('api-ms-win-core-datetime-l1-1-0.dll',
   'C:\\Program '
   'Files\\Java\\jdk-11.0.1\\bin\\api-ms-win-core-datetime-l1-1-0.dll',
   'BINARY'),
  ('api-ms-win-core-libraryloader-l1-1-0.dll',
   'C:\\Program '
   'Files\\Java\\jdk-11.0.1\\bin\\api-ms-win-core-libraryloader-l1-1-0.dll',
   'BINARY'),
  ('api-ms-win-core-console-l1-1-0.dll',
   'C:\\Program '
   'Files\\Java\\jdk-11.0.1\\bin\\api-ms-win-core-console-l1-1-0.dll',
   'BINARY'),
  ('api-ms-win-core-util-l1-1-0.dll',
   'C:\\Program Files\\Java\\jdk-11.0.1\\bin\\api-ms-win-core-util-l1-1-0.dll',
   'BINARY'),
  ('api-ms-win-core-interlocked-l1-1-0.dll',
   'C:\\Program '
   'Files\\Java\\jdk-11.0.1\\bin\\api-ms-win-core-interlocked-l1-1-0.dll',
   'BINARY'),
  ('api-ms-win-core-handle-l1-1-0.dll',
   'C:\\Program '
   'Files\\Java\\jdk-11.0.1\\bin\\api-ms-win-core-handle-l1-1-0.dll',
   'BINARY'),
  ('api-ms-win-core-debug-l1-1-0.dll',
   'C:\\Program Files\\Java\\jdk-11.0.1\\bin\\api-ms-win-core-debug-l1-1-0.dll',
   'BINARY'),
  ('api-ms-win-core-profile-l1-1-0.dll',
   'C:\\Program '
   'Files\\Java\\jdk-11.0.1\\bin\\api-ms-win-core-profile-l1-1-0.dll',
   'BINARY'),
  ('api-ms-win-core-errorhandling-l1-1-0.dll',
   'C:\\Program '
   'Files\\Java\\jdk-11.0.1\\bin\\api-ms-win-core-errorhandling-l1-1-0.dll',
   'BINARY'),
  ('api-ms-win-core-localization-l1-2-0.dll',
   'C:\\Program '
   'Files\\Java\\jdk-11.0.1\\bin\\api-ms-win-core-localization-l1-2-0.dll',
   'BINARY'),
  ('api-ms-win-core-timezone-l1-1-0.dll',
   'C:\\Program '
   'Files\\Java\\jdk-11.0.1\\bin\\api-ms-win-core-timezone-l1-1-0.dll',
   'BINARY'),
  ('api-ms-win-core-string-l1-1-0.dll',
   'C:\\Program '
   'Files\\Java\\jdk-11.0.1\\bin\\api-ms-win-core-string-l1-1-0.dll',
   'BINARY'),
  ('api-ms-win-core-file-l1-1-0.dll',
   'C:\\Program Files\\Java\\jdk-11.0.1\\bin\\api-ms-win-core-file-l1-1-0.dll',
   'BINARY'),
  ('api-ms-win-core-file-l1-2-0.dll',
   'C:\\Program Files\\Java\\jdk-11.0.1\\bin\\api-ms-win-core-file-l1-2-0.dll',
   'BINARY'),
  ('api-ms-win-core-processthreads-l1-1-1.dll',
   'C:\\Program '
   'Files\\Java\\jdk-11.0.1\\bin\\api-ms-win-core-processthreads-l1-1-1.dll',
   'BINARY'),
  ('api-ms-win-core-heap-l1-1-0.dll',
   'C:\\Program Files\\Java\\jdk-11.0.1\\bin\\api-ms-win-core-heap-l1-1-0.dll',
   'BINARY'),
  ('api-ms-win-core-memory-l1-1-0.dll',
   'C:\\Program '
   'Files\\Java\\jdk-11.0.1\\bin\\api-ms-win-core-memory-l1-1-0.dll',
   'BINARY'),
  ('api-ms-win-core-sysinfo-l1-1-0.dll',
   'C:\\Program '
   'Files\\Java\\jdk-11.0.1\\bin\\api-ms-win-core-sysinfo-l1-1-0.dll',
   'BINARY'),
  ('_ssl', 'c:\\python36\\DLLs\\_ssl.pyd', 'EXTENSION'),
  ('unicodedata', 'c:\\python36\\DLLs\\unicodedata.pyd', 'EXTENSION'),
  ('pyexpat', 'c:\\python36\\DLLs\\pyexpat.pyd', 'EXTENSION'),
  ('_hashlib', 'c:\\python36\\DLLs\\_hashlib.pyd', 'EXTENSION'),
  ('select', 'c:\\python36\\DLLs\\select.pyd', 'EXTENSION'),
  ('_bz2', 'c:\\python36\\DLLs\\_bz2.pyd', 'EXTENSION'),
  ('_lzma', 'c:\\python36\\DLLs\\_lzma.pyd', 'EXTENSION'),
  ('_socket', 'c:\\python36\\DLLs\\_socket.pyd', 'EXTENSION'),
  ('api-ms-win-crt-utility-l1-1-0.dll',
   'C:\\Program '
   'Files\\Java\\jdk-11.0.1\\bin\\api-ms-win-crt-utility-l1-1-0.dll',
   'BINARY'),
  ('base_library.zip',
   'C:\\Users\\tamli\\Desktop\\Magshimim\\magshimim third '
   'year\\GalilMaaravi-801-SandCastle\\SandCastleGui .Net\\SandCastleGui '
   '.Net\\bin\\Debug\\build\\key_exchanger\\base_library.zip',
   'DATA'),
  ('key_exchanger.exe.manifest',
   'C:\\Users\\tamli\\Desktop\\Magshimim\\magshimim third '
   'year\\GalilMaaravi-801-SandCastle\\SandCastleGui .Net\\SandCastleGui '
   '.Net\\bin\\Debug\\build\\key_exchanger\\key_exchanger.exe.manifest',
   'BINARY'),
  ('pyi-windows-manifest-filename key_exchanger.exe.manifest', '', 'OPTION')],
 False,
 False,
 False)
