^C:\USERS\TAMLI\DESKTOP\MAGSHIMIM\MAGSHIMIM THIRD YEAR\GALILMAARAVI-801-SANDCASTLE\GALILMAARAVI-801-SANDCASTLE\CHANGESYSTEMTIME\CHANGESYSTEMTIME\DEBUG\SOURCE.OBJ
C:\USERS\TAMLI\DESKTOP\MAGSHIMIM\MAGSHIMIM THIRD YEAR\GALILMAARAVI-801-SANDCASTLE\GALILMAARAVI-801-SANDCASTLE\CHANGESYSTEMTIME\DEBUG\CHANGESYSTEMTIME.EXE
C:\USERS\TAMLI\DESKTOP\MAGSHIMIM\MAGSHIMIM THIRD YEAR\GALILMAARAVI-801-SANDCASTLE\GALILMAARAVI-801-SANDCASTLE\CHANGESYSTEMTIME\DEBUG\CHANGESYSTEMTIME.ILK
C:\USERS\TAMLI\DESKTOP\MAGSHIMIM\MAGSHIMIM THIRD YEAR\GALILMAARAVI-801-SANDCASTLE\GALILMAARAVI-801-SANDCASTLE\CHANGESYSTEMTIME\DEBUG\CHANGESYSTEMTIME.PDB
