(['C:\\Users\\tamli\\Desktop\\Magshimim\\magshimim third '
  'year\\GalilMaaravi-801-SandCastle\\VirusTotal\\virustotal.py'],
 ['C:\\Users\\tamli\\Desktop\\Magshimim\\magshimim third '
  'year\\GalilMaaravi-801-SandCastle\\VirusTotal',
  'C:\\Users\\tamli\\Desktop\\Magshimim\\magshimim third '
  'year\\GalilMaaravi-801-SandCastle\\VirusTotal'],
 ['codecs'],
 [],
 [],
 [],
 False,
 False,
 '3.6.1 (v3.6.1:69c0db5, Mar 21 2017, 18:41:36) [MSC v.1900 64 bit (AMD64)]',
 [('virustotal',
   'C:\\Users\\tamli\\Desktop\\Magshimim\\magshimim third '
   'year\\GalilMaaravi-801-SandCastle\\VirusTotal\\virustotal.py',
   'PYSOURCE')],
 [('ntpath', 'c:\\python36\\lib\\ntpath.py', 'PYMODULE'),
  ('_strptime', 'c:\\python36\\lib\\_strptime.py', 'PYMODULE'),
  ('datetime', 'c:\\python36\\lib\\datetime.py', 'PYMODULE'),
  ('stringprep', 'c:\\python36\\lib\\stringprep.py', 'PYMODULE'),
  ('__future__', 'c:\\python36\\lib\\__future__.py', 'PYMODULE'),
  ('argparse', 'c:\\python36\\lib\\argparse.py', 'PYMODULE'),
  ('difflib', 'c:\\python36\\lib\\difflib.py', 'PYMODULE'),
  ('ast', 'c:\\python36\\lib\\ast.py', 'PYMODULE'),
  ('inspect', 'c:\\python36\\lib\\inspect.py', 'PYMODULE'),
  ('os', 'c:\\python36\\lib\\os.py', 'PYMODULE'),
  ('cmd', 'c:\\python36\\lib\\cmd.py', 'PYMODULE'),
  ('bdb', 'c:\\python36\\lib\\bdb.py', 'PYMODULE'),
  ('opcode', 'c:\\python36\\lib\\opcode.py', 'PYMODULE'),
  ('dis', 'c:\\python36\\lib\\dis.py', 'PYMODULE'),
  ('codeop', 'c:\\python36\\lib\\codeop.py', 'PYMODULE'),
  ('code', 'c:\\python36\\lib\\code.py', 'PYMODULE'),
  ('glob', 'c:\\python36\\lib\\glob.py', 'PYMODULE'),
  ('shlex', 'c:\\python36\\lib\\shlex.py', 'PYMODULE'),
  ('importlib._bootstrap',
   'c:\\python36\\lib\\importlib\\_bootstrap.py',
   'PYMODULE'),
  ('importlib._bootstrap_external',
   'c:\\python36\\lib\\importlib\\_bootstrap_external.py',
   'PYMODULE'),
  ('importlib.machinery',
   'c:\\python36\\lib\\importlib\\machinery.py',
   'PYMODULE'),
  ('importlib.util', 'c:\\python36\\lib\\importlib\\util.py', 'PYMODULE'),
  ('importlib.abc', 'c:\\python36\\lib\\importlib\\abc.py', 'PYMODULE'),
  ('importlib', 'c:\\python36\\lib\\importlib\\__init__.py', 'PYMODULE'),
  ('pkgutil', 'c:\\python36\\lib\\pkgutil.py', 'PYMODULE'),
  ('xml', 'c:\\python36\\lib\\xml\\__init__.py', 'PYMODULE'),
  ('xml.sax.expatreader',
   'c:\\python36\\lib\\xml\\sax\\expatreader.py',
   'PYMODULE'),
  ('xml.sax.saxutils', 'c:\\python36\\lib\\xml\\sax\\saxutils.py', 'PYMODULE'),
  ('urllib.request', 'c:\\python36\\lib\\urllib\\request.py', 'PYMODULE'),
  ('getpass', 'c:\\python36\\lib\\getpass.py', 'PYMODULE'),
  ('nturl2path', 'c:\\python36\\lib\\nturl2path.py', 'PYMODULE'),
  ('ftplib', 'c:\\python36\\lib\\ftplib.py', 'PYMODULE'),
  ('netrc', 'c:\\python36\\lib\\netrc.py', 'PYMODULE'),
  ('http.cookiejar', 'c:\\python36\\lib\\http\\cookiejar.py', 'PYMODULE'),
  ('urllib.response', 'c:\\python36\\lib\\urllib\\response.py', 'PYMODULE'),
  ('urllib.error', 'c:\\python36\\lib\\urllib\\error.py', 'PYMODULE'),
  ('xml.sax', 'c:\\python36\\lib\\xml\\sax\\__init__.py', 'PYMODULE'),
  ('xml.sax.handler', 'c:\\python36\\lib\\xml\\sax\\handler.py', 'PYMODULE'),
  ('xml.sax._exceptions',
   'c:\\python36\\lib\\xml\\sax\\_exceptions.py',
   'PYMODULE'),
  ('xml.sax.xmlreader',
   'c:\\python36\\lib\\xml\\sax\\xmlreader.py',
   'PYMODULE'),
  ('xml.parsers', 'c:\\python36\\lib\\xml\\parsers\\__init__.py', 'PYMODULE'),
  ('xml.parsers.expat',
   'c:\\python36\\lib\\xml\\parsers\\expat.py',
   'PYMODULE'),
  ('plistlib', 'c:\\python36\\lib\\plistlib.py', 'PYMODULE'),
  ('platform', 'c:\\python36\\lib\\platform.py', 'PYMODULE'),
  ('token', 'c:\\python36\\lib\\token.py', 'PYMODULE'),
  ('tokenize', 'c:\\python36\\lib\\tokenize.py', 'PYMODULE'),
  ('urllib.parse', 'c:\\python36\\lib\\urllib\\parse.py', 'PYMODULE'),
  ('tempfile', 'c:\\python36\\lib\\tempfile.py', 'PYMODULE'),
  ('subprocess', 'c:\\python36\\lib\\subprocess.py', 'PYMODULE'),
  ('tty', 'c:\\python36\\lib\\tty.py', 'PYMODULE'),
  ('pydoc_data', 'c:\\python36\\lib\\pydoc_data\\__init__.py', 'PYMODULE'),
  ('pydoc_data.topics', 'c:\\python36\\lib\\pydoc_data\\topics.py', 'PYMODULE'),
  ('textwrap', 'c:\\python36\\lib\\textwrap.py', 'PYMODULE'),
  ('html.entities', 'c:\\python36\\lib\\html\\entities.py', 'PYMODULE'),
  ('html', 'c:\\python36\\lib\\html\\__init__.py', 'PYMODULE'),
  ('ipaddress', 'c:\\python36\\lib\\ipaddress.py', 'PYMODULE'),
  ('ssl', 'c:\\python36\\lib\\ssl.py', 'PYMODULE'),
  ('http.client', 'c:\\python36\\lib\\http\\client.py', 'PYMODULE'),
  ('mimetypes', 'c:\\python36\\lib\\mimetypes.py', 'PYMODULE'),
  ('socketserver', 'c:\\python36\\lib\\socketserver.py', 'PYMODULE'),
  ('http', 'c:\\python36\\lib\\http\\__init__.py', 'PYMODULE'),
  ('http.server', 'c:\\python36\\lib\\http\\server.py', 'PYMODULE'),
  ('optparse', 'c:\\python36\\lib\\optparse.py', 'PYMODULE'),
  ('uu', 'c:\\python36\\lib\\uu.py', 'PYMODULE'),
  ('quopri', 'c:\\python36\\lib\\quopri.py', 'PYMODULE'),
  ('email.feedparser', 'c:\\python36\\lib\\email\\feedparser.py', 'PYMODULE'),
  ('email.parser', 'c:\\python36\\lib\\email\\parser.py', 'PYMODULE'),
  ('email', 'c:\\python36\\lib\\email\\__init__.py', 'PYMODULE'),
  ('calendar', 'c:\\python36\\lib\\calendar.py', 'PYMODULE'),
  ('email._parseaddr', 'c:\\python36\\lib\\email\\_parseaddr.py', 'PYMODULE'),
  ('email.utils', 'c:\\python36\\lib\\email\\utils.py', 'PYMODULE'),
  ('email.errors', 'c:\\python36\\lib\\email\\errors.py', 'PYMODULE'),
  ('email.header', 'c:\\python36\\lib\\email\\header.py', 'PYMODULE'),
  ('email._policybase', 'c:\\python36\\lib\\email\\_policybase.py', 'PYMODULE'),
  ('email.base64mime', 'c:\\python36\\lib\\email\\base64mime.py', 'PYMODULE'),
  ('email.encoders', 'c:\\python36\\lib\\email\\encoders.py', 'PYMODULE'),
  ('email.charset', 'c:\\python36\\lib\\email\\charset.py', 'PYMODULE'),
  ('base64', 'c:\\python36\\lib\\base64.py', 'PYMODULE'),
  ('email._encoded_words',
   'c:\\python36\\lib\\email\\_encoded_words.py',
   'PYMODULE'),
  ('hashlib', 'c:\\python36\\lib\\hashlib.py', 'PYMODULE'),
  ('bisect', 'c:\\python36\\lib\\bisect.py', 'PYMODULE'),
  ('random', 'c:\\python36\\lib\\random.py', 'PYMODULE'),
  ('email.generator', 'c:\\python36\\lib\\email\\generator.py', 'PYMODULE'),
  ('email.iterators', 'c:\\python36\\lib\\email\\iterators.py', 'PYMODULE'),
  ('urllib', 'c:\\python36\\lib\\urllib\\__init__.py', 'PYMODULE'),
  ('email._header_value_parser',
   'c:\\python36\\lib\\email\\_header_value_parser.py',
   'PYMODULE'),
  ('email.headerregistry',
   'c:\\python36\\lib\\email\\headerregistry.py',
   'PYMODULE'),
  ('email.quoprimime', 'c:\\python36\\lib\\email\\quoprimime.py', 'PYMODULE'),
  ('email.contentmanager',
   'c:\\python36\\lib\\email\\contentmanager.py',
   'PYMODULE'),
  ('email.policy', 'c:\\python36\\lib\\email\\policy.py', 'PYMODULE'),
  ('email.message', 'c:\\python36\\lib\\email\\message.py', 'PYMODULE'),
  ('bz2', 'c:\\python36\\lib\\bz2.py', 'PYMODULE'),
  ('lzma', 'c:\\python36\\lib\\lzma.py', 'PYMODULE'),
  ('_compression', 'c:\\python36\\lib\\_compression.py', 'PYMODULE'),
  ('gzip', 'c:\\python36\\lib\\gzip.py', 'PYMODULE'),
  ('tarfile', 'c:\\python36\\lib\\tarfile.py', 'PYMODULE'),
  ('_dummy_thread', 'c:\\python36\\lib\\_dummy_thread.py', 'PYMODULE'),
  ('dummy_threading', 'c:\\python36\\lib\\dummy_threading.py', 'PYMODULE'),
  ('py_compile', 'c:\\python36\\lib\\py_compile.py', 'PYMODULE'),
  ('zipfile', 'c:\\python36\\lib\\zipfile.py', 'PYMODULE'),
  ('shutil', 'c:\\python36\\lib\\shutil.py', 'PYMODULE'),
  ('selectors', 'c:\\python36\\lib\\selectors.py', 'PYMODULE'),
  ('socket', 'c:\\python36\\lib\\socket.py', 'PYMODULE'),
  ('webbrowser', 'c:\\python36\\lib\\webbrowser.py', 'PYMODULE'),
  ('pydoc', 'c:\\python36\\lib\\pydoc.py', 'PYMODULE'),
  ('copy', 'c:\\python36\\lib\\copy.py', 'PYMODULE'),
  ('gettext', 'c:\\python36\\lib\\gettext.py', 'PYMODULE'),
  ('getopt', 'c:\\python36\\lib\\getopt.py', 'PYMODULE'),
  ('pdb', 'c:\\python36\\lib\\pdb.py', 'PYMODULE'),
  ('unittest.util', 'c:\\python36\\lib\\unittest\\util.py', 'PYMODULE'),
  ('unittest.result', 'c:\\python36\\lib\\unittest\\result.py', 'PYMODULE'),
  ('string', 'c:\\python36\\lib\\string.py', 'PYMODULE'),
  ('_threading_local', 'c:\\python36\\lib\\_threading_local.py', 'PYMODULE'),
  ('threading', 'c:\\python36\\lib\\threading.py', 'PYMODULE'),
  ('logging', 'c:\\python36\\lib\\logging\\__init__.py', 'PYMODULE'),
  ('contextlib', 'c:\\python36\\lib\\contextlib.py', 'PYMODULE'),
  ('unittest.case', 'c:\\python36\\lib\\unittest\\case.py', 'PYMODULE'),
  ('unittest.suite', 'c:\\python36\\lib\\unittest\\suite.py', 'PYMODULE'),
  ('unittest.loader', 'c:\\python36\\lib\\unittest\\loader.py', 'PYMODULE'),
  ('stat', 'c:\\python36\\lib\\stat.py', 'PYMODULE'),
  ('genericpath', 'c:\\python36\\lib\\genericpath.py', 'PYMODULE'),
  ('posixpath', 'c:\\python36\\lib\\posixpath.py', 'PYMODULE'),
  ('fnmatch', 'c:\\python36\\lib\\fnmatch.py', 'PYMODULE'),
  ('struct', 'c:\\python36\\lib\\struct.py', 'PYMODULE'),
  ('_compat_pickle', 'c:\\python36\\lib\\_compat_pickle.py', 'PYMODULE'),
  ('pprint', 'c:\\python36\\lib\\pprint.py', 'PYMODULE'),
  ('pickle', 'c:\\python36\\lib\\pickle.py', 'PYMODULE'),
  ('tracemalloc', 'c:\\python36\\lib\\tracemalloc.py', 'PYMODULE'),
  ('warnings', 'c:\\python36\\lib\\warnings.py', 'PYMODULE'),
  ('unittest.runner', 'c:\\python36\\lib\\unittest\\runner.py', 'PYMODULE'),
  ('unittest.main', 'c:\\python36\\lib\\unittest\\main.py', 'PYMODULE'),
  ('signal', 'c:\\python36\\lib\\signal.py', 'PYMODULE'),
  ('unittest.signals', 'c:\\python36\\lib\\unittest\\signals.py', 'PYMODULE'),
  ('unittest', 'c:\\python36\\lib\\unittest\\__init__.py', 'PYMODULE'),
  ('doctest', 'c:\\python36\\lib\\doctest.py', 'PYMODULE'),
  ('enum', 'c:\\python36\\lib\\enum.py', 'PYMODULE'),
  ('json', 'c:\\python36\\lib\\json\\__init__.py', 'PYMODULE'),
  ('json.encoder', 'c:\\python36\\lib\\json\\encoder.py', 'PYMODULE'),
  ('json.decoder', 'c:\\python36\\lib\\json\\decoder.py', 'PYMODULE'),
  ('json.scanner', 'c:\\python36\\lib\\json\\scanner.py', 'PYMODULE'),
  ('requests',
   'c:\\python36\\lib\\site-packages\\requests\\__init__.py',
   'PYMODULE'),
  ('requests.status_codes',
   'c:\\python36\\lib\\site-packages\\requests\\status_codes.py',
   'PYMODULE'),
  ('requests.structures',
   'c:\\python36\\lib\\site-packages\\requests\\structures.py',
   'PYMODULE'),
  ('requests.compat',
   'c:\\python36\\lib\\site-packages\\requests\\compat.py',
   'PYMODULE'),
  ('http.cookies', 'c:\\python36\\lib\\http\\cookies.py', 'PYMODULE'),
  ('urllib3.packages.ordered_dict',
   'c:\\python36\\lib\\site-packages\\urllib3\\packages\\ordered_dict.py',
   'PYMODULE'),
  ('urllib3.packages',
   'c:\\python36\\lib\\site-packages\\urllib3\\packages\\__init__.py',
   'PYMODULE'),
  ('urllib3.packages.ssl_match_hostname',
   'c:\\python36\\lib\\site-packages\\urllib3\\packages\\ssl_match_hostname\\__init__.py',
   'PYMODULE'),
  ('urllib3.packages.ssl_match_hostname._implementation',
   'c:\\python36\\lib\\site-packages\\urllib3\\packages\\ssl_match_hostname\\_implementation.py',
   'PYMODULE'),
  ('requests.api',
   'c:\\python36\\lib\\site-packages\\requests\\api.py',
   'PYMODULE'),
  ('requests.sessions',
   'c:\\python36\\lib\\site-packages\\requests\\sessions.py',
   'PYMODULE'),
  ('requests.adapters',
   'c:\\python36\\lib\\site-packages\\requests\\adapters.py',
   'PYMODULE'),
  ('urllib3.contrib.socks',
   'c:\\python36\\lib\\site-packages\\urllib3\\contrib\\socks.py',
   'PYMODULE'),
  ('urllib3.util.url',
   'c:\\python36\\lib\\site-packages\\urllib3\\util\\url.py',
   'PYMODULE'),
  ('urllib3.connectionpool',
   'c:\\python36\\lib\\site-packages\\urllib3\\connectionpool.py',
   'PYMODULE'),
  ('urllib3.util.queue',
   'c:\\python36\\lib\\site-packages\\urllib3\\util\\queue.py',
   'PYMODULE'),
  ('urllib3.util.timeout',
   'c:\\python36\\lib\\site-packages\\urllib3\\util\\timeout.py',
   'PYMODULE'),
  ('urllib3.util.response',
   'c:\\python36\\lib\\site-packages\\urllib3\\util\\response.py',
   'PYMODULE'),
  ('urllib3.util.request',
   'c:\\python36\\lib\\site-packages\\urllib3\\util\\request.py',
   'PYMODULE'),
  ('urllib3.util.connection',
   'c:\\python36\\lib\\site-packages\\urllib3\\util\\connection.py',
   'PYMODULE'),
  ('urllib3.util.wait',
   'c:\\python36\\lib\\site-packages\\urllib3\\util\\wait.py',
   'PYMODULE'),
  ('urllib3.request',
   'c:\\python36\\lib\\site-packages\\urllib3\\request.py',
   'PYMODULE'),
  ('urllib3.filepost',
   'c:\\python36\\lib\\site-packages\\urllib3\\filepost.py',
   'PYMODULE'),
  ('urllib3.fields',
   'c:\\python36\\lib\\site-packages\\urllib3\\fields.py',
   'PYMODULE'),
  ('queue', 'c:\\python36\\lib\\queue.py', 'PYMODULE'),
  ('urllib3.packages.six',
   'c:\\python36\\lib\\site-packages\\urllib3\\packages\\six.py',
   'PYMODULE'),
  ('urllib3.connection',
   'c:\\python36\\lib\\site-packages\\urllib3\\connection.py',
   'PYMODULE'),
  ('urllib3._collections',
   'c:\\python36\\lib\\site-packages\\urllib3\\_collections.py',
   'PYMODULE'),
  ('urllib3.util.ssl_',
   'c:\\python36\\lib\\site-packages\\urllib3\\util\\ssl_.py',
   'PYMODULE'),
  ('hmac', 'c:\\python36\\lib\\hmac.py', 'PYMODULE'),
  ('urllib3.util.retry',
   'c:\\python36\\lib\\site-packages\\urllib3\\util\\retry.py',
   'PYMODULE'),
  ('urllib3.util',
   'c:\\python36\\lib\\site-packages\\urllib3\\util\\__init__.py',
   'PYMODULE'),
  ('urllib3.response',
   'c:\\python36\\lib\\site-packages\\urllib3\\response.py',
   'PYMODULE'),
  ('urllib3.poolmanager',
   'c:\\python36\\lib\\site-packages\\urllib3\\poolmanager.py',
   'PYMODULE'),
  ('requests._internal_utils',
   'c:\\python36\\lib\\site-packages\\requests\\_internal_utils.py',
   'PYMODULE'),
  ('requests.hooks',
   'c:\\python36\\lib\\site-packages\\requests\\hooks.py',
   'PYMODULE'),
  ('requests.cookies',
   'c:\\python36\\lib\\site-packages\\requests\\cookies.py',
   'PYMODULE'),
  ('requests.auth',
   'c:\\python36\\lib\\site-packages\\requests\\auth.py',
   'PYMODULE'),
  ('requests.models',
   'c:\\python36\\lib\\site-packages\\requests\\models.py',
   'PYMODULE'),
  ('idna', 'c:\\python36\\lib\\site-packages\\idna\\__init__.py', 'PYMODULE'),
  ('idna.core', 'c:\\python36\\lib\\site-packages\\idna\\core.py', 'PYMODULE'),
  ('idna.uts46data',
   'c:\\python36\\lib\\site-packages\\idna\\uts46data.py',
   'PYMODULE'),
  ('idna.intranges',
   'c:\\python36\\lib\\site-packages\\idna\\intranges.py',
   'PYMODULE'),
  ('idna.idnadata',
   'c:\\python36\\lib\\site-packages\\idna\\idnadata.py',
   'PYMODULE'),
  ('idna.package_data',
   'c:\\python36\\lib\\site-packages\\idna\\package_data.py',
   'PYMODULE'),
  ('requests.packages',
   'c:\\python36\\lib\\site-packages\\requests\\packages.py',
   'PYMODULE'),
  ('requests.utils',
   'c:\\python36\\lib\\site-packages\\requests\\utils.py',
   'PYMODULE'),
  ('requests.certs',
   'c:\\python36\\lib\\site-packages\\requests\\certs.py',
   'PYMODULE'),
  ('certifi',
   'c:\\python36\\lib\\site-packages\\certifi\\__init__.py',
   'PYMODULE'),
  ('certifi.core',
   'c:\\python36\\lib\\site-packages\\certifi\\core.py',
   'PYMODULE'),
  ('requests.__version__',
   'c:\\python36\\lib\\site-packages\\requests\\__version__.py',
   'PYMODULE'),
  ('urllib3.exceptions',
   'c:\\python36\\lib\\site-packages\\urllib3\\exceptions.py',
   'PYMODULE'),
  ('cryptography',
   'c:\\python36\\lib\\site-packages\\cryptography\\__init__.py',
   'PYMODULE'),
  ('cryptography.hazmat.bindings.openssl.binding',
   'c:\\python36\\lib\\site-packages\\cryptography\\hazmat\\bindings\\openssl\\binding.py',
   'PYMODULE'),
  ('cryptography.hazmat.bindings',
   'c:\\python36\\lib\\site-packages\\cryptography\\hazmat\\bindings\\__init__.py',
   'PYMODULE'),
  ('cryptography.hazmat',
   'c:\\python36\\lib\\site-packages\\cryptography\\hazmat\\__init__.py',
   'PYMODULE'),
  ('cryptography.exceptions',
   'c:\\python36\\lib\\site-packages\\cryptography\\exceptions.py',
   'PYMODULE'),
  ('cryptography.hazmat.bindings.openssl',
   'c:\\python36\\lib\\site-packages\\cryptography\\hazmat\\bindings\\openssl\\__init__.py',
   'PYMODULE'),
  ('cryptography.hazmat.bindings.openssl._conditional',
   'c:\\python36\\lib\\site-packages\\cryptography\\hazmat\\bindings\\openssl\\_conditional.py',
   'PYMODULE'),
  ('cryptography.hazmat.backends.openssl.ec',
   'c:\\python36\\lib\\site-packages\\cryptography\\hazmat\\backends\\openssl\\ec.py',
   'PYMODULE'),
  ('cryptography.hazmat.primitives.asymmetric.ec',
   'c:\\python36\\lib\\site-packages\\cryptography\\hazmat\\primitives\\asymmetric\\ec.py',
   'PYMODULE'),
  ('six', 'c:\\python36\\lib\\site-packages\\six.py', 'PYMODULE'),
  ('cryptography.hazmat.primitives.asymmetric',
   'c:\\python36\\lib\\site-packages\\cryptography\\hazmat\\primitives\\asymmetric\\__init__.py',
   'PYMODULE'),
  ('cryptography.hazmat.primitives.asymmetric.dh',
   'c:\\python36\\lib\\site-packages\\cryptography\\hazmat\\primitives\\asymmetric\\dh.py',
   'PYMODULE'),
  ('cryptography.hazmat.primitives.asymmetric.rsa',
   'c:\\python36\\lib\\site-packages\\cryptography\\hazmat\\primitives\\asymmetric\\rsa.py',
   'PYMODULE'),
  ('fractions', 'c:\\python36\\lib\\fractions.py', 'PYMODULE'),
  ('numbers', 'c:\\python36\\lib\\numbers.py', 'PYMODULE'),
  ('decimal', 'c:\\python36\\lib\\decimal.py', 'PYMODULE'),
  ('_pydecimal', 'c:\\python36\\lib\\_pydecimal.py', 'PYMODULE'),
  ('cryptography.hazmat.primitives.asymmetric.dsa',
   'c:\\python36\\lib\\site-packages\\cryptography\\hazmat\\primitives\\asymmetric\\dsa.py',
   'PYMODULE'),
  ('cryptography.hazmat.primitives.serialization',
   'c:\\python36\\lib\\site-packages\\cryptography\\hazmat\\primitives\\serialization.py',
   'PYMODULE'),
  ('cryptography.hazmat.primitives.hashes',
   'c:\\python36\\lib\\site-packages\\cryptography\\hazmat\\primitives\\hashes.py',
   'PYMODULE'),
  ('cryptography.hazmat.primitives',
   'c:\\python36\\lib\\site-packages\\cryptography\\hazmat\\primitives\\__init__.py',
   'PYMODULE'),
  ('cryptography.hazmat.primitives.mac',
   'c:\\python36\\lib\\site-packages\\cryptography\\hazmat\\primitives\\mac.py',
   'PYMODULE'),
  ('cryptography.hazmat.primitives.constant_time',
   'c:\\python36\\lib\\site-packages\\cryptography\\hazmat\\primitives\\constant_time.py',
   'PYMODULE'),
  ('cryptography.hazmat.backends.openssl.utils',
   'c:\\python36\\lib\\site-packages\\cryptography\\hazmat\\backends\\openssl\\utils.py',
   'PYMODULE'),
  ('cryptography.hazmat.primitives.asymmetric.utils',
   'c:\\python36\\lib\\site-packages\\cryptography\\hazmat\\primitives\\asymmetric\\utils.py',
   'PYMODULE'),
  ('asn1crypto.algos',
   'c:\\python36\\lib\\site-packages\\asn1crypto\\algos.py',
   'PYMODULE'),
  ('asn1crypto',
   'c:\\python36\\lib\\site-packages\\asn1crypto\\__init__.py',
   'PYMODULE'),
  ('asn1crypto._teletex_codec',
   'c:\\python36\\lib\\site-packages\\asn1crypto\\_teletex_codec.py',
   'PYMODULE'),
  ('asn1crypto.version',
   'c:\\python36\\lib\\site-packages\\asn1crypto\\version.py',
   'PYMODULE'),
  ('asn1crypto.core',
   'c:\\python36\\lib\\site-packages\\asn1crypto\\core.py',
   'PYMODULE'),
  ('asn1crypto.parser',
   'c:\\python36\\lib\\site-packages\\asn1crypto\\parser.py',
   'PYMODULE'),
  ('asn1crypto._types',
   'c:\\python36\\lib\\site-packages\\asn1crypto\\_types.py',
   'PYMODULE'),
  ('asn1crypto._ordereddict',
   'c:\\python36\\lib\\site-packages\\asn1crypto\\_ordereddict.py',
   'PYMODULE'),
  ('asn1crypto.util',
   'c:\\python36\\lib\\site-packages\\asn1crypto\\util.py',
   'PYMODULE'),
  ('asn1crypto._inet',
   'c:\\python36\\lib\\site-packages\\asn1crypto\\_inet.py',
   'PYMODULE'),
  ('asn1crypto._iri',
   'c:\\python36\\lib\\site-packages\\asn1crypto\\_iri.py',
   'PYMODULE'),
  ('asn1crypto._int',
   'c:\\python36\\lib\\site-packages\\asn1crypto\\_int.py',
   'PYMODULE'),
  ('asn1crypto._perf._big_num_ctypes',
   'c:\\python36\\lib\\site-packages\\asn1crypto\\_perf\\_big_num_ctypes.py',
   'PYMODULE'),
  ('asn1crypto._perf',
   'c:\\python36\\lib\\site-packages\\asn1crypto\\_perf\\__init__.py',
   'PYMODULE'),
  ('ctypes.util', 'c:\\python36\\lib\\ctypes\\util.py', 'PYMODULE'),
  ('ctypes.macholib.dyld',
   'c:\\python36\\lib\\ctypes\\macholib\\dyld.py',
   'PYMODULE'),
  ('ctypes.macholib',
   'c:\\python36\\lib\\ctypes\\macholib\\__init__.py',
   'PYMODULE'),
  ('ctypes.macholib.dylib',
   'c:\\python36\\lib\\ctypes\\macholib\\dylib.py',
   'PYMODULE'),
  ('ctypes.macholib.framework',
   'c:\\python36\\lib\\ctypes\\macholib\\framework.py',
   'PYMODULE'),
  ('ctypes', 'c:\\python36\\lib\\ctypes\\__init__.py', 'PYMODULE'),
  ('ctypes._endian', 'c:\\python36\\lib\\ctypes\\_endian.py', 'PYMODULE'),
  ('asn1crypto._ffi',
   'c:\\python36\\lib\\site-packages\\asn1crypto\\_ffi.py',
   'PYMODULE'),
  ('asn1crypto._errors',
   'c:\\python36\\lib\\site-packages\\asn1crypto\\_errors.py',
   'PYMODULE'),
  ('cryptography.hazmat.backends.openssl.dh',
   'c:\\python36\\lib\\site-packages\\cryptography\\hazmat\\backends\\openssl\\dh.py',
   'PYMODULE'),
  ('cryptography.hazmat.backends.openssl.x25519',
   'c:\\python36\\lib\\site-packages\\cryptography\\hazmat\\backends\\openssl\\x25519.py',
   'PYMODULE'),
  ('cryptography.hazmat.primitives.asymmetric.x25519',
   'c:\\python36\\lib\\site-packages\\cryptography\\hazmat\\primitives\\asymmetric\\x25519.py',
   'PYMODULE'),
  ('cryptography.hazmat.backends.openssl',
   'c:\\python36\\lib\\site-packages\\cryptography\\hazmat\\backends\\openssl\\__init__.py',
   'PYMODULE'),
  ('cryptography.hazmat.backends.openssl.backend',
   'c:\\python36\\lib\\site-packages\\cryptography\\hazmat\\backends\\openssl\\backend.py',
   'PYMODULE'),
  ('cryptography.hazmat.primitives.kdf.scrypt',
   'c:\\python36\\lib\\site-packages\\cryptography\\hazmat\\primitives\\kdf\\scrypt.py',
   'PYMODULE'),
  ('cryptography.hazmat.primitives.kdf',
   'c:\\python36\\lib\\site-packages\\cryptography\\hazmat\\primitives\\kdf\\__init__.py',
   'PYMODULE'),
  ('cryptography.hazmat.primitives.ciphers.modes',
   'c:\\python36\\lib\\site-packages\\cryptography\\hazmat\\primitives\\ciphers\\modes.py',
   'PYMODULE'),
  ('cryptography.hazmat.primitives.ciphers',
   'c:\\python36\\lib\\site-packages\\cryptography\\hazmat\\primitives\\ciphers\\__init__.py',
   'PYMODULE'),
  ('cryptography.hazmat.primitives.ciphers.base',
   'c:\\python36\\lib\\site-packages\\cryptography\\hazmat\\primitives\\ciphers\\base.py',
   'PYMODULE'),
  ('cryptography.hazmat.primitives.ciphers.algorithms',
   'c:\\python36\\lib\\site-packages\\cryptography\\hazmat\\primitives\\ciphers\\algorithms.py',
   'PYMODULE'),
  ('cryptography.hazmat.primitives.asymmetric.padding',
   'c:\\python36\\lib\\site-packages\\cryptography\\hazmat\\primitives\\asymmetric\\padding.py',
   'PYMODULE'),
  ('cryptography.hazmat.backends.openssl.hmac',
   'c:\\python36\\lib\\site-packages\\cryptography\\hazmat\\backends\\openssl\\hmac.py',
   'PYMODULE'),
  ('cryptography.hazmat.backends.openssl.x509',
   'c:\\python36\\lib\\site-packages\\cryptography\\hazmat\\backends\\openssl\\x509.py',
   'PYMODULE'),
  ('cryptography.hazmat.backends.openssl.cmac',
   'c:\\python36\\lib\\site-packages\\cryptography\\hazmat\\backends\\openssl\\cmac.py',
   'PYMODULE'),
  ('cryptography.hazmat.backends.openssl.dsa',
   'c:\\python36\\lib\\site-packages\\cryptography\\hazmat\\backends\\openssl\\dsa.py',
   'PYMODULE'),
  ('cryptography.hazmat.backends.interfaces',
   'c:\\python36\\lib\\site-packages\\cryptography\\hazmat\\backends\\interfaces.py',
   'PYMODULE'),
  ('cryptography.hazmat.backends.openssl.aead',
   'c:\\python36\\lib\\site-packages\\cryptography\\hazmat\\backends\\openssl\\aead.py',
   'PYMODULE'),
  ('cryptography.hazmat.primitives.ciphers.aead',
   'c:\\python36\\lib\\site-packages\\cryptography\\hazmat\\primitives\\ciphers\\aead.py',
   'PYMODULE'),
  ('cryptography.hazmat.backends.openssl.decode_asn1',
   'c:\\python36\\lib\\site-packages\\cryptography\\hazmat\\backends\\openssl\\decode_asn1.py',
   'PYMODULE'),
  ('cryptography.x509.oid',
   'c:\\python36\\lib\\site-packages\\cryptography\\x509\\oid.py',
   'PYMODULE'),
  ('cryptography.x509.name',
   'c:\\python36\\lib\\site-packages\\cryptography\\x509\\name.py',
   'PYMODULE'),
  ('cryptography.x509.extensions',
   'c:\\python36\\lib\\site-packages\\cryptography\\x509\\extensions.py',
   'PYMODULE'),
  ('cryptography.x509.general_name',
   'c:\\python36\\lib\\site-packages\\cryptography\\x509\\general_name.py',
   'PYMODULE'),
  ('cryptography.x509.certificate_transparency',
   'c:\\python36\\lib\\site-packages\\cryptography\\x509\\certificate_transparency.py',
   'PYMODULE'),
  ('asn1crypto.keys',
   'c:\\python36\\lib\\site-packages\\asn1crypto\\keys.py',
   'PYMODULE'),
  ('asn1crypto._elliptic_curve',
   'c:\\python36\\lib\\site-packages\\asn1crypto\\_elliptic_curve.py',
   'PYMODULE'),
  ('cryptography.hazmat.backends.openssl.ciphers',
   'c:\\python36\\lib\\site-packages\\cryptography\\hazmat\\backends\\openssl\\ciphers.py',
   'PYMODULE'),
  ('cryptography.hazmat.backends.openssl.hashes',
   'c:\\python36\\lib\\site-packages\\cryptography\\hazmat\\backends\\openssl\\hashes.py',
   'PYMODULE'),
  ('cryptography.hazmat.backends.openssl.encode_asn1',
   'c:\\python36\\lib\\site-packages\\cryptography\\hazmat\\backends\\openssl\\encode_asn1.py',
   'PYMODULE'),
  ('cryptography.hazmat.backends.openssl.rsa',
   'c:\\python36\\lib\\site-packages\\cryptography\\hazmat\\backends\\openssl\\rsa.py',
   'PYMODULE'),
  ('cryptography.hazmat.backends',
   'c:\\python36\\lib\\site-packages\\cryptography\\hazmat\\backends\\__init__.py',
   'PYMODULE'),
  ('cryptography.x509',
   'c:\\python36\\lib\\site-packages\\cryptography\\x509\\__init__.py',
   'PYMODULE'),
  ('cryptography.x509.base',
   'c:\\python36\\lib\\site-packages\\cryptography\\x509\\base.py',
   'PYMODULE'),
  ('cryptography.utils',
   'c:\\python36\\lib\\site-packages\\cryptography\\utils.py',
   'PYMODULE'),
  ('cryptography.__about__',
   'c:\\python36\\lib\\site-packages\\cryptography\\__about__.py',
   'PYMODULE'),
  ('urllib3.contrib.pyopenssl',
   'c:\\python36\\lib\\site-packages\\urllib3\\contrib\\pyopenssl.py',
   'PYMODULE'),
  ('urllib3.packages.backports.makefile',
   'c:\\python36\\lib\\site-packages\\urllib3\\packages\\backports\\makefile.py',
   'PYMODULE'),
  ('urllib3.packages.backports',
   'c:\\python36\\lib\\site-packages\\urllib3\\packages\\backports\\__init__.py',
   'PYMODULE'),
  ('urllib3.contrib',
   'c:\\python36\\lib\\site-packages\\urllib3\\contrib\\__init__.py',
   'PYMODULE'),
  ('requests.exceptions',
   'c:\\python36\\lib\\site-packages\\requests\\exceptions.py',
   'PYMODULE'),
  ('chardet',
   'c:\\python36\\lib\\site-packages\\chardet\\__init__.py',
   'PYMODULE'),
  ('chardet.version',
   'c:\\python36\\lib\\site-packages\\chardet\\version.py',
   'PYMODULE'),
  ('chardet.universaldetector',
   'c:\\python36\\lib\\site-packages\\chardet\\universaldetector.py',
   'PYMODULE'),
  ('chardet.sbcsgroupprober',
   'c:\\python36\\lib\\site-packages\\chardet\\sbcsgroupprober.py',
   'PYMODULE'),
  ('chardet.langturkishmodel',
   'c:\\python36\\lib\\site-packages\\chardet\\langturkishmodel.py',
   'PYMODULE'),
  ('chardet.hebrewprober',
   'c:\\python36\\lib\\site-packages\\chardet\\hebrewprober.py',
   'PYMODULE'),
  ('chardet.charsetprober',
   'c:\\python36\\lib\\site-packages\\chardet\\charsetprober.py',
   'PYMODULE'),
  ('chardet.langhebrewmodel',
   'c:\\python36\\lib\\site-packages\\chardet\\langhebrewmodel.py',
   'PYMODULE'),
  ('chardet.langthaimodel',
   'c:\\python36\\lib\\site-packages\\chardet\\langthaimodel.py',
   'PYMODULE'),
  ('chardet.langbulgarianmodel',
   'c:\\python36\\lib\\site-packages\\chardet\\langbulgarianmodel.py',
   'PYMODULE'),
  ('chardet.langgreekmodel',
   'c:\\python36\\lib\\site-packages\\chardet\\langgreekmodel.py',
   'PYMODULE'),
  ('chardet.langcyrillicmodel',
   'c:\\python36\\lib\\site-packages\\chardet\\langcyrillicmodel.py',
   'PYMODULE'),
  ('chardet.sbcharsetprober',
   'c:\\python36\\lib\\site-packages\\chardet\\sbcharsetprober.py',
   'PYMODULE'),
  ('chardet.mbcsgroupprober',
   'c:\\python36\\lib\\site-packages\\chardet\\mbcsgroupprober.py',
   'PYMODULE'),
  ('chardet.euctwprober',
   'c:\\python36\\lib\\site-packages\\chardet\\euctwprober.py',
   'PYMODULE'),
  ('chardet.mbcssm',
   'c:\\python36\\lib\\site-packages\\chardet\\mbcssm.py',
   'PYMODULE'),
  ('chardet.chardistribution',
   'c:\\python36\\lib\\site-packages\\chardet\\chardistribution.py',
   'PYMODULE'),
  ('chardet.jisfreq',
   'c:\\python36\\lib\\site-packages\\chardet\\jisfreq.py',
   'PYMODULE'),
  ('chardet.big5freq',
   'c:\\python36\\lib\\site-packages\\chardet\\big5freq.py',
   'PYMODULE'),
  ('chardet.gb2312freq',
   'c:\\python36\\lib\\site-packages\\chardet\\gb2312freq.py',
   'PYMODULE'),
  ('chardet.euckrfreq',
   'c:\\python36\\lib\\site-packages\\chardet\\euckrfreq.py',
   'PYMODULE'),
  ('chardet.euctwfreq',
   'c:\\python36\\lib\\site-packages\\chardet\\euctwfreq.py',
   'PYMODULE'),
  ('chardet.codingstatemachine',
   'c:\\python36\\lib\\site-packages\\chardet\\codingstatemachine.py',
   'PYMODULE'),
  ('chardet.mbcharsetprober',
   'c:\\python36\\lib\\site-packages\\chardet\\mbcharsetprober.py',
   'PYMODULE'),
  ('chardet.big5prober',
   'c:\\python36\\lib\\site-packages\\chardet\\big5prober.py',
   'PYMODULE'),
  ('chardet.cp949prober',
   'c:\\python36\\lib\\site-packages\\chardet\\cp949prober.py',
   'PYMODULE'),
  ('chardet.euckrprober',
   'c:\\python36\\lib\\site-packages\\chardet\\euckrprober.py',
   'PYMODULE'),
  ('chardet.gb2312prober',
   'c:\\python36\\lib\\site-packages\\chardet\\gb2312prober.py',
   'PYMODULE'),
  ('chardet.eucjpprober',
   'c:\\python36\\lib\\site-packages\\chardet\\eucjpprober.py',
   'PYMODULE'),
  ('chardet.jpcntx',
   'c:\\python36\\lib\\site-packages\\chardet\\jpcntx.py',
   'PYMODULE'),
  ('chardet.sjisprober',
   'c:\\python36\\lib\\site-packages\\chardet\\sjisprober.py',
   'PYMODULE'),
  ('chardet.utf8prober',
   'c:\\python36\\lib\\site-packages\\chardet\\utf8prober.py',
   'PYMODULE'),
  ('chardet.latin1prober',
   'c:\\python36\\lib\\site-packages\\chardet\\latin1prober.py',
   'PYMODULE'),
  ('chardet.escprober',
   'c:\\python36\\lib\\site-packages\\chardet\\escprober.py',
   'PYMODULE'),
  ('chardet.escsm',
   'c:\\python36\\lib\\site-packages\\chardet\\escsm.py',
   'PYMODULE'),
  ('chardet.enums',
   'c:\\python36\\lib\\site-packages\\chardet\\enums.py',
   'PYMODULE'),
  ('chardet.charsetgroupprober',
   'c:\\python36\\lib\\site-packages\\chardet\\charsetgroupprober.py',
   'PYMODULE'),
  ('chardet.compat',
   'c:\\python36\\lib\\site-packages\\chardet\\compat.py',
   'PYMODULE'),
  ('urllib3',
   'c:\\python36\\lib\\site-packages\\urllib3\\__init__.py',
   'PYMODULE')],
 [('api-ms-win-crt-runtime-l1-1-0.dll',
   'C:\\Program '
   'Files\\Java\\jdk-11.0.1\\bin\\api-ms-win-crt-runtime-l1-1-0.dll',
   'BINARY'),
  ('python36.dll', 'c:\\python36\\python36.dll', 'BINARY'),
  ('api-ms-win-crt-stdio-l1-1-0.dll',
   'C:\\Program Files\\Java\\jdk-11.0.1\\bin\\api-ms-win-crt-stdio-l1-1-0.dll',
   'BINARY'),
  ('api-ms-win-crt-math-l1-1-0.dll',
   'C:\\Program Files\\Java\\jdk-11.0.1\\bin\\api-ms-win-crt-math-l1-1-0.dll',
   'BINARY'),
  ('api-ms-win-crt-locale-l1-1-0.dll',
   'C:\\Program Files\\Java\\jdk-11.0.1\\bin\\api-ms-win-crt-locale-l1-1-0.dll',
   'BINARY'),
  ('api-ms-win-crt-heap-l1-1-0.dll',
   'C:\\Program Files\\Java\\jdk-11.0.1\\bin\\api-ms-win-crt-heap-l1-1-0.dll',
   'BINARY'),
  ('VCRUNTIME140.dll', 'c:\\python36\\VCRUNTIME140.dll', 'BINARY'),
  ('ucrtbase.dll',
   'C:\\Program Files\\Java\\jdk-11.0.1\\bin\\ucrtbase.dll',
   'BINARY'),
  ('api-ms-win-crt-time-l1-1-0.dll',
   'C:\\Program Files\\Java\\jdk-11.0.1\\bin\\api-ms-win-crt-time-l1-1-0.dll',
   'BINARY'),
  ('api-ms-win-crt-convert-l1-1-0.dll',
   'C:\\Program '
   'Files\\Java\\jdk-11.0.1\\bin\\api-ms-win-crt-convert-l1-1-0.dll',
   'BINARY'),
  ('api-ms-win-crt-process-l1-1-0.dll',
   'C:\\Program '
   'Files\\Java\\jdk-11.0.1\\bin\\api-ms-win-crt-process-l1-1-0.dll',
   'BINARY'),
  ('api-ms-win-crt-string-l1-1-0.dll',
   'C:\\Program Files\\Java\\jdk-11.0.1\\bin\\api-ms-win-crt-string-l1-1-0.dll',
   'BINARY'),
  ('api-ms-win-crt-filesystem-l1-1-0.dll',
   'C:\\Program '
   'Files\\Java\\jdk-11.0.1\\bin\\api-ms-win-crt-filesystem-l1-1-0.dll',
   'BINARY'),
  ('api-ms-win-crt-conio-l1-1-0.dll',
   'C:\\Program Files\\Java\\jdk-11.0.1\\bin\\api-ms-win-crt-conio-l1-1-0.dll',
   'BINARY'),
  ('api-ms-win-crt-environment-l1-1-0.dll',
   'C:\\Program '
   'Files\\Java\\jdk-11.0.1\\bin\\api-ms-win-crt-environment-l1-1-0.dll',
   'BINARY'),
  ('api-ms-win-core-localization-l1-2-0.dll',
   'C:\\Program '
   'Files\\Java\\jdk-11.0.1\\bin\\api-ms-win-core-localization-l1-2-0.dll',
   'BINARY'),
  ('api-ms-win-core-processthreads-l1-1-1.dll',
   'C:\\Program '
   'Files\\Java\\jdk-11.0.1\\bin\\api-ms-win-core-processthreads-l1-1-1.dll',
   'BINARY'),
  ('api-ms-win-core-rtlsupport-l1-1-0.dll',
   'C:\\Program '
   'Files\\Java\\jdk-11.0.1\\bin\\api-ms-win-core-rtlsupport-l1-1-0.dll',
   'BINARY'),
  ('api-ms-win-core-errorhandling-l1-1-0.dll',
   'C:\\Program '
   'Files\\Java\\jdk-11.0.1\\bin\\api-ms-win-core-errorhandling-l1-1-0.dll',
   'BINARY'),
  ('api-ms-win-core-file-l1-1-0.dll',
   'C:\\Program Files\\Java\\jdk-11.0.1\\bin\\api-ms-win-core-file-l1-1-0.dll',
   'BINARY'),
  ('api-ms-win-core-timezone-l1-1-0.dll',
   'C:\\Program '
   'Files\\Java\\jdk-11.0.1\\bin\\api-ms-win-core-timezone-l1-1-0.dll',
   'BINARY'),
  ('api-ms-win-core-file-l1-2-0.dll',
   'C:\\Program Files\\Java\\jdk-11.0.1\\bin\\api-ms-win-core-file-l1-2-0.dll',
   'BINARY'),
  ('api-ms-win-core-sysinfo-l1-1-0.dll',
   'C:\\Program '
   'Files\\Java\\jdk-11.0.1\\bin\\api-ms-win-core-sysinfo-l1-1-0.dll',
   'BINARY'),
  ('api-ms-win-core-profile-l1-1-0.dll',
   'C:\\Program '
   'Files\\Java\\jdk-11.0.1\\bin\\api-ms-win-core-profile-l1-1-0.dll',
   'BINARY'),
  ('api-ms-win-core-console-l1-1-0.dll',
   'C:\\Program '
   'Files\\Java\\jdk-11.0.1\\bin\\api-ms-win-core-console-l1-1-0.dll',
   'BINARY'),
  ('api-ms-win-core-heap-l1-1-0.dll',
   'C:\\Program Files\\Java\\jdk-11.0.1\\bin\\api-ms-win-core-heap-l1-1-0.dll',
   'BINARY'),
  ('api-ms-win-core-processthreads-l1-1-0.dll',
   'C:\\Program '
   'Files\\Java\\jdk-11.0.1\\bin\\api-ms-win-core-processthreads-l1-1-0.dll',
   'BINARY'),
  ('api-ms-win-core-libraryloader-l1-1-0.dll',
   'C:\\Program '
   'Files\\Java\\jdk-11.0.1\\bin\\api-ms-win-core-libraryloader-l1-1-0.dll',
   'BINARY'),
  ('api-ms-win-core-file-l2-1-0.dll',
   'C:\\Program Files\\Java\\jdk-11.0.1\\bin\\api-ms-win-core-file-l2-1-0.dll',
   'BINARY'),
  ('api-ms-win-core-namedpipe-l1-1-0.dll',
   'C:\\Program '
   'Files\\Java\\jdk-11.0.1\\bin\\api-ms-win-core-namedpipe-l1-1-0.dll',
   'BINARY'),
  ('api-ms-win-core-datetime-l1-1-0.dll',
   'C:\\Program '
   'Files\\Java\\jdk-11.0.1\\bin\\api-ms-win-core-datetime-l1-1-0.dll',
   'BINARY'),
  ('api-ms-win-core-synch-l1-1-0.dll',
   'C:\\Program Files\\Java\\jdk-11.0.1\\bin\\api-ms-win-core-synch-l1-1-0.dll',
   'BINARY'),
  ('api-ms-win-core-synch-l1-2-0.dll',
   'C:\\Program Files\\Java\\jdk-11.0.1\\bin\\api-ms-win-core-synch-l1-2-0.dll',
   'BINARY'),
  ('api-ms-win-core-util-l1-1-0.dll',
   'C:\\Program Files\\Java\\jdk-11.0.1\\bin\\api-ms-win-core-util-l1-1-0.dll',
   'BINARY'),
  ('api-ms-win-core-interlocked-l1-1-0.dll',
   'C:\\Program '
   'Files\\Java\\jdk-11.0.1\\bin\\api-ms-win-core-interlocked-l1-1-0.dll',
   'BINARY'),
  ('api-ms-win-core-handle-l1-1-0.dll',
   'C:\\Program '
   'Files\\Java\\jdk-11.0.1\\bin\\api-ms-win-core-handle-l1-1-0.dll',
   'BINARY'),
  ('api-ms-win-core-memory-l1-1-0.dll',
   'C:\\Program '
   'Files\\Java\\jdk-11.0.1\\bin\\api-ms-win-core-memory-l1-1-0.dll',
   'BINARY'),
  ('api-ms-win-core-processenvironment-l1-1-0.dll',
   'C:\\Program '
   'Files\\Java\\jdk-11.0.1\\bin\\api-ms-win-core-processenvironment-l1-1-0.dll',
   'BINARY'),
  ('api-ms-win-core-string-l1-1-0.dll',
   'C:\\Program '
   'Files\\Java\\jdk-11.0.1\\bin\\api-ms-win-core-string-l1-1-0.dll',
   'BINARY'),
  ('api-ms-win-core-debug-l1-1-0.dll',
   'C:\\Program Files\\Java\\jdk-11.0.1\\bin\\api-ms-win-core-debug-l1-1-0.dll',
   'BINARY'),
  ('_ssl', 'c:\\python36\\DLLs\\_ssl.pyd', 'EXTENSION'),
  ('unicodedata', 'c:\\python36\\DLLs\\unicodedata.pyd', 'EXTENSION'),
  ('pyexpat', 'c:\\python36\\DLLs\\pyexpat.pyd', 'EXTENSION'),
  ('_hashlib', 'c:\\python36\\DLLs\\_hashlib.pyd', 'EXTENSION'),
  ('select', 'c:\\python36\\DLLs\\select.pyd', 'EXTENSION'),
  ('_bz2', 'c:\\python36\\DLLs\\_bz2.pyd', 'EXTENSION'),
  ('_lzma', 'c:\\python36\\DLLs\\_lzma.pyd', 'EXTENSION'),
  ('_socket', 'c:\\python36\\DLLs\\_socket.pyd', 'EXTENSION'),
  ('_cffi_backend',
   'c:\\python36\\lib\\site-packages\\_cffi_backend.cp36-win_amd64.pyd',
   'EXTENSION'),
  ('cryptography.hazmat.bindings._openssl',
   'c:\\python36\\lib\\site-packages\\cryptography\\hazmat\\bindings\\_openssl.cp36-win_amd64.pyd',
   'EXTENSION'),
  ('_decimal', 'c:\\python36\\DLLs\\_decimal.pyd', 'EXTENSION'),
  ('cryptography.hazmat.bindings._constant_time',
   'c:\\python36\\lib\\site-packages\\cryptography\\hazmat\\bindings\\_constant_time.cp36-win_amd64.pyd',
   'EXTENSION'),
  ('_ctypes', 'c:\\python36\\DLLs\\_ctypes.pyd', 'EXTENSION'),
  ('api-ms-win-crt-utility-l1-1-0.dll',
   'C:\\Program '
   'Files\\Java\\jdk-11.0.1\\bin\\api-ms-win-crt-utility-l1-1-0.dll',
   'BINARY')],
 [],
 [],
 [('base_library.zip',
   'C:\\Users\\tamli\\Desktop\\Magshimim\\magshimim third '
   'year\\GalilMaaravi-801-SandCastle\\VirusTotal\\build\\virustotal\\base_library.zip',
   'DATA'),
  ('cryptography-2.3-py3.6.egg-info\\top_level.txt',
   'c:\\python36\\lib\\site-packages\\cryptography-2.3.dist-info\\top_level.txt',
   'DATA'),
  ('certifi\\cacert.pem',
   'c:\\python36\\lib\\site-packages\\certifi\\cacert.pem',
   'DATA'),
  ('cryptography-2.3-py3.6.egg-info\\INSTALLER',
   'c:\\python36\\lib\\site-packages\\cryptography-2.3.dist-info\\INSTALLER',
   'DATA'),
  ('cryptography-2.3-py3.6.egg-info\\METADATA',
   'c:\\python36\\lib\\site-packages\\cryptography-2.3.dist-info\\METADATA',
   'DATA'),
  ('cryptography-2.3-py3.6.egg-info\\WHEEL',
   'c:\\python36\\lib\\site-packages\\cryptography-2.3.dist-info\\WHEEL',
   'DATA'),
  ('cryptography-2.3-py3.6.egg-info\\RECORD',
   'c:\\python36\\lib\\site-packages\\cryptography-2.3.dist-info\\RECORD',
   'DATA')],
 [])
