('C:\\Users\\magshimim\\Documents\\Magshimim\\12th\\GalilMaaravi-801-SandCastle\\VirusTotal\\build\\virustotal\\PKG-00.pkg',
 {'BINARY': 1,
  'DATA': 1,
  'EXECUTABLE': 1,
  'EXTENSION': 1,
  'PYMODULE': 1,
  'PYSOURCE': 1,
  'PYZ': 0},
 [('PYZ-00.pyz',
   'C:\\Users\\magshimim\\Documents\\Magshimim\\12th\\GalilMaaravi-801-SandCastle\\VirusTotal\\build\\virustotal\\PYZ-00.pyz',
   'PYZ'),
  ('struct',
   'C:\\Users\\magshimim\\Documents\\Magshimim\\12th\\GalilMaaravi-801-SandCastle\\VirusTotal\\build\\virustotal\\localpycos\\struct.pyo',
   'PYMODULE'),
  ('pyimod01_os_path',
   'C:\\Users\\magshimim\\Documents\\Magshimim\\12th\\GalilMaaravi-801-SandCastle\\VirusTotal\\build\\virustotal\\localpycos\\pyimod01_os_path.pyc',
   'PYMODULE'),
  ('pyimod02_archive',
   'C:\\Users\\magshimim\\Documents\\Magshimim\\12th\\GalilMaaravi-801-SandCastle\\VirusTotal\\build\\virustotal\\localpycos\\pyimod02_archive.pyc',
   'PYMODULE'),
  ('pyimod03_importers',
   'C:\\Users\\magshimim\\Documents\\Magshimim\\12th\\GalilMaaravi-801-SandCastle\\VirusTotal\\build\\virustotal\\localpycos\\pyimod03_importers.pyc',
   'PYMODULE'),
  ('pyiboot01_bootstrap',
   'c:\\program '
   'files\\python36\\lib\\site-packages\\PyInstaller\\loader\\pyiboot01_bootstrap.py',
   'PYSOURCE'),
  ('virustotal',
   'C:\\Users\\magshimim\\Documents\\Magshimim\\12th\\GalilMaaravi-801-SandCastle\\VirusTotal\\virustotal.py',
   'PYSOURCE'),
  ('api-ms-win-crt-locale-l1-1-0.dll',
   'C:\\Program Files (x86)\\Windows Kits\\10\\Windows Performance '
   'Toolkit\\api-ms-win-crt-locale-l1-1-0.dll',
   'BINARY'),
  ('python36.dll', 'c:\\program files\\python36\\python36.dll', 'BINARY'),
  ('api-ms-win-crt-runtime-l1-1-0.dll',
   'C:\\Program Files (x86)\\Windows Kits\\10\\Windows Performance '
   'Toolkit\\api-ms-win-crt-runtime-l1-1-0.dll',
   'BINARY'),
  ('api-ms-win-crt-math-l1-1-0.dll',
   'C:\\Program Files (x86)\\Windows Kits\\10\\Windows Performance '
   'Toolkit\\api-ms-win-crt-math-l1-1-0.dll',
   'BINARY'),
  ('api-ms-win-crt-stdio-l1-1-0.dll',
   'C:\\Program Files (x86)\\Windows Kits\\10\\Windows Performance '
   'Toolkit\\api-ms-win-crt-stdio-l1-1-0.dll',
   'BINARY'),
  ('VCRUNTIME140.dll',
   'c:\\program files\\python36\\VCRUNTIME140.dll',
   'BINARY'),
  ('api-ms-win-crt-heap-l1-1-0.dll',
   'C:\\Program Files (x86)\\Windows Kits\\10\\Windows Performance '
   'Toolkit\\api-ms-win-crt-heap-l1-1-0.dll',
   'BINARY'),
  ('ucrtbase.dll',
   'C:\\Program Files (x86)\\Windows Kits\\10\\Windows Performance '
   'Toolkit\\ucrtbase.dll',
   'BINARY'),
  ('api-ms-win-crt-convert-l1-1-0.dll',
   'C:\\Program Files (x86)\\Windows Kits\\10\\Windows Performance '
   'Toolkit\\api-ms-win-crt-convert-l1-1-0.dll',
   'BINARY'),
  ('api-ms-win-crt-filesystem-l1-1-0.dll',
   'C:\\Program Files (x86)\\Windows Kits\\10\\Windows Performance '
   'Toolkit\\api-ms-win-crt-filesystem-l1-1-0.dll',
   'BINARY'),
  ('api-ms-win-crt-environment-l1-1-0.dll',
   'C:\\Program Files (x86)\\Windows Kits\\10\\Windows Performance '
   'Toolkit\\api-ms-win-crt-environment-l1-1-0.dll',
   'BINARY'),
  ('api-ms-win-crt-conio-l1-1-0.dll',
   'C:\\Program Files (x86)\\Windows Kits\\10\\Windows Performance '
   'Toolkit\\api-ms-win-crt-conio-l1-1-0.dll',
   'BINARY'),
  ('api-ms-win-crt-process-l1-1-0.dll',
   'C:\\Program Files (x86)\\Windows Kits\\10\\Windows Performance '
   'Toolkit\\api-ms-win-crt-process-l1-1-0.dll',
   'BINARY'),
  ('api-ms-win-crt-string-l1-1-0.dll',
   'C:\\Program Files (x86)\\Windows Kits\\10\\Windows Performance '
   'Toolkit\\api-ms-win-crt-string-l1-1-0.dll',
   'BINARY'),
  ('api-ms-win-crt-time-l1-1-0.dll',
   'C:\\Program Files (x86)\\Windows Kits\\10\\Windows Performance '
   'Toolkit\\api-ms-win-crt-time-l1-1-0.dll',
   'BINARY'),
  ('api-ms-win-core-memory-l1-1-0.dll',
   'C:\\Program Files (x86)\\Windows Kits\\10\\Windows Performance '
   'Toolkit\\api-ms-win-core-memory-l1-1-0.dll',
   'BINARY'),
  ('api-ms-win-core-rtlsupport-l1-1-0.dll',
   'C:\\Program Files (x86)\\Windows Kits\\10\\Windows Performance '
   'Toolkit\\api-ms-win-core-rtlsupport-l1-1-0.dll',
   'BINARY'),
  ('api-ms-win-core-util-l1-1-0.dll',
   'C:\\Program Files (x86)\\Windows Kits\\10\\Windows Performance '
   'Toolkit\\api-ms-win-core-util-l1-1-0.dll',
   'BINARY'),
  ('api-ms-win-core-console-l1-1-0.dll',
   'C:\\Program Files (x86)\\Windows Kits\\10\\Windows Performance '
   'Toolkit\\api-ms-win-core-console-l1-1-0.dll',
   'BINARY'),
  ('api-ms-win-core-processthreads-l1-1-1.dll',
   'C:\\Program Files (x86)\\Windows Kits\\10\\Windows Performance '
   'Toolkit\\api-ms-win-core-processthreads-l1-1-1.dll',
   'BINARY'),
  ('api-ms-win-core-file-l1-2-0.dll',
   'C:\\Program Files (x86)\\Windows Kits\\10\\Windows Performance '
   'Toolkit\\api-ms-win-core-file-l1-2-0.dll',
   'BINARY'),
  ('api-ms-win-core-heap-l1-1-0.dll',
   'C:\\Program Files (x86)\\Windows Kits\\10\\Windows Performance '
   'Toolkit\\api-ms-win-core-heap-l1-1-0.dll',
   'BINARY'),
  ('api-ms-win-core-synch-l1-1-0.dll',
   'C:\\Program Files (x86)\\Windows Kits\\10\\Windows Performance '
   'Toolkit\\api-ms-win-core-synch-l1-1-0.dll',
   'BINARY'),
  ('api-ms-win-core-errorhandling-l1-1-0.dll',
   'C:\\Program Files (x86)\\Windows Kits\\10\\Windows Performance '
   'Toolkit\\api-ms-win-core-errorhandling-l1-1-0.dll',
   'BINARY'),
  ('api-ms-win-core-libraryloader-l1-1-0.dll',
   'C:\\Program Files (x86)\\Windows Kits\\10\\Windows Performance '
   'Toolkit\\api-ms-win-core-libraryloader-l1-1-0.dll',
   'BINARY'),
  ('api-ms-win-core-profile-l1-1-0.dll',
   'C:\\Program Files (x86)\\Windows Kits\\10\\Windows Performance '
   'Toolkit\\api-ms-win-core-profile-l1-1-0.dll',
   'BINARY'),
  ('api-ms-win-core-localization-l1-2-0.dll',
   'C:\\Program Files (x86)\\Windows Kits\\10\\Windows Performance '
   'Toolkit\\api-ms-win-core-localization-l1-2-0.dll',
   'BINARY'),
  ('api-ms-win-core-processenvironment-l1-1-0.dll',
   'C:\\Program Files (x86)\\Windows Kits\\10\\Windows Performance '
   'Toolkit\\api-ms-win-core-processenvironment-l1-1-0.dll',
   'BINARY'),
  ('api-ms-win-core-string-l1-1-0.dll',
   'C:\\Program Files (x86)\\Windows Kits\\10\\Windows Performance '
   'Toolkit\\api-ms-win-core-string-l1-1-0.dll',
   'BINARY'),
  ('api-ms-win-core-namedpipe-l1-1-0.dll',
   'C:\\Program Files (x86)\\Windows Kits\\10\\Windows Performance '
   'Toolkit\\api-ms-win-core-namedpipe-l1-1-0.dll',
   'BINARY'),
  ('api-ms-win-core-processthreads-l1-1-0.dll',
   'C:\\Program Files (x86)\\Windows Kits\\10\\Windows Performance '
   'Toolkit\\api-ms-win-core-processthreads-l1-1-0.dll',
   'BINARY'),
  ('api-ms-win-core-file-l1-1-0.dll',
   'C:\\Program Files (x86)\\Windows Kits\\10\\Windows Performance '
   'Toolkit\\api-ms-win-core-file-l1-1-0.dll',
   'BINARY'),
  ('api-ms-win-core-file-l2-1-0.dll',
   'C:\\Program Files (x86)\\Windows Kits\\10\\Windows Performance '
   'Toolkit\\api-ms-win-core-file-l2-1-0.dll',
   'BINARY'),
  ('api-ms-win-core-sysinfo-l1-1-0.dll',
   'C:\\Program Files (x86)\\Windows Kits\\10\\Windows Performance '
   'Toolkit\\api-ms-win-core-sysinfo-l1-1-0.dll',
   'BINARY'),
  ('api-ms-win-core-debug-l1-1-0.dll',
   'C:\\Program Files (x86)\\Windows Kits\\10\\Windows Performance '
   'Toolkit\\api-ms-win-core-debug-l1-1-0.dll',
   'BINARY'),
  ('api-ms-win-core-handle-l1-1-0.dll',
   'C:\\Program Files (x86)\\Windows Kits\\10\\Windows Performance '
   'Toolkit\\api-ms-win-core-handle-l1-1-0.dll',
   'BINARY'),
  ('api-ms-win-core-datetime-l1-1-0.dll',
   'C:\\Program Files (x86)\\Windows Kits\\10\\Windows Performance '
   'Toolkit\\api-ms-win-core-datetime-l1-1-0.dll',
   'BINARY'),
  ('api-ms-win-core-synch-l1-2-0.dll',
   'C:\\Program Files (x86)\\Windows Kits\\10\\Windows Performance '
   'Toolkit\\api-ms-win-core-synch-l1-2-0.dll',
   'BINARY'),
  ('api-ms-win-core-timezone-l1-1-0.dll',
   'C:\\Program Files (x86)\\Windows Kits\\10\\Windows Performance '
   'Toolkit\\api-ms-win-core-timezone-l1-1-0.dll',
   'BINARY'),
  ('api-ms-win-core-interlocked-l1-1-0.dll',
   'C:\\Program Files (x86)\\Windows Kits\\10\\Windows Performance '
   'Toolkit\\api-ms-win-core-interlocked-l1-1-0.dll',
   'BINARY'),
  ('_ssl', 'c:\\program files\\python36\\DLLs\\_ssl.pyd', 'EXTENSION'),
  ('unicodedata',
   'c:\\program files\\python36\\DLLs\\unicodedata.pyd',
   'EXTENSION'),
  ('pyexpat', 'c:\\program files\\python36\\DLLs\\pyexpat.pyd', 'EXTENSION'),
  ('_hashlib', 'c:\\program files\\python36\\DLLs\\_hashlib.pyd', 'EXTENSION'),
  ('select', 'c:\\program files\\python36\\DLLs\\select.pyd', 'EXTENSION'),
  ('_bz2', 'c:\\program files\\python36\\DLLs\\_bz2.pyd', 'EXTENSION'),
  ('_lzma', 'c:\\program files\\python36\\DLLs\\_lzma.pyd', 'EXTENSION'),
  ('_socket', 'c:\\program files\\python36\\DLLs\\_socket.pyd', 'EXTENSION'),
  ('api-ms-win-crt-utility-l1-1-0.dll',
   'C:\\Program Files (x86)\\Windows Kits\\10\\Windows Performance '
   'Toolkit\\api-ms-win-crt-utility-l1-1-0.dll',
   'BINARY'),
  ('base_library.zip',
   'C:\\Users\\magshimim\\Documents\\Magshimim\\12th\\GalilMaaravi-801-SandCastle\\VirusTotal\\build\\virustotal\\base_library.zip',
   'DATA'),
  ('certifi\\cacert.pem',
   'c:\\program files\\python36\\lib\\site-packages\\certifi\\cacert.pem',
   'DATA'),
  ('virustotal.exe.manifest',
   'C:\\Users\\magshimim\\Documents\\Magshimim\\12th\\GalilMaaravi-801-SandCastle\\VirusTotal\\build\\virustotal\\virustotal.exe.manifest',
   'BINARY'),
  ('pyi-windows-manifest-filename virustotal.exe.manifest', '', 'OPTION')],
 False,
 False,
 False)
