^C:\USERS\TAMLI\DESKTOP\MAGSHIMIM\MAGSHIMIM THIRD YEAR\GALILMAARAVI-801-SANDCASTLE\IATHOOKING\IATHOOKING\SOURCE.CPP
C:\USERS\TAMLI\DESKTOP\MAGSHIMIM\MAGSHIMIM THIRD YEAR\GALILMAARAVI-801-SANDCASTLE\IATHOOKING\IATHOOKING\DEBUG\VC141.PDB
C:\USERS\TAMLI\DESKTOP\MAGSHIMIM\MAGSHIMIM THIRD YEAR\GALILMAARAVI-801-SANDCASTLE\IATHOOKING\IATHOOKING\DEBUG\VC141.IDB
C:\USERS\TAMLI\DESKTOP\MAGSHIMIM\MAGSHIMIM THIRD YEAR\GALILMAARAVI-801-SANDCASTLE\IATHOOKING\IATHOOKING\DEBUG\SOURCE.OBJ
