^C:\USERS\TAMLI\DESKTOP\MAGSHIMIM\MAGSHIMIM THIRD YEAR\GALILMAARAVI-801-SANDCASTLE\IATHOOKING\IATHOOKING\X64\DEBUG\SOURCE.OBJ
/OUT:"C:\USERS\TAMLI\DESKTOP\MAGSHIMIM\MAGSHIMIM THIRD YEAR\GALILMAARAVI-801-SANDCASTLE\IATHOOKING\X64\DEBUG\IATHOOKING.DLL" /INCREMENTAL /NOLOGO KERNEL32.LIB USER32.LIB GDI32.LIB WINSPOOL.LIB COMDLG32.LIB ADVAPI32.LIB SHELL32.LIB OLE32.LIB OLEAUT32.LIB UUID.LIB ODBC32.LIB ODBCCP32.LIB /MANIFEST /MANIFESTUAC:"level='asInvoker' uiAccess='false'" /manifest:embed /DEBUG:FASTLINK /PDB:"C:\USERS\TAMLI\DESKTOP\MAGSHIMIM\MAGSHIMIM THIRD YEAR\GALILMAARAVI-801-SANDCASTLE\IATHOOKING\X64\DEBUG\IATHOOKING.PDB" /TLBID:1 /DYNAMICBASE /NXCOMPAT /IMPLIB:"C:\USERS\TAMLI\DESKTOP\MAGSHIMIM\MAGSHIMIM THIRD YEAR\GALILMAARAVI-801-SANDCASTLE\IATHOOKING\X64\DEBUG\IATHOOKING.LIB" /MACHINE:X64 /DLL X64\DEBUG\SOURCE.OBJ
^C:\USERS\MAGSHIMIM\DOCUMENTS\MAGSHIMIM\12TH\GALILMAARAVI-801-SANDCASTLE\IATHOOKING\IATHOOKING\X64\DEBUG\SOURCE.OBJ
/OUT:"C:\USERS\MAGSHIMIM\DOCUMENTS\MAGSHIMIM\12TH\GALILMAARAVI-801-SANDCASTLE\IATHOOKING\X64\DEBUG\IATHOOKING.DLL" /INCREMENTAL /NOLOGO KERNEL32.LIB USER32.LIB GDI32.LIB WINSPOOL.LIB COMDLG32.LIB ADVAPI32.LIB SHELL32.LIB OLE32.LIB OLEAUT32.LIB UUID.LIB ODBC32.LIB ODBCCP32.LIB /MANIFEST /MANIFESTUAC:"level='asInvoker' uiAccess='false'" /manifest:embed /DEBUG:FASTLINK /PDB:"C:\USERS\MAGSHIMIM\DOCUMENTS\MAGSHIMIM\12TH\GALILMAARAVI-801-SANDCASTLE\IATHOOKING\X64\DEBUG\IATHOOKING.PDB" /TLBID:1 /DYNAMICBASE /NXCOMPAT /IMPLIB:"C:\USERS\MAGSHIMIM\DOCUMENTS\MAGSHIMIM\12TH\GALILMAARAVI-801-SANDCASTLE\IATHOOKING\X64\DEBUG\IATHOOKING.LIB" /MACHINE:X64 /DLL X64\DEBUG\SOURCE.OBJ
