^C:\USERS\MAGSHIMIM\DOCUMENTS\MAGSHIMIM\12TH\GALILMAARAVI-801-SANDCASTLE\IATHOOKING\IATHOOKING\X64\DEBUG\SOURCE.OBJ
C:\USERS\MAGSHIMIM\DOCUMENTS\MAGSHIMIM\12TH\GALILMAARAVI-801-SANDCASTLE\IATHOOKING\X64\DEBUG\IATHOOKING.DLL
C:\USERS\MAGSHIMIM\DOCUMENTS\MAGSHIMIM\12TH\GALILMAARAVI-801-SANDCASTLE\IATHOOKING\X64\DEBUG\IATHOOKING.ILK
C:\USERS\MAGSHIMIM\DOCUMENTS\MAGSHIMIM\12TH\GALILMAARAVI-801-SANDCASTLE\IATHOOKING\X64\DEBUG\IATHOOKING.PDB
^C:\USERS\TAMLI\DESKTOP\MAGSHIMIM\MAGSHIMIM THIRD YEAR\GALILMAARAVI-801-SANDCASTLE\IATHOOKING\IATHOOKING\X64\DEBUG\SOURCE.OBJ
C:\USERS\TAMLI\DESKTOP\MAGSHIMIM\MAGSHIMIM THIRD YEAR\GALILMAARAVI-801-SANDCASTLE\IATHOOKING\X64\DEBUG\IATHOOKING.ILK
C:\USERS\TAMLI\DESKTOP\MAGSHIMIM\MAGSHIMIM THIRD YEAR\GALILMAARAVI-801-SANDCASTLE\IATHOOKING\X64\DEBUG\IATHOOKING.DLL
C:\USERS\TAMLI\DESKTOP\MAGSHIMIM\MAGSHIMIM THIRD YEAR\GALILMAARAVI-801-SANDCASTLE\IATHOOKING\X64\DEBUG\IATHOOKING.PDB
