('C:\\Users\\tamli\\Desktop\\Magshimim\\magshimim third '
 'year\\GalilMaaravi-801-SandCastle\\Template\\build\\report\\out00-PYZ.pyz',
 [('_strptime', 'c:\\python36\\lib\\_strptime.py', 'PYMODULE'),
  ('ntpath', 'c:\\python36\\lib\\ntpath.py', 'PYMODULE'),
  ('stringprep', 'c:\\python36\\lib\\stringprep.py', 'PYMODULE'),
  ('fnmatch', 'c:\\python36\\lib\\fnmatch.py', 'PYMODULE'),
  ('struct', 'c:\\python36\\lib\\struct.py', 'PYMODULE'),
  ('_compat_pickle', 'c:\\python36\\lib\\_compat_pickle.py', 'PYMODULE'),
  ('__future__', 'c:\\python36\\lib\\__future__.py', 'PYMODULE'),
  ('difflib', 'c:\\python36\\lib\\difflib.py', 'PYMODULE'),
  ('ast', 'c:\\python36\\lib\\ast.py', 'PYMODULE'),
  ('inspect', 'c:\\python36\\lib\\inspect.py', 'PYMODULE'),
  ('cmd', 'c:\\python36\\lib\\cmd.py', 'PYMODULE'),
  ('bdb', 'c:\\python36\\lib\\bdb.py', 'PYMODULE'),
  ('opcode', 'c:\\python36\\lib\\opcode.py', 'PYMODULE'),
  ('dis', 'c:\\python36\\lib\\dis.py', 'PYMODULE'),
  ('codeop', 'c:\\python36\\lib\\codeop.py', 'PYMODULE'),
  ('code', 'c:\\python36\\lib\\code.py', 'PYMODULE'),
  ('glob', 'c:\\python36\\lib\\glob.py', 'PYMODULE'),
  ('shlex', 'c:\\python36\\lib\\shlex.py', 'PYMODULE'),
  ('importlib._bootstrap',
   'c:\\python36\\lib\\importlib\\_bootstrap.py',
   'PYMODULE'),
  ('importlib._bootstrap_external',
   'c:\\python36\\lib\\importlib\\_bootstrap_external.py',
   'PYMODULE'),
  ('importlib.machinery',
   'c:\\python36\\lib\\importlib\\machinery.py',
   'PYMODULE'),
  ('importlib.util', 'c:\\python36\\lib\\importlib\\util.py', 'PYMODULE'),
  ('importlib.abc', 'c:\\python36\\lib\\importlib\\abc.py', 'PYMODULE'),
  ('importlib', 'c:\\python36\\lib\\importlib\\__init__.py', 'PYMODULE'),
  ('pkgutil', 'c:\\python36\\lib\\pkgutil.py', 'PYMODULE'),
  ('xml', 'c:\\python36\\lib\\xml\\__init__.py', 'PYMODULE'),
  ('xml.sax.expatreader',
   'c:\\python36\\lib\\xml\\sax\\expatreader.py',
   'PYMODULE'),
  ('xml.sax.saxutils', 'c:\\python36\\lib\\xml\\sax\\saxutils.py', 'PYMODULE'),
  ('urllib.request', 'c:\\python36\\lib\\urllib\\request.py', 'PYMODULE'),
  ('getpass', 'c:\\python36\\lib\\getpass.py', 'PYMODULE'),
  ('nturl2path', 'c:\\python36\\lib\\nturl2path.py', 'PYMODULE'),
  ('ftplib', 'c:\\python36\\lib\\ftplib.py', 'PYMODULE'),
  ('netrc', 'c:\\python36\\lib\\netrc.py', 'PYMODULE'),
  ('http.cookiejar', 'c:\\python36\\lib\\http\\cookiejar.py', 'PYMODULE'),
  ('urllib.response', 'c:\\python36\\lib\\urllib\\response.py', 'PYMODULE'),
  ('urllib.error', 'c:\\python36\\lib\\urllib\\error.py', 'PYMODULE'),
  ('xml.sax', 'c:\\python36\\lib\\xml\\sax\\__init__.py', 'PYMODULE'),
  ('xml.sax.handler', 'c:\\python36\\lib\\xml\\sax\\handler.py', 'PYMODULE'),
  ('xml.sax._exceptions',
   'c:\\python36\\lib\\xml\\sax\\_exceptions.py',
   'PYMODULE'),
  ('xml.sax.xmlreader',
   'c:\\python36\\lib\\xml\\sax\\xmlreader.py',
   'PYMODULE'),
  ('xml.parsers', 'c:\\python36\\lib\\xml\\parsers\\__init__.py', 'PYMODULE'),
  ('xml.parsers.expat',
   'c:\\python36\\lib\\xml\\parsers\\expat.py',
   'PYMODULE'),
  ('plistlib', 'c:\\python36\\lib\\plistlib.py', 'PYMODULE'),
  ('platform', 'c:\\python36\\lib\\platform.py', 'PYMODULE'),
  ('token', 'c:\\python36\\lib\\token.py', 'PYMODULE'),
  ('tokenize', 'c:\\python36\\lib\\tokenize.py', 'PYMODULE'),
  ('urllib.parse', 'c:\\python36\\lib\\urllib\\parse.py', 'PYMODULE'),
  ('tempfile', 'c:\\python36\\lib\\tempfile.py', 'PYMODULE'),
  ('tty', 'c:\\python36\\lib\\tty.py', 'PYMODULE'),
  ('pydoc_data', 'c:\\python36\\lib\\pydoc_data\\__init__.py', 'PYMODULE'),
  ('pydoc_data.topics', 'c:\\python36\\lib\\pydoc_data\\topics.py', 'PYMODULE'),
  ('html.entities', 'c:\\python36\\lib\\html\\entities.py', 'PYMODULE'),
  ('html', 'c:\\python36\\lib\\html\\__init__.py', 'PYMODULE'),
  ('ipaddress', 'c:\\python36\\lib\\ipaddress.py', 'PYMODULE'),
  ('ssl', 'c:\\python36\\lib\\ssl.py', 'PYMODULE'),
  ('http.client', 'c:\\python36\\lib\\http\\client.py', 'PYMODULE'),
  ('mimetypes', 'c:\\python36\\lib\\mimetypes.py', 'PYMODULE'),
  ('socketserver', 'c:\\python36\\lib\\socketserver.py', 'PYMODULE'),
  ('http', 'c:\\python36\\lib\\http\\__init__.py', 'PYMODULE'),
  ('http.server', 'c:\\python36\\lib\\http\\server.py', 'PYMODULE'),
  ('optparse', 'c:\\python36\\lib\\optparse.py', 'PYMODULE'),
  ('uu', 'c:\\python36\\lib\\uu.py', 'PYMODULE'),
  ('quopri', 'c:\\python36\\lib\\quopri.py', 'PYMODULE'),
  ('email.feedparser', 'c:\\python36\\lib\\email\\feedparser.py', 'PYMODULE'),
  ('email.parser', 'c:\\python36\\lib\\email\\parser.py', 'PYMODULE'),
  ('email', 'c:\\python36\\lib\\email\\__init__.py', 'PYMODULE'),
  ('calendar', 'c:\\python36\\lib\\calendar.py', 'PYMODULE'),
  ('email._parseaddr', 'c:\\python36\\lib\\email\\_parseaddr.py', 'PYMODULE'),
  ('email.utils', 'c:\\python36\\lib\\email\\utils.py', 'PYMODULE'),
  ('email.errors', 'c:\\python36\\lib\\email\\errors.py', 'PYMODULE'),
  ('email.header', 'c:\\python36\\lib\\email\\header.py', 'PYMODULE'),
  ('email._policybase', 'c:\\python36\\lib\\email\\_policybase.py', 'PYMODULE'),
  ('email.base64mime', 'c:\\python36\\lib\\email\\base64mime.py', 'PYMODULE'),
  ('email.encoders', 'c:\\python36\\lib\\email\\encoders.py', 'PYMODULE'),
  ('email.charset', 'c:\\python36\\lib\\email\\charset.py', 'PYMODULE'),
  ('base64', 'c:\\python36\\lib\\base64.py', 'PYMODULE'),
  ('email._encoded_words',
   'c:\\python36\\lib\\email\\_encoded_words.py',
   'PYMODULE'),
  ('hashlib', 'c:\\python36\\lib\\hashlib.py', 'PYMODULE'),
  ('bisect', 'c:\\python36\\lib\\bisect.py', 'PYMODULE'),
  ('random', 'c:\\python36\\lib\\random.py', 'PYMODULE'),
  ('email.generator', 'c:\\python36\\lib\\email\\generator.py', 'PYMODULE'),
  ('email.iterators', 'c:\\python36\\lib\\email\\iterators.py', 'PYMODULE'),
  ('urllib', 'c:\\python36\\lib\\urllib\\__init__.py', 'PYMODULE'),
  ('email._header_value_parser',
   'c:\\python36\\lib\\email\\_header_value_parser.py',
   'PYMODULE'),
  ('email.headerregistry',
   'c:\\python36\\lib\\email\\headerregistry.py',
   'PYMODULE'),
  ('email.quoprimime', 'c:\\python36\\lib\\email\\quoprimime.py', 'PYMODULE'),
  ('email.contentmanager',
   'c:\\python36\\lib\\email\\contentmanager.py',
   'PYMODULE'),
  ('email.policy', 'c:\\python36\\lib\\email\\policy.py', 'PYMODULE'),
  ('email.message', 'c:\\python36\\lib\\email\\message.py', 'PYMODULE'),
  ('bz2', 'c:\\python36\\lib\\bz2.py', 'PYMODULE'),
  ('lzma', 'c:\\python36\\lib\\lzma.py', 'PYMODULE'),
  ('_compression', 'c:\\python36\\lib\\_compression.py', 'PYMODULE'),
  ('gzip', 'c:\\python36\\lib\\gzip.py', 'PYMODULE'),
  ('tarfile', 'c:\\python36\\lib\\tarfile.py', 'PYMODULE'),
  ('py_compile', 'c:\\python36\\lib\\py_compile.py', 'PYMODULE'),
  ('zipfile', 'c:\\python36\\lib\\zipfile.py', 'PYMODULE'),
  ('shutil', 'c:\\python36\\lib\\shutil.py', 'PYMODULE'),
  ('socket', 'c:\\python36\\lib\\socket.py', 'PYMODULE'),
  ('webbrowser', 'c:\\python36\\lib\\webbrowser.py', 'PYMODULE'),
  ('pydoc', 'c:\\python36\\lib\\pydoc.py', 'PYMODULE'),
  ('getopt', 'c:\\python36\\lib\\getopt.py', 'PYMODULE'),
  ('pdb', 'c:\\python36\\lib\\pdb.py', 'PYMODULE'),
  ('unittest.util', 'c:\\python36\\lib\\unittest\\util.py', 'PYMODULE'),
  ('unittest.result', 'c:\\python36\\lib\\unittest\\result.py', 'PYMODULE'),
  ('string', 'c:\\python36\\lib\\string.py', 'PYMODULE'),
  ('logging', 'c:\\python36\\lib\\logging\\__init__.py', 'PYMODULE'),
  ('unittest.case', 'c:\\python36\\lib\\unittest\\case.py', 'PYMODULE'),
  ('unittest.suite', 'c:\\python36\\lib\\unittest\\suite.py', 'PYMODULE'),
  ('unittest.loader', 'c:\\python36\\lib\\unittest\\loader.py', 'PYMODULE'),
  ('unittest.runner', 'c:\\python36\\lib\\unittest\\runner.py', 'PYMODULE'),
  ('unittest.main', 'c:\\python36\\lib\\unittest\\main.py', 'PYMODULE'),
  ('unittest.signals', 'c:\\python36\\lib\\unittest\\signals.py', 'PYMODULE'),
  ('unittest', 'c:\\python36\\lib\\unittest\\__init__.py', 'PYMODULE'),
  ('doctest', 'c:\\python36\\lib\\doctest.py', 'PYMODULE'),
  ('stat', 'c:\\python36\\lib\\stat.py', 'PYMODULE'),
  ('genericpath', 'c:\\python36\\lib\\genericpath.py', 'PYMODULE'),
  ('posixpath', 'c:\\python36\\lib\\posixpath.py', 'PYMODULE'),
  ('signal', 'c:\\python36\\lib\\signal.py', 'PYMODULE'),
  ('contextlib', 'c:\\python36\\lib\\contextlib.py', 'PYMODULE'),
  ('_threading_local', 'c:\\python36\\lib\\_threading_local.py', 'PYMODULE'),
  ('threading', 'c:\\python36\\lib\\threading.py', 'PYMODULE'),
  ('selectors', 'c:\\python36\\lib\\selectors.py', 'PYMODULE'),
  ('_dummy_thread', 'c:\\python36\\lib\\_dummy_thread.py', 'PYMODULE'),
  ('dummy_threading', 'c:\\python36\\lib\\dummy_threading.py', 'PYMODULE'),
  ('subprocess', 'c:\\python36\\lib\\subprocess.py', 'PYMODULE'),
  ('os', 'c:\\python36\\lib\\os.py', 'PYMODULE'),
  ('textwrap', 'c:\\python36\\lib\\textwrap.py', 'PYMODULE'),
  ('gettext', 'c:\\python36\\lib\\gettext.py', 'PYMODULE'),
  ('argparse', 'c:\\python36\\lib\\argparse.py', 'PYMODULE'),
  ('pprint', 'c:\\python36\\lib\\pprint.py', 'PYMODULE'),
  ('pickle', 'c:\\python36\\lib\\pickle.py', 'PYMODULE'),
  ('tracemalloc', 'c:\\python36\\lib\\tracemalloc.py', 'PYMODULE'),
  ('warnings', 'c:\\python36\\lib\\warnings.py', 'PYMODULE'),
  ('copy', 'c:\\python36\\lib\\copy.py', 'PYMODULE'),
  ('enum', 'c:\\python36\\lib\\enum.py', 'PYMODULE'),
  ('json', 'c:\\python36\\lib\\json\\__init__.py', 'PYMODULE'),
  ('json.encoder', 'c:\\python36\\lib\\json\\encoder.py', 'PYMODULE'),
  ('json.decoder', 'c:\\python36\\lib\\json\\decoder.py', 'PYMODULE'),
  ('json.scanner', 'c:\\python36\\lib\\json\\scanner.py', 'PYMODULE'),
  ('datetime', 'c:\\python36\\lib\\datetime.py', 'PYMODULE')])
