(['C:\\Users\\magshimim\\Documents\\Magshimim\\12th\\GalilMaaravi-801-SandCastle\\SandCastle\\Yara\\logAnalysis.py'],
 ['C:\\Users\\magshimim\\Documents\\Magshimim\\12th\\GalilMaaravi-801-SandCastle\\SandCastle\\Yara',
  'C:\\Users\\magshimim\\Documents\\Magshimim\\12th\\GalilMaaravi-801-SandCastle\\SandCastle\\Yara'],
 ['codecs'],
 [],
 [],
 [],
 False,
 False,
 '3.6.8 (tags/v3.6.8:3c6b436a57, Dec 24 2018, 00:16:47) [MSC v.1916 64 bit '
 '(AMD64)]',
 [('logAnalysis',
   'C:\\Users\\magshimim\\Documents\\Magshimim\\12th\\GalilMaaravi-801-SandCastle\\SandCastle\\Yara\\logAnalysis.py',
   'PYSOURCE')],
 [('_strptime', 'c:\\program files\\python36\\lib\\_strptime.py', 'PYMODULE'),
  ('datetime', 'c:\\program files\\python36\\lib\\datetime.py', 'PYMODULE'),
  ('ntpath', 'c:\\program files\\python36\\lib\\ntpath.py', 'PYMODULE'),
  ('stringprep', 'c:\\program files\\python36\\lib\\stringprep.py', 'PYMODULE'),
  ('_compat_pickle',
   'c:\\program files\\python36\\lib\\_compat_pickle.py',
   'PYMODULE'),
  ('pickle', 'c:\\program files\\python36\\lib\\pickle.py', 'PYMODULE'),
  ('tracemalloc',
   'c:\\program files\\python36\\lib\\tracemalloc.py',
   'PYMODULE'),
  ('__future__', 'c:\\program files\\python36\\lib\\__future__.py', 'PYMODULE'),
  ('argparse', 'c:\\program files\\python36\\lib\\argparse.py', 'PYMODULE'),
  ('difflib', 'c:\\program files\\python36\\lib\\difflib.py', 'PYMODULE'),
  ('ast', 'c:\\program files\\python36\\lib\\ast.py', 'PYMODULE'),
  ('inspect', 'c:\\program files\\python36\\lib\\inspect.py', 'PYMODULE'),
  ('cmd', 'c:\\program files\\python36\\lib\\cmd.py', 'PYMODULE'),
  ('bdb', 'c:\\program files\\python36\\lib\\bdb.py', 'PYMODULE'),
  ('opcode', 'c:\\program files\\python36\\lib\\opcode.py', 'PYMODULE'),
  ('dis', 'c:\\program files\\python36\\lib\\dis.py', 'PYMODULE'),
  ('codeop', 'c:\\program files\\python36\\lib\\codeop.py', 'PYMODULE'),
  ('code', 'c:\\program files\\python36\\lib\\code.py', 'PYMODULE'),
  ('glob', 'c:\\program files\\python36\\lib\\glob.py', 'PYMODULE'),
  ('shlex', 'c:\\program files\\python36\\lib\\shlex.py', 'PYMODULE'),
  ('importlib._bootstrap',
   'c:\\program files\\python36\\lib\\importlib\\_bootstrap.py',
   'PYMODULE'),
  ('importlib._bootstrap_external',
   'c:\\program files\\python36\\lib\\importlib\\_bootstrap_external.py',
   'PYMODULE'),
  ('importlib.machinery',
   'c:\\program files\\python36\\lib\\importlib\\machinery.py',
   'PYMODULE'),
  ('importlib.util',
   'c:\\program files\\python36\\lib\\importlib\\util.py',
   'PYMODULE'),
  ('importlib.abc',
   'c:\\program files\\python36\\lib\\importlib\\abc.py',
   'PYMODULE'),
  ('importlib',
   'c:\\program files\\python36\\lib\\importlib\\__init__.py',
   'PYMODULE'),
  ('pkgutil', 'c:\\program files\\python36\\lib\\pkgutil.py', 'PYMODULE'),
  ('xml', 'c:\\program files\\python36\\lib\\xml\\__init__.py', 'PYMODULE'),
  ('xml.sax.expatreader',
   'c:\\program files\\python36\\lib\\xml\\sax\\expatreader.py',
   'PYMODULE'),
  ('xml.sax.saxutils',
   'c:\\program files\\python36\\lib\\xml\\sax\\saxutils.py',
   'PYMODULE'),
  ('urllib.request',
   'c:\\program files\\python36\\lib\\urllib\\request.py',
   'PYMODULE'),
  ('getpass', 'c:\\program files\\python36\\lib\\getpass.py', 'PYMODULE'),
  ('nturl2path', 'c:\\program files\\python36\\lib\\nturl2path.py', 'PYMODULE'),
  ('ftplib', 'c:\\program files\\python36\\lib\\ftplib.py', 'PYMODULE'),
  ('netrc', 'c:\\program files\\python36\\lib\\netrc.py', 'PYMODULE'),
  ('http.cookiejar',
   'c:\\program files\\python36\\lib\\http\\cookiejar.py',
   'PYMODULE'),
  ('urllib.response',
   'c:\\program files\\python36\\lib\\urllib\\response.py',
   'PYMODULE'),
  ('urllib.error',
   'c:\\program files\\python36\\lib\\urllib\\error.py',
   'PYMODULE'),
  ('xml.sax',
   'c:\\program files\\python36\\lib\\xml\\sax\\__init__.py',
   'PYMODULE'),
  ('xml.sax.handler',
   'c:\\program files\\python36\\lib\\xml\\sax\\handler.py',
   'PYMODULE'),
  ('xml.sax._exceptions',
   'c:\\program files\\python36\\lib\\xml\\sax\\_exceptions.py',
   'PYMODULE'),
  ('xml.sax.xmlreader',
   'c:\\program files\\python36\\lib\\xml\\sax\\xmlreader.py',
   'PYMODULE'),
  ('xml.parsers',
   'c:\\program files\\python36\\lib\\xml\\parsers\\__init__.py',
   'PYMODULE'),
  ('xml.parsers.expat',
   'c:\\program files\\python36\\lib\\xml\\parsers\\expat.py',
   'PYMODULE'),
  ('plistlib', 'c:\\program files\\python36\\lib\\plistlib.py', 'PYMODULE'),
  ('platform', 'c:\\program files\\python36\\lib\\platform.py', 'PYMODULE'),
  ('token', 'c:\\program files\\python36\\lib\\token.py', 'PYMODULE'),
  ('tokenize', 'c:\\program files\\python36\\lib\\tokenize.py', 'PYMODULE'),
  ('urllib.parse',
   'c:\\program files\\python36\\lib\\urllib\\parse.py',
   'PYMODULE'),
  ('tempfile', 'c:\\program files\\python36\\lib\\tempfile.py', 'PYMODULE'),
  ('subprocess', 'c:\\program files\\python36\\lib\\subprocess.py', 'PYMODULE'),
  ('tty', 'c:\\program files\\python36\\lib\\tty.py', 'PYMODULE'),
  ('pydoc_data',
   'c:\\program files\\python36\\lib\\pydoc_data\\__init__.py',
   'PYMODULE'),
  ('pydoc_data.topics',
   'c:\\program files\\python36\\lib\\pydoc_data\\topics.py',
   'PYMODULE'),
  ('textwrap', 'c:\\program files\\python36\\lib\\textwrap.py', 'PYMODULE'),
  ('html.entities',
   'c:\\program files\\python36\\lib\\html\\entities.py',
   'PYMODULE'),
  ('html', 'c:\\program files\\python36\\lib\\html\\__init__.py', 'PYMODULE'),
  ('ipaddress', 'c:\\program files\\python36\\lib\\ipaddress.py', 'PYMODULE'),
  ('ssl', 'c:\\program files\\python36\\lib\\ssl.py', 'PYMODULE'),
  ('http.client',
   'c:\\program files\\python36\\lib\\http\\client.py',
   'PYMODULE'),
  ('mimetypes', 'c:\\program files\\python36\\lib\\mimetypes.py', 'PYMODULE'),
  ('socketserver',
   'c:\\program files\\python36\\lib\\socketserver.py',
   'PYMODULE'),
  ('http', 'c:\\program files\\python36\\lib\\http\\__init__.py', 'PYMODULE'),
  ('http.server',
   'c:\\program files\\python36\\lib\\http\\server.py',
   'PYMODULE'),
  ('optparse', 'c:\\program files\\python36\\lib\\optparse.py', 'PYMODULE'),
  ('uu', 'c:\\program files\\python36\\lib\\uu.py', 'PYMODULE'),
  ('quopri', 'c:\\program files\\python36\\lib\\quopri.py', 'PYMODULE'),
  ('email.feedparser',
   'c:\\program files\\python36\\lib\\email\\feedparser.py',
   'PYMODULE'),
  ('email.parser',
   'c:\\program files\\python36\\lib\\email\\parser.py',
   'PYMODULE'),
  ('email', 'c:\\program files\\python36\\lib\\email\\__init__.py', 'PYMODULE'),
  ('calendar', 'c:\\program files\\python36\\lib\\calendar.py', 'PYMODULE'),
  ('email._parseaddr',
   'c:\\program files\\python36\\lib\\email\\_parseaddr.py',
   'PYMODULE'),
  ('email.utils',
   'c:\\program files\\python36\\lib\\email\\utils.py',
   'PYMODULE'),
  ('email.errors',
   'c:\\program files\\python36\\lib\\email\\errors.py',
   'PYMODULE'),
  ('email.header',
   'c:\\program files\\python36\\lib\\email\\header.py',
   'PYMODULE'),
  ('email._policybase',
   'c:\\program files\\python36\\lib\\email\\_policybase.py',
   'PYMODULE'),
  ('email.base64mime',
   'c:\\program files\\python36\\lib\\email\\base64mime.py',
   'PYMODULE'),
  ('email.encoders',
   'c:\\program files\\python36\\lib\\email\\encoders.py',
   'PYMODULE'),
  ('email.charset',
   'c:\\program files\\python36\\lib\\email\\charset.py',
   'PYMODULE'),
  ('base64', 'c:\\program files\\python36\\lib\\base64.py', 'PYMODULE'),
  ('email._encoded_words',
   'c:\\program files\\python36\\lib\\email\\_encoded_words.py',
   'PYMODULE'),
  ('hashlib', 'c:\\program files\\python36\\lib\\hashlib.py', 'PYMODULE'),
  ('bisect', 'c:\\program files\\python36\\lib\\bisect.py', 'PYMODULE'),
  ('random', 'c:\\program files\\python36\\lib\\random.py', 'PYMODULE'),
  ('email.generator',
   'c:\\program files\\python36\\lib\\email\\generator.py',
   'PYMODULE'),
  ('email.iterators',
   'c:\\program files\\python36\\lib\\email\\iterators.py',
   'PYMODULE'),
  ('urllib',
   'c:\\program files\\python36\\lib\\urllib\\__init__.py',
   'PYMODULE'),
  ('email._header_value_parser',
   'c:\\program files\\python36\\lib\\email\\_header_value_parser.py',
   'PYMODULE'),
  ('email.headerregistry',
   'c:\\program files\\python36\\lib\\email\\headerregistry.py',
   'PYMODULE'),
  ('email.quoprimime',
   'c:\\program files\\python36\\lib\\email\\quoprimime.py',
   'PYMODULE'),
  ('email.contentmanager',
   'c:\\program files\\python36\\lib\\email\\contentmanager.py',
   'PYMODULE'),
  ('email.policy',
   'c:\\program files\\python36\\lib\\email\\policy.py',
   'PYMODULE'),
  ('email.message',
   'c:\\program files\\python36\\lib\\email\\message.py',
   'PYMODULE'),
  ('bz2', 'c:\\program files\\python36\\lib\\bz2.py', 'PYMODULE'),
  ('lzma', 'c:\\program files\\python36\\lib\\lzma.py', 'PYMODULE'),
  ('_compression',
   'c:\\program files\\python36\\lib\\_compression.py',
   'PYMODULE'),
  ('gzip', 'c:\\program files\\python36\\lib\\gzip.py', 'PYMODULE'),
  ('tarfile', 'c:\\program files\\python36\\lib\\tarfile.py', 'PYMODULE'),
  ('_dummy_thread',
   'c:\\program files\\python36\\lib\\_dummy_thread.py',
   'PYMODULE'),
  ('dummy_threading',
   'c:\\program files\\python36\\lib\\dummy_threading.py',
   'PYMODULE'),
  ('py_compile', 'c:\\program files\\python36\\lib\\py_compile.py', 'PYMODULE'),
  ('zipfile', 'c:\\program files\\python36\\lib\\zipfile.py', 'PYMODULE'),
  ('shutil', 'c:\\program files\\python36\\lib\\shutil.py', 'PYMODULE'),
  ('selectors', 'c:\\program files\\python36\\lib\\selectors.py', 'PYMODULE'),
  ('socket', 'c:\\program files\\python36\\lib\\socket.py', 'PYMODULE'),
  ('webbrowser', 'c:\\program files\\python36\\lib\\webbrowser.py', 'PYMODULE'),
  ('pydoc', 'c:\\program files\\python36\\lib\\pydoc.py', 'PYMODULE'),
  ('copy', 'c:\\program files\\python36\\lib\\copy.py', 'PYMODULE'),
  ('struct', 'c:\\program files\\python36\\lib\\struct.py', 'PYMODULE'),
  ('gettext', 'c:\\program files\\python36\\lib\\gettext.py', 'PYMODULE'),
  ('getopt', 'c:\\program files\\python36\\lib\\getopt.py', 'PYMODULE'),
  ('pdb', 'c:\\program files\\python36\\lib\\pdb.py', 'PYMODULE'),
  ('unittest.util',
   'c:\\program files\\python36\\lib\\unittest\\util.py',
   'PYMODULE'),
  ('unittest.result',
   'c:\\program files\\python36\\lib\\unittest\\result.py',
   'PYMODULE'),
  ('string', 'c:\\program files\\python36\\lib\\string.py', 'PYMODULE'),
  ('_threading_local',
   'c:\\program files\\python36\\lib\\_threading_local.py',
   'PYMODULE'),
  ('threading', 'c:\\program files\\python36\\lib\\threading.py', 'PYMODULE'),
  ('logging',
   'c:\\program files\\python36\\lib\\logging\\__init__.py',
   'PYMODULE'),
  ('pprint', 'c:\\program files\\python36\\lib\\pprint.py', 'PYMODULE'),
  ('contextlib', 'c:\\program files\\python36\\lib\\contextlib.py', 'PYMODULE'),
  ('unittest.case',
   'c:\\program files\\python36\\lib\\unittest\\case.py',
   'PYMODULE'),
  ('unittest.suite',
   'c:\\program files\\python36\\lib\\unittest\\suite.py',
   'PYMODULE'),
  ('stat', 'c:\\program files\\python36\\lib\\stat.py', 'PYMODULE'),
  ('genericpath',
   'c:\\program files\\python36\\lib\\genericpath.py',
   'PYMODULE'),
  ('posixpath', 'c:\\program files\\python36\\lib\\posixpath.py', 'PYMODULE'),
  ('fnmatch', 'c:\\program files\\python36\\lib\\fnmatch.py', 'PYMODULE'),
  ('unittest.loader',
   'c:\\program files\\python36\\lib\\unittest\\loader.py',
   'PYMODULE'),
  ('unittest.runner',
   'c:\\program files\\python36\\lib\\unittest\\runner.py',
   'PYMODULE'),
  ('unittest.main',
   'c:\\program files\\python36\\lib\\unittest\\main.py',
   'PYMODULE'),
  ('signal', 'c:\\program files\\python36\\lib\\signal.py', 'PYMODULE'),
  ('unittest.signals',
   'c:\\program files\\python36\\lib\\unittest\\signals.py',
   'PYMODULE'),
  ('unittest',
   'c:\\program files\\python36\\lib\\unittest\\__init__.py',
   'PYMODULE'),
  ('doctest', 'c:\\program files\\python36\\lib\\doctest.py', 'PYMODULE'),
  ('os', 'c:\\program files\\python36\\lib\\os.py', 'PYMODULE')],
 [('api-ms-win-crt-heap-l1-1-0.dll',
   'C:\\Program Files (x86)\\Windows Kits\\10\\Windows Performance '
   'Toolkit\\api-ms-win-crt-heap-l1-1-0.dll',
   'BINARY'),
  ('api-ms-win-crt-runtime-l1-1-0.dll',
   'C:\\Program Files (x86)\\Windows Kits\\10\\Windows Performance '
   'Toolkit\\api-ms-win-crt-runtime-l1-1-0.dll',
   'BINARY'),
  ('VCRUNTIME140.dll',
   'c:\\program files\\python36\\VCRUNTIME140.dll',
   'BINARY'),
  ('api-ms-win-crt-math-l1-1-0.dll',
   'C:\\Program Files (x86)\\Windows Kits\\10\\Windows Performance '
   'Toolkit\\api-ms-win-crt-math-l1-1-0.dll',
   'BINARY'),
  ('python36.dll', 'c:\\program files\\python36\\python36.dll', 'BINARY'),
  ('api-ms-win-crt-locale-l1-1-0.dll',
   'C:\\Program Files (x86)\\Windows Kits\\10\\Windows Performance '
   'Toolkit\\api-ms-win-crt-locale-l1-1-0.dll',
   'BINARY'),
  ('api-ms-win-crt-stdio-l1-1-0.dll',
   'C:\\Program Files (x86)\\Windows Kits\\10\\Windows Performance '
   'Toolkit\\api-ms-win-crt-stdio-l1-1-0.dll',
   'BINARY'),
  ('ucrtbase.dll',
   'C:\\Program Files (x86)\\Windows Kits\\10\\Windows Performance '
   'Toolkit\\ucrtbase.dll',
   'BINARY'),
  ('api-ms-win-crt-string-l1-1-0.dll',
   'C:\\Program Files (x86)\\Windows Kits\\10\\Windows Performance '
   'Toolkit\\api-ms-win-crt-string-l1-1-0.dll',
   'BINARY'),
  ('api-ms-win-crt-convert-l1-1-0.dll',
   'C:\\Program Files (x86)\\Windows Kits\\10\\Windows Performance '
   'Toolkit\\api-ms-win-crt-convert-l1-1-0.dll',
   'BINARY'),
  ('api-ms-win-crt-process-l1-1-0.dll',
   'C:\\Program Files (x86)\\Windows Kits\\10\\Windows Performance '
   'Toolkit\\api-ms-win-crt-process-l1-1-0.dll',
   'BINARY'),
  ('api-ms-win-crt-time-l1-1-0.dll',
   'C:\\Program Files (x86)\\Windows Kits\\10\\Windows Performance '
   'Toolkit\\api-ms-win-crt-time-l1-1-0.dll',
   'BINARY'),
  ('api-ms-win-crt-conio-l1-1-0.dll',
   'C:\\Program Files (x86)\\Windows Kits\\10\\Windows Performance '
   'Toolkit\\api-ms-win-crt-conio-l1-1-0.dll',
   'BINARY'),
  ('api-ms-win-crt-environment-l1-1-0.dll',
   'C:\\Program Files (x86)\\Windows Kits\\10\\Windows Performance '
   'Toolkit\\api-ms-win-crt-environment-l1-1-0.dll',
   'BINARY'),
  ('api-ms-win-crt-filesystem-l1-1-0.dll',
   'C:\\Program Files (x86)\\Windows Kits\\10\\Windows Performance '
   'Toolkit\\api-ms-win-crt-filesystem-l1-1-0.dll',
   'BINARY'),
  ('api-ms-win-core-heap-l1-1-0.dll',
   'C:\\Program Files (x86)\\Windows Kits\\10\\Windows Performance '
   'Toolkit\\api-ms-win-core-heap-l1-1-0.dll',
   'BINARY'),
  ('api-ms-win-core-timezone-l1-1-0.dll',
   'C:\\Program Files (x86)\\Windows Kits\\10\\Windows Performance '
   'Toolkit\\api-ms-win-core-timezone-l1-1-0.dll',
   'BINARY'),
  ('api-ms-win-core-util-l1-1-0.dll',
   'C:\\Program Files (x86)\\Windows Kits\\10\\Windows Performance '
   'Toolkit\\api-ms-win-core-util-l1-1-0.dll',
   'BINARY'),
  ('api-ms-win-core-errorhandling-l1-1-0.dll',
   'C:\\Program Files (x86)\\Windows Kits\\10\\Windows Performance '
   'Toolkit\\api-ms-win-core-errorhandling-l1-1-0.dll',
   'BINARY'),
  ('api-ms-win-core-string-l1-1-0.dll',
   'C:\\Program Files (x86)\\Windows Kits\\10\\Windows Performance '
   'Toolkit\\api-ms-win-core-string-l1-1-0.dll',
   'BINARY'),
  ('api-ms-win-core-localization-l1-2-0.dll',
   'C:\\Program Files (x86)\\Windows Kits\\10\\Windows Performance '
   'Toolkit\\api-ms-win-core-localization-l1-2-0.dll',
   'BINARY'),
  ('api-ms-win-core-interlocked-l1-1-0.dll',
   'C:\\Program Files (x86)\\Windows Kits\\10\\Windows Performance '
   'Toolkit\\api-ms-win-core-interlocked-l1-1-0.dll',
   'BINARY'),
  ('api-ms-win-core-processenvironment-l1-1-0.dll',
   'C:\\Program Files (x86)\\Windows Kits\\10\\Windows Performance '
   'Toolkit\\api-ms-win-core-processenvironment-l1-1-0.dll',
   'BINARY'),
  ('api-ms-win-core-datetime-l1-1-0.dll',
   'C:\\Program Files (x86)\\Windows Kits\\10\\Windows Performance '
   'Toolkit\\api-ms-win-core-datetime-l1-1-0.dll',
   'BINARY'),
  ('api-ms-win-core-file-l2-1-0.dll',
   'C:\\Program Files (x86)\\Windows Kits\\10\\Windows Performance '
   'Toolkit\\api-ms-win-core-file-l2-1-0.dll',
   'BINARY'),
  ('api-ms-win-core-namedpipe-l1-1-0.dll',
   'C:\\Program Files (x86)\\Windows Kits\\10\\Windows Performance '
   'Toolkit\\api-ms-win-core-namedpipe-l1-1-0.dll',
   'BINARY'),
  ('api-ms-win-core-synch-l1-1-0.dll',
   'C:\\Program Files (x86)\\Windows Kits\\10\\Windows Performance '
   'Toolkit\\api-ms-win-core-synch-l1-1-0.dll',
   'BINARY'),
  ('api-ms-win-core-file-l1-1-0.dll',
   'C:\\Program Files (x86)\\Windows Kits\\10\\Windows Performance '
   'Toolkit\\api-ms-win-core-file-l1-1-0.dll',
   'BINARY'),
  ('api-ms-win-core-synch-l1-2-0.dll',
   'C:\\Program Files (x86)\\Windows Kits\\10\\Windows Performance '
   'Toolkit\\api-ms-win-core-synch-l1-2-0.dll',
   'BINARY'),
  ('api-ms-win-core-processthreads-l1-1-0.dll',
   'C:\\Program Files (x86)\\Windows Kits\\10\\Windows Performance '
   'Toolkit\\api-ms-win-core-processthreads-l1-1-0.dll',
   'BINARY'),
  ('api-ms-win-core-sysinfo-l1-1-0.dll',
   'C:\\Program Files (x86)\\Windows Kits\\10\\Windows Performance '
   'Toolkit\\api-ms-win-core-sysinfo-l1-1-0.dll',
   'BINARY'),
  ('api-ms-win-core-debug-l1-1-0.dll',
   'C:\\Program Files (x86)\\Windows Kits\\10\\Windows Performance '
   'Toolkit\\api-ms-win-core-debug-l1-1-0.dll',
   'BINARY'),
  ('api-ms-win-core-console-l1-1-0.dll',
   'C:\\Program Files (x86)\\Windows Kits\\10\\Windows Performance '
   'Toolkit\\api-ms-win-core-console-l1-1-0.dll',
   'BINARY'),
  ('api-ms-win-core-rtlsupport-l1-1-0.dll',
   'C:\\Program Files (x86)\\Windows Kits\\10\\Windows Performance '
   'Toolkit\\api-ms-win-core-rtlsupport-l1-1-0.dll',
   'BINARY'),
  ('api-ms-win-core-handle-l1-1-0.dll',
   'C:\\Program Files (x86)\\Windows Kits\\10\\Windows Performance '
   'Toolkit\\api-ms-win-core-handle-l1-1-0.dll',
   'BINARY'),
  ('api-ms-win-core-processthreads-l1-1-1.dll',
   'C:\\Program Files (x86)\\Windows Kits\\10\\Windows Performance '
   'Toolkit\\api-ms-win-core-processthreads-l1-1-1.dll',
   'BINARY'),
  ('api-ms-win-core-libraryloader-l1-1-0.dll',
   'C:\\Program Files (x86)\\Windows Kits\\10\\Windows Performance '
   'Toolkit\\api-ms-win-core-libraryloader-l1-1-0.dll',
   'BINARY'),
  ('api-ms-win-core-file-l1-2-0.dll',
   'C:\\Program Files (x86)\\Windows Kits\\10\\Windows Performance '
   'Toolkit\\api-ms-win-core-file-l1-2-0.dll',
   'BINARY'),
  ('api-ms-win-core-memory-l1-1-0.dll',
   'C:\\Program Files (x86)\\Windows Kits\\10\\Windows Performance '
   'Toolkit\\api-ms-win-core-memory-l1-1-0.dll',
   'BINARY'),
  ('api-ms-win-core-profile-l1-1-0.dll',
   'C:\\Program Files (x86)\\Windows Kits\\10\\Windows Performance '
   'Toolkit\\api-ms-win-core-profile-l1-1-0.dll',
   'BINARY'),
  ('_ssl', 'c:\\program files\\python36\\DLLs\\_ssl.pyd', 'EXTENSION'),
  ('unicodedata',
   'c:\\program files\\python36\\DLLs\\unicodedata.pyd',
   'EXTENSION'),
  ('pyexpat', 'c:\\program files\\python36\\DLLs\\pyexpat.pyd', 'EXTENSION'),
  ('_hashlib', 'c:\\program files\\python36\\DLLs\\_hashlib.pyd', 'EXTENSION'),
  ('select', 'c:\\program files\\python36\\DLLs\\select.pyd', 'EXTENSION'),
  ('_bz2', 'c:\\program files\\python36\\DLLs\\_bz2.pyd', 'EXTENSION'),
  ('_lzma', 'c:\\program files\\python36\\DLLs\\_lzma.pyd', 'EXTENSION'),
  ('_socket', 'c:\\program files\\python36\\DLLs\\_socket.pyd', 'EXTENSION'),
  ('api-ms-win-crt-utility-l1-1-0.dll',
   'C:\\Program Files (x86)\\Windows Kits\\10\\Windows Performance '
   'Toolkit\\api-ms-win-crt-utility-l1-1-0.dll',
   'BINARY')],
 [],
 [],
 [('base_library.zip',
   'C:\\Users\\magshimim\\Documents\\Magshimim\\12th\\GalilMaaravi-801-SandCastle\\SandCastle\\Yara\\build\\logAnalysis\\base_library.zip',
   'DATA')],
 [])
